<?xml version="1.0" encoding="UTF-8" standalone="no"?>
<!-- Created with Inkscape (http://www.inkscape.org/) -->

<svg
   xmlns:dc="http://purl.org/dc/elements/1.1/"
   xmlns:cc="http://creativecommons.org/ns#"
   xmlns:rdf="http://www.w3.org/1999/02/22-rdf-syntax-ns#"
   xmlns:svg="http://www.w3.org/2000/svg"
   xmlns="http://www.w3.org/2000/svg"
   xmlns:xlink="http://www.w3.org/1999/xlink"
   xmlns:sodipodi="http://sodipodi.sourceforge.net/DTD/sodipodi-0.dtd"
   xmlns:inkscape="http://www.inkscape.org/namespaces/inkscape"
   width="80mm"
   height="96.34906mm"
   viewBox="0 0 80 96.34906"
   version="1.1"
   id="svg5062"
   inkscape:version="0.92.5 (2060ec1f9f, 2020-04-08)"
   sodipodi:docname="fen_classif_SCP_MC_C.svg"
   inkscape:export-filename="/home/poulpe/Enseignement/fiches_focus_online/BriquesDeGeomatique/figures/fen_classif_SCP_MC_C.png"
   inkscape:export-xdpi="250"
   inkscape:export-ydpi="250">
  <defs
     id="defs5056">
    <marker
       inkscape:stockid="Arrow1Mend"
       orient="auto"
       refY="0"
       refX="0"
       id="Arrow1Mend"
       style="overflow:visible"
       inkscape:isstock="true">
      <path
         id="path842"
         d="M 0,0 5,-5 -12.5,0 5,5 Z"
         style="fill:#ff0000;fill-opacity:1;fill-rule:evenodd;stroke:#ff0000;stroke-width:1.00000003pt;stroke-opacity:1"
         transform="matrix(-0.4,0,0,-0.4,-4,0)"
         inkscape:connector-curvature="0" />
    </marker>
    <marker
       inkscape:stockid="Arrow1Mend"
       orient="auto"
       refY="0"
       refX="0"
       id="Arrow1Mend-3"
       style="overflow:visible"
       inkscape:isstock="true">
      <path
         inkscape:connector-curvature="0"
         id="path842-6"
         d="M 0,0 5,-5 -12.5,0 5,5 Z"
         style="fill:#ff0000;fill-opacity:1;fill-rule:evenodd;stroke:#ff0000;stroke-width:1.00000003pt;stroke-opacity:1"
         transform="matrix(-0.4,0,0,-0.4,-4,0)" />
    </marker>
  </defs>
  <sodipodi:namedview
     id="base"
     pagecolor="#ffffff"
     bordercolor="#666666"
     borderopacity="1.0"
     inkscape:pageopacity="0.0"
     inkscape:pageshadow="2"
     inkscape:zoom="2.1941271"
     inkscape:cx="151.1811"
     inkscape:cy="182.07696"
     inkscape:document-units="mm"
     inkscape:current-layer="layer1"
     showgrid="false"
     inkscape:window-width="1920"
     inkscape:window-height="1011"
     inkscape:window-x="0"
     inkscape:window-y="0"
     inkscape:window-maximized="1"
     fit-margin-top="0"
     fit-margin-left="0"
     fit-margin-right="0"
     fit-margin-bottom="0" />
  <metadata
     id="metadata5059">
    <rdf:RDF>
      <cc:Work
         rdf:about="">
        <dc:format>image/svg+xml</dc:format>
        <dc:type
           rdf:resource="http://purl.org/dc/dcmitype/StillImage" />
        <dc:title></dc:title>
      </cc:Work>
    </rdf:RDF>
  </metadata>
  <g
     inkscape:label="Calque 1"
     inkscape:groupmode="layer"
     id="layer1"
     transform="translate(-61.441174,-80.366844)">
    <image
       y="80.366844"
       x="61.441174"
       id="image5615"
       xlink:href="data:image/png;base64,iVBORw0KGgoAAAANSUhEUgAAAc8AAAIuCAIAAABW6hTGAAAAA3NCSVQICAjb4U/gAAAgAElEQVR4 nOzdd3hTVf8A8HOzd5o03XsvKJRZVkFK6aAFZDlAEBcIIgKKvgjiQFBAhvqigP5k+QoyZJZRoLSM DqCyWrondFCSdGUn9/z+uBBCRxra2wXn8/DwpCf3nvO9N8k3N+eeew8mr6kFCIIgSAejdHUACIIg LwSUbREEQToDyrYIgiCdAWVbBEGQzoCyLYIgSGegdXUACIIg3dGO7b8UFBU1Lffy8Hjz3ffbsCTW aATYl199dfzEiaWffDJt6lTT8sUff5ycnPz1V1/FREe3awta1tDQsGnz5qTkZIVCIZFIQkND//Pp pxiGAQDq6+v/2LEj8cKFqqoqHpfr7++/eNEid3d3IloAAIPBcHZymjhhwuuvv95B4SEI8uLYsf0X ZyenMTHjmz51Nv7ovfv3jWnU8iWbObZ1cnI6duyYabaVyWTp6ek2NjYkbETL1nz/fU5OzldffikW ie7fv19ZVUWk2rq6ulmzZzMYjPfnzvXw8JDLZNeuX5dIJMRao0aOXLx4cUN9ffrVq5t/+kloZTUu JqZD40QQ5LlXUFRkzJJn448mXbpEPB45fPiYmPErli1ttOSVCwknzyR8s3otUbhi2dLosRGNlmym 33ZkWFhBYWFBQYGx5PiJE0OHDGEymcaSO3fuvPX220OHD580eXJ8fDxRePHSpbfeeedEfPz4iROH h4W9/e67hYWFxFNxEyYcO37cuPp7c+f+/n//16jdu1lZUyZPHjpkiL+/f3h4+PTHR6n/3bJFpVL9 32+/jY2I8PH2HjRo0Lz33+fxeMSzbDbb0cHB19d3xvTpYyMiLly4YNG+RBAEsUzSpUvfrF5L/DOm 3UZOnkkAABC5lfifKDHVTLZlsVijRo0yTY7Hjx8fP368Tqcj/qyqqpr3wQcxMTHHjx5d+OGH33z7 7b83bhBP3b17N/7kyXXff/+/P//kcjirvv3W8k3y9/dPvHBBpVKZFkIIExISZkyfzuVyW62BTqcb DAbLW0QQBDHjbPxRYwI9G3/UzJKmR7WNSoyaybYGgyEuNjb+5Ekic92+c6euvn7okCEQx4kFjhw9 2isoaMrkyWKxeOTIkUOHDj156hTxlE6n+3TpUj8/P1cXl1kzZ2bn5EAILdywxYsWQQgnTpr069at lZWVRGFtbW1dfb23t7f5dZVKZcLZs2cSEsaMGWNhcwiCIOZZclRrZJpem6Za0NKYhMGDBtGo1MtX roSNGHH06NFxMTEUypO8nF9QcOPmzfCICOJPlUoVOngw8ZhOp7u6uBCP+Xy+VqvV6XQMBsOSDZNI JNt+/fXWrVsHDh2aPHXq3Dlz3pgxg0jWFAxraa3TZ86cPXdOp9OJxeI5773XcSfxEAR5wZl2wpp/ dsWypU0TbvPZlkKhREdHHz9+fPCgQQlnz+7aseOppyEMGzFi8aJFxgJjl65p364ZWq22paeCg4OD g4Ojxo798KOPRoaFOTs7czicgsLCQYMGNbv88GHDFn74IZfLFYvFpl8JCIIg5Gr2iJVg2oFg7Hxo tHyL6SkuNvbipUsHDx3y8vJydXU1fcrT0zMvP18ikdg+JhQKzUfJ4XDUajXxGMfx+/fvm1++f//+ GIbJZDIKhTJ8+PC/9u5tKUFzuVw3NzeJRIJSLYIg5Bo5fPiKZUuJfyOHDzezZPTYCPA4HRP/EyWm Wry6wd3d3c/P76eff/7Pp582emrC+PF/7d27avXq6a+9RqPRcnJznRwdg4KCzIQSGBBw+syZcTEx dDp91+7dcrm80QI4jv/83/8O6N/f1tZWpVb/tXevRCLx8/MDAHwwf/7MWbPemzt31syZLs7OCoUi v6Bg4oQJVCrVTIsIgiBt5uXhceLwgXETpzQdSHs2/qiXh0fTJYeOepJeiYTbaElz15LFxcYWFBQ0 Pe/k4OCw9ZdfNm3ePGv2bAqF4u3ltfSTT8yHPu/991etXh07fjyfzx82bFh0VFTTZcrLy78+ebK2 tpbP5/ft2/eX//6XzWYDABwdHHbt2LFt+/a169bJ5XIOm+0fEDBxwgTzLSIIgrTZm+++v2P7L812 1Da6QszyJRtfS4YgCIJ0BNTXiSAI0hlQtkUQBOkMKNsiCIJ0BpRtEQRBOgPKtgiCIJ0BZVsEQZDO gLItgiBIZ0DZFkEQpDOgbIsgCNIZULZFEATpDCjbIgiCdAaUbREEQToDyrYIgiCdAWVbBEGQztBd su3169e6OgQEQZAO1F2yLYIgyPPN3NwNpqyEgg6NA0EQ5PlmUba1Egpqaus6OhQEQZDnWOs9CSjV IgiCtB/qt0UQBOkMKNsiCIJ0BpRtEQRBOgPKtgiCIJ3B0hFg5u0/cADiuJkFpk6dimFYO1vJz8+v r6uXSh+2pxJra4lQKPD08uqqJrKy7tbW1DyUStvTBIIgpiTW1lYiq4CAgGaf7YTPtSUweU2t+SUs GZPwxsyZBoPBzAJ7du+mUMwdR1+/fq1//wFmFsjPz8cA7Nevn/lILJGRkQEA5uXt3flNZGXd1em1 bi4u7W8CQRBTpaVldAYzIMC/UXknfK4tRM6x7e5du0ipx4z6urqRI8MghI3K5XK51LLjRAaD4eDg QKfTQ0JCkpKSzTeh1WoLCws1Gs0zBclgMNzd3dlsdktN1NbUDB0a+kx1IghiCZFIdOVKatNy4nP9 7pJ321O5T7DPJzM/aelzbSFysm0nkEqljRMtAACAPX/++XfyMYY1r9UaxDXU9d+vd3V1JWoz30R5 RcUnn3zCZrMtiw4CgAEA6urqNmzcSPycabYJ1IGAIB2n2c8X8bm+eu6q+Z/XLYEQEkdg8HFtbQ6P nGx7Ij7e28vLz8+vpQ5cUvptQZMDWwCAvEZeF2vLDbBrdW3Z74VajabZSpo2odNqcRz/448/zCxr MDQo69K1qgIcV9OZzhx+/znvr2y9CQRBOhmEHA4nNjbWzq71RNHI1atX09LSiEraGQVp2XZkWJif n9/Ro0eb7cCdMmVK+7Nt024E0isxfdbMkhBCteL2g9IflHUpBoMcAIhhHAbL1d+TTcH0pMSJIAhZ IIRCoTA6OtrHx6cNq6enpwMy8g852XbLzz8TDzqhA7c70Khyy7Lf1mmKhBIaT8igUDG1QievzokM o3PpCQCQ0B+PIMhzpkP6beVy+UOp1N3NjU6nk1vz1q0/NxojfO36Vehi6f3JiC4Y80fZj/poWv4e ww2K6rINOk2RszfT3o1JpQEMw3ADtK0z5PyrlFdsdvdbSkK3CYIg3UmrqaNVJGfbmpqaL1auvJKS AgA4euSIo4PD/gMHKioqPlywoP2VQwjOnl2C41SaSdRFRYACplheQ6vdtsQCZhbTqPKUdelcIdXG mUGjP9r7FCrGF9FsnRn3C2q7tiNBqVTu+3v/oIEDgoKC2lZDampabV1d5NgIcgMzKiktTUg4O2F8 nI2NDVl16nS6P3bsnDTpZYm1NVl1WqiioiIp+eIr08g4M4F0DFI+ku2vhORsu3bdOgOO7/zjj48W LyZK/P39d+zcSUq2BQDOnInfuIGbnlqU11IeAMt3AwStLGxcoMXF9DqZQV/LZFOMqdaIK6CaX9fU haTk3Nxc4580Gu2t2W+aWV6lVp85kzBhfJz5apOTL/bt06fNqbajaTSalJTUqMixJKbaRg79c9jT 06Nvnz7PuqKFe7gRPp/v6+PT3VJt27bl+UXKEVD36Lc1SklN3b1zp7Ozs/HNZ2tjU11dTUrlEEI/ PyAUgjNngKVDs5rU0OpZslZ7EqhUHoXK1WmVuB5SqU99xjQq3Py6jbi5ug4ePIh43OrHtbSktNWa cRwfOnSIQNB9b/2OYdj4uFgOh9NxTbBYTDarLe8PS/ZwUzwer1+/kDY016Hati3Pq044wW4JkrMt g8FQq9WmJbl5edYk/bgjtnXECHD/PsjOBgzGM69OwpEtAEyOP5sXUi+Pf1ihs3VhEAkXQqhqwCuK NVQq1/LXhMFgWFlZmZYQv4jj4mJTUlJlMhmfzx80cICHh0d2dk7yxYsAgG3bfyOOglNT02h0Gp/H T09Pt7KyiouLValUFy9dvn//PpVK9ffzGzCgPzHAsKXyJ1sNYca//2ZmZun1ek9PDyaTaXxKqVRe vnLl3r37GIa5ODsPHTaUzWIBAFJT0ygUCo7juXl5OI67uDgPHzaMWPHQP4d79+5VWFh07949JpPp 7+83oH9/orYHDx6kpKZVV1fzeLz+/UKMJ4ibLVcqlRcvXa6oqMBxXCQSDR8+zEYiMQ1bJpNduny5 +kE1l8cbOnSIsZzNYjOZjJY2vKS09MaNG4EBAdczMhQKpY2NZPiwYWKx2JI9XFBYeOvWbblcTqfT fX18iG/KktLSxMQLb86aaX63NBsM8XLHjou5kpJSW1MrEotfGjWyrOze7Tt3tFqtk5PTqJFhDEaL 22L5u8Xit+TzqVsc2ZKebWOio79dvXrRokUQQqlUmpWVtWHDhvFxJP2cgRAAQKeDsWNBcTEwe2OG FlYno+OWShNInD9Q1l0uy69V1hv4YhqViinrDdJKnUaFSZxmtr+DJzn54vBhQwUCwd3s7MQLSY6O jv7+fhqtpqioeOKE8cbFioqKORzOmIgxLCYTx/GTp05bW4unTZ2iUqnOnj1Hp9NDQvq2VG7aXH5+ /s2bt0a/NEoikRQVFaenpzs/vrb4TMJZFpNJvILp6eknT556eeIE4jD89p07gYEBE8bHaTSac+cT b966PWjgo2uvL1++MiQ0dOiQIdXV1efOn7e3s3N2dm5oaDgRf3LQoIFjI8ZUVVWdPXeex+c72Nu3 VJ6Wlk6lUqZNnWIwGKoePBDw+aYx4zh+JuGstbV46tQpWq320uUrxqfE1mIuj2dmw6urH+bS8sPD wxl0+uUrVy5eujxhfFyrexgAwGaxBg8aKBaLa2trT8SfdHR0dHFxbvTaNbtbzL8Kl6+kjBg+nMNh JyVfPH4iXmJtHRMdZTAYTp9JyMzMavVFtPDd8kLrHh23JN8DbP68eUFBQXPff18ul89+660VX3wx cuTId995h5TKjRvL4wFam74mWs23xgXM71gOf6BrwB4WZ/iD+7Dglir3X+W9fK1e55iUHlSnfaXV 1Y3y8vO3//Y78e/U6TPG8uDg3k5OTnw+f0D//gaDoaaFe1kolcqIMeEO9vYikaiyqkoulw8bNozL 5UokkqCgoNy8PABAS+Wmsu7e9ff3c3d35/F4vXv3srW1JcorKiurq6tHjRppbS22thaPemmUTCar qKggnmWxWKGDBwuFQltbW19fH9P+IlcXFz8/Xz6f5+np4WBv//ChFACQk5Nra2sbFBjIZrPd3d1d XFzy8/LNlGt1Ogghk8nk8/neXl6mR9wAgPLy8vr6+hHDRwgEAolEYkz0AIA+wcE2EomZDcdxfPiw oTYSiVAoDOnb92F1dUs/Ek33MADA0dHR0dGRxWLZ2dnZ2NjI5LKmqzS7W8y/CsG9e9vb2wkEgl5B gSqVavjw4SKRSCKReHp6PJQ+bH11y94tLzKykm076yH52JZGo328ZMkH8+eXlpZCCJ2dnblcLlmV w3YfyxOJ1JIFzO9YDMM4glBn3/8q69KUDTdxg5LF8eHwB1/b8sNL0RTL43R1cRk0aCDxmGHSMyIW iYkHFAqFTqdrtdpmV7exkRjXkstkBoPhf//7i/jTeI1JS+Wm6urqA01uniQSiRRKJQCgpqaGz+Ox WCyinM1i8Xg8qVTm6OgIALCysjL2NTPoDJ1O9yR+sdj4mM5gEPHL5LLKiopdu/cQ5Vqt1sXZ2Ux5 aOjgM2cS9u77OygoMMDfv1G2rauv5/N4LNajQpFJi61uOIVCEQqFxvAMOI7jOJVKbbpnTPcwAKCg sDArM6tB0QAAplAonJ2cmq7S7G4x/ypYWT0KhsFgUCgUPp9n/NOS1S18t7zILPlI6uXlQK9rWu5l zZ4yZgjVXtT+/ENytt21ezfe3C/8WTNndtCVu89cg+U9CWaXxDCMznQS2kwS2kwyWZ3yTN+ATCZT 3CRNAACotGY++c0sRn3y8kEIuFyu6S9HYoe3VG4KQghMCinUR7948CapGUJofJbW8u+LZjMXhMDN 3W1IaGijxVoqFwoEUyZPKi0tvXHz5p07mbHjYkz7uBud7qQ0s1EtbriZyJtsyJMlS8vKEhMvjI2I cHZ2olAox0/EN7tKs5WbfxVMhzQ2ey1/a6tb9G55oUGo0WgePnzY6DSJKY60kKJv5i5UQfbcoElj 0ysqu8uVu0aXLl82fvFqNZr75eV1dXVjIyLaPzAYdErfS/t/LLS/hpZgAGv2m4wgFosUCgWEkMfj WVJuSiAQyKQy8Pg2crW1tRQKFQAgtraub2hQq9XE4a1KrVYoFMRv6jYQi0UFBYUcDqfRO6GlcgAA hmFubm6urq4n4k9mZ+eEhg5+EjNfoFAoNBoNccxbV9f4pqCWbHjj5szu4fL75Q4ODq6uj3q0Gxrq Lay2bcG0c3Xz2/KigRDI5fKNGzcaf6g19cXs8U4SK6xBBXR6KOIDDAN6A+VhDS6xArRHhwXtRHK2 3fbrr6Z/GgyGHTt3SqXStt19pxEyehJaqcSkJ6HNTbTSWWFKq9XW1NQQjzEMM/68bRafz5PL5Q8f PmSz2U37Z+zt7a2trc+eOx86eDCHw6mrq9VqdZ6eHi2Vm64b4O+fkppq72AvsbYuK7tXUVHp5OQE ALC3s7OxsblwIYk4+Z6Wli6RSBzs7S3cukb8fH1v376TfPFi7169KBSKVCoTCPg2NjYtlefl5YlE Ij6fr1AoGhoaGsXs5OTI43IvX74yYOAAnVaXfvWahTukzXuYz+cVFhVpNBoGg3Hz1q36+gbLt70N wXTotrxoIIAQwvLycjPLED0wzAvXWfFX6j+ZYXCxY51NZx+6ULfiLYOrPSAj/3TsHRepVOqbs2ZN mmLptV6taP8xIylDwNrZhImS0tKS0lLicasjdVxdXT3c3Y8dP0Gj0aa//lqjZykUSkxMdGpK6ukz Z3Q6nUAgIM5Zt1RuytfXR6VSXr58Ra1We3h4DB486N69+wAADMOiIiOvXLly5OgxYjzT2LAxbf6N wufz42LHpaal/3P4CIVCEYvFw4YOMVPe0KBIv3pNpVKx2Wwfb29/P79G2xsdHXXx0uUDBw6y2eyw EcON31vmd4gZ5vewv79/ZWXVvr//plJpnp4efZ7l6ok2BEPutpByuNODQfD9ge/NL2Iv1wA9rh0a TL+Rx1+7WzukN+vEJeWMaIO9NQDAq7dX+/MPOXM3mKFWq6PHjUs8d878Yq3O3XA2ISE6OqqkhBcY CBQK8OOPgDgZkHSR8mD6NF6gQ6uRMH8r+HHBN56enhQMO3ny1JiIxlemEk3gEAIACgsLl37yyYED B1qt1tSbb765eMmS4ODglpo4duz4+Lhxz1QngiAWOnrsRFxcbKPCR6mDW2J+XasbxTSVFgBAkdYK Pv+FfrdIOT1KMTsO0GkAAIWLtcQqpKXPtYVIPrY9dfq0aW+RWq0+c+ZMUGAgua2YYjHwhp9OaIXN d8fodIBCsXdycsIwTIJzGXQ6ePqMUDNavVGCeUTHbTe7jhNBEIvo9Iy0TGp1jd7XjZGWqX5pgMHb +dHHud2fa5Kz7X+3bDHo9cY/2RxOgL8/STdJaD4BhoSAIG09AM2fsqiqAnT6+E8++YRGo9FoNKFQ aMl425basjxOdM0kgnQfln4ecci8dIP7xzHFjEjtkGDezwf4P+6r/3SmwdkWdMPxtseOHCG3QlPN 9lIzGOYu4a2rA3QG28bWxjgux/xZLNPxtm0N8tlOlCEI0tEs/TxiwOBsW7/wFe2QYEDB6j+byUy8 hov4xkra+bkmOdtWV1dLJBLTEyn19fU4jps/226pth3IN70/gpk9ZnKWrLa2duvWrc/UVFlZmUW3 Y0AQpDNZ+HnEML2PK/BxfbQSj62OG/FUJd3q2PajxYtnTJ8eHRVlLLmekbF169a//ve/dtYsEolx HHdyqqupwQEA77//bKsbx8ITNw0RiZq5poBoAsMwHMc9PDxOnTr9rEG+8867AACihmabQBCkkxGf a+c6l1YGILs3c2WgEYOMzzXJ40LKysq8n55s3dvLq6i4uP01W1kJM7MycYhjFKw9/3CIZ2beafaS kk5oovPvdY0gL45mP1+d8Lm2EMnHtjwer6Kiwsck4VZVVZFyM1Mvb+/8vLzr1zLkzd0KxHIikdjK ysrL26tLmrASWd24eatvn+D21I8gSFM3b96yEjdzoWMnfK4tRHK2jYqMXLd+PY7jQYGBFAol6+7d jRs3jm3r8LRGvNs0X2a3aiIgIODu3ewrV1KbnfgeQZC2kVhbW4lFAf7+zT7bCanDEiRn27lz5tTX 1/9n2TLi3kUUCmVsRARZI8CeDwEBzb8hEAR5vnXItWRKpfLevXsQQgdHx0Y3gW5Jq9eSIQiC9Ggd MgKMw+H4+voSJWSOAEMQBOmxSB6T8NHixadOPzVw6npGxtxnHa6FIAjy3OkxI8AQBEF6NJKzLTEC zLSErBFgCIIgPVqPGQE2ZfKk1hdCEATpSCEhIZ8vX9G2dXvSCDBPT09S6kEQBOl8JGdbBoPx+bJl iz766FlHgCEIgjzfOmT+DGIEmJ+fH4vJPHPmzLz589GEdAiCvOA6al6yvPz8I0eOxJ88qdPpoqOj SZjevNvr3bu3SCRKTk7uoPojIiLEYvG+fftIrJPFYkVERKSmplZXV5NYLYIgTZGcbRUKxekzZw4f OZKVlQUAeGv27DdmzOB3QGfCoEGDPDw8AAA4jtfX12dnZxebjDPDMCwgIMDNzY3NZstkshs3bhin CJw4cSIxJzYAIDEx8cGDB6bVisXi/v37c7ncsrKyjIwM2MK92mNjY5lM5sGDB00Lp02bZmdnd+3a NaVS2exakyZNunbtWunjaR/bsMlubm7kZtvg4OC4uDgul7t3714SqwXt3lgEef6Qlm1v3Lhx5OjR hLNnJRJJVGTkqm++efW118aEh3dEqgUABAUFDRkyxLTk2LFjx44dAwCIxeJ58+a5uroan3r11VcP HjyYkJAAAHBzcwsICKBQKA8ePLh06ZJpDQ4ODsuWLTPm4uTk5D179jTb+rBhw3g8XqNse/ToURsb m5ZSrYODQ1RUVFlZWbdKQJmZmYmJiRcvXiS32u65sQjStUjLtu/NnSuRSJZ//nlUZCRZdbZqy5Yt VVVVjo6OM2bMiI2NvXTpUk1NzZw5c1xdXW/fvn3hwoX6+npXV9eXX3556tSpVVVVt27d2rx588cf f+zr6/vdd981NDSY1tavXz8mk7l///6bN28uXbp00KBBLWXbZllZWRm/Wrhc7oABA6ytrRUKRU5O Tk1NzYQJEwAAQ4YM8fT0zMrKun37NgDA19fX39/fYDDcuHHj/v37Teu0sbEZOHAgg8HIzs5u9FSz 69ra2oaEhHC5XLlcfuvWLenTdxprFFVxcbFAIMBx3MrKiqjB2FxWVhaDwQgKCtq3bx+NRps8efLt 27dxHPf391epVDdv3qysrCTqFIvFvXv3FovFtbW1V69era+vt7KyarSxbDbbw8Pj9OnTxC+MoKCg Xr16JScnV1dXEzUrFIqQkBCFQpGQkEClUvv16+fs7FxfX5+enl5XV2fcXh8fHzqdXlVVdePGDZVK ZflLgyDdAWnZdtPGjYcPH/7yq6/2/PlnTFRUZKfkXLlcXlFRUVFR4efnN2rUKEdHRzs7Ow8Pj+Li 4p9//pnoByguLq6qqlqyZEl0dPStW7fM1EYkXy6Xy2QymUxmo06GVhl/6VtbWy9btsz0oD4pKalf v34AgF69evXq1Uuj0dy+ffuVV14JDw8nFoiLi9uxY0dqaqpphV5eXosXL6bT6QCAmJgY06eaXTc4 OHj+/PnGLvKoqKjPPvvM2BnSNKoVK1bY2NiEh4crlcrMzEwPD48lS5YwGAyiuQcPHtja2u7bt49K pYaHhwcHB9vY2BArTpw4ccOGDXl5eQ4ODitXrqRQHp1rjY2NXbly5ahRoxptrEgkGjJkyJUrV4hs 6+npGR4efvfuXZlMFh4ebmtrGxQURKFQ7t27l5SUtGjRIi+vR7cQHTdu3Pr16+/fvz958mTTd1R6 evpvv/32TK8OgnQ50rLt0CFDhg4ZIpPLjx8/fvCffzb9+COO4//euOHl5UWlUslqpSXW1tYAAJVK 1bt3bwBASkqKaZdrTk6OTCbz9PSk0+nEQOBmpaSkjB49Ojo6OioqSqFQ7Ny5s23B9OvXj8/n//XX X+np6XZ2du7u7ufPn6+urp4yZcr27duvXr0KAPD19Q0PD8/MzNyzZw+fz//www9fffXVa9eu6U1m LJ42bRqdTt+9e3dmZuawYcPi4uKI8pbWDQsLwzBs1apVNTU1bm5udDrddCc0jaqqqsrOzs64wJQp UxgMxp9//kk0N27cONONsrGxOXz4cFpaWlBQ0IwZM8aMGZOXl1dRUXH06NHMzMzq6uqIiIhx48YN GDDg8OHDSqXSdGNnz55tZnf17t375s2b8fHxBoMhMjLSy8vr5MmT586dCwgIePvtt6dMmbJ58+aR I0dWVlZu2LCBQqH4+/vfu3evbS8NgnQhkkeAiUWimW+8cXD//q2//jouJuann3+OHT9+2/btLZ1u aqdRo0ZNmjRp4cKFvXv3zsnJKSoqIo7dpE3u1S2XyzEMEwgEZmoLDAwUiUQYhlEolCtXrhB9jh99 9NHChQufKar6+noAQGhoqKenZ1FR0fnz55su079/fwBATU1NaGhoUFBQTU0Nh8NxcnoyMxKHw/Hw 8CgpKbl48aJMJjtx4oRCoTC/LtHu2LFjBQLB7du3MzIyLI+Kw+H4+PiUlJQkJSU9fPjw6NGjxPJG crk8Pj5eKpUmJyfrdDrjce7Fixft7e3DwsKIGUTE4meetamhoWHbtrYNCMkAACAASURBVG1FRUWl paX9+vWDEOp0uhEjRkgkErVaTdx2o76+XiKRjBw50mAwGF8aBOlZOmoEWEjfviF9+37y8cenTp8+ fOTIO2+/3RGDwIYNG0Y8KCws/OWXXyCEWq0WAMBmsxstSZRoNJqWqrK1tX3vvfdUKtVvv/02ZcqU yMhI4vd+YGBgox/4rUpLS3NycoqIiFiwYEFlZeXevXuJERqmRCKRafymQRKItGXszcBxXCqVcrlc M+vu379fIBAMGjRo0KBBd+/e3bNnj+m4LvNRNWoOQiiVSk27HUy/wPR6PTFj/MCBA9988006na7X 6w0GAwDA2KtgucrKSuMPDrFYjGHY+PHjTRegUChbtmyZM2fOuHHjIiMjU1JS9u7da+Y3CoJ0Tx2V bQk8Hm/K5MlTJk/uoPq3bNkilUqXLFlib29PfP7Ly8sBAF5eXmlpacbF+Hy+ra1tXV2d8fCwqd69 e9NotFOnTt26daukpOTjjz8eP348kdEuX778TFFBCA8ePJiYmPjSSy+NHj16wYIFq1atarQM8a3w 008/mf4oNj2cJM4CEb2oBKID18y6er3+p59+cnd3Hzt27IABA5YsWfL5558TSbDVqJo2R+xPo2av T3n99ddxHF+9enVxcbG/v//ixYtb2iGmfzb6LjStWavVUiiUL774otEC9+/fX7lyZUhISFRU1IgR I1gs1vbt25ttC0G6rQ65lqzTyOXysrKyQ4cOcTic6dOnAwBu3ryp0WiGDRvm/3iGIjqd/uqrr9Jo tNTUVDMdGsSxEpEIamtrf/zxR51OZ21tXVZWlpOT80xR2djY0Ol0mUx28ODBf/75h0qluri4EB2y xnRWWFgIAOjTp4/8MRaLZdppK5fL1Wq1j48PEZJIJLK1tTW/roODA4ZhxcXF27Ztu3HjhlgsNu05 aTYq0+aUSqWxOT6fb9ql2ywmk8nlcisqKoiRzsZTWwCARhtLfIsYJys1XbKRgoICJpPp7e1NbFdN TQ0xIM/R0RFCmJGR8d133ykUCnd3d/OxIUg31LHHtp3j4sWLoaGhISEh/fv3v379+t69e2fOnLlo 0aLKysqGhgZHR0cul3v//v3jx48DAPr27Uv8ag4NDb1y5YpxeOydO3fUanV0dLSdnZ1Wqw0MDKTT 6TiOu7i4REVFnTp1qlGjdDrd9FDuyJEjxsehoaGjR4/Oz89XKpVBQUEGg6GoqIiYveLll18OCAgg emPDw8PDwsI8PT2lUqmtrS2fzzetEMfxc+fOjRs3bsWKFSUlJT4+PsYf6VeuXGl23enTp4tEouLi YgzDevXqJZVKjdd0tBSVMaUSzcXFxS1fvry4uJgYa2V+t2s0msrKSldX18mTJ7PZ7KFDhxq/zIiD buPGZmdnR0ZGvvbaa97e3m5ubmZyZXx8fHBw8DvvvBMWFqbX652dnQsKCn799dcvv/yypKSkvLzc ysqKy+WaH1uCIN1Tzz62JUAId+/erdfrX3/9dS6Xe/ny5Y0bN2ZlZfF4PHd3d4VCcfLkye+//16t VgMAZs2aJZFIAADTpk0zPbiTyWQbN27My8vr1avXwIED6+rq/vzzzy+++EIul0+aNCmiyU0jiZPj RqZdnNnZ2RUVFb6+vv369ZNKpcSg4Nzc3Pj4eAhhnz59IIRqtXrdunXp6ekikSgwMBDDsAsXLjRq 4vjx42fPnmWz2b179y4uLjZ2aLS0bnp6ul6v79u3b0BAQGZm5ubNm02P5ZuNyrS5EydOJCQksNns vn37FhUVGUfUmvHbb78VFxePHj06ODj4wIEDcrmcKG+0sZmZmfv37wcAREREiESiEydOtFRhaWnp +vXrc3Nz3d3dvby8ZDLZ9evXAQBJSUl8Pn/gwIEODg5JSUl//fVXq7EhSHfTIbNAtkGrs0BOmTwJ 3XGxM3311VdisXgBmi8ZQUwIhcI239/2eTi2RUgRHBzM4/GIxw4ODnZ2do0OfhEEaY/nod8WIUX/ /v3nzp2bn5+vUCj8/f0pFEpiYmJXB4Ugzw+UbZFH/v33X4lE4uzsTFy1fPjw4StXrnR1UAjy/EDZ Fnnkxo0bN27c6OooEOS51WOybUhISFeHgCAI0nbtzbYfp71iyWJOLM/5vVYyqKw2N9Tm84AIgiDd QXuz7Y16i65qVRkacIimJkMQ5MXV3mxLpTjW0EJ9DOVsoL1FdR9kyK2kiO9h4jB95k2qRw3GHa9L P04fWEezQ7kWQZAXWXvH21Kp/hXqt9Vp/afogqh5Q7gZfV5S9KHmDrG/HTS4vj8lZ0ivHF/n+pfS qiNy8kpIiRhBEKQnau+xrb2+3Lfg2Oc+GS40PNr1LuaG0SjgAzdIwQAFu/eNO6BSwEvYoRUlfdU2 I0mJGEEQpCdq77GtgUIP8mLYCXAMAywrF3bwHHqfBUyBPZ0KqBTApAEaBeAUKt+am3K5o6b+RhAE 6f7ae2xbTbH5vTZwiqDINWgCxWU0xrACAFDtBuvz9+ElpwCurQfMhazXUhRWr6uT2tlWXm5eXV2d XC5rZz0IgiDPSiQSC60E3t4+ba6hvdnWXVcw+uEFOvshxNUY05ooxDj2GJUNcZ0OUn46T6tlXPNp 0FAEbR/+BQDIy83DMBgc3KudASMIgrRNSUlJfl6et08bE257s62UZmvv48vD84FBD0zmwoFQX4ux FrBeV93bzzfkAAAAz7c9DdXV1Y0aFdbOaBEEQdpMLBZfuND2HtH2ZtsGwIt/aD+fifEAgAatoeAg oFCpnpMVkLGIMe0EFhTFPD715YlUClUkFrWnIdSBgCBIl2tPImpvtg3QZb7UQOPxAVQ9gNLbeOkp QKFhQt9Dl2S1KbdDYSKLRh09Otx0wisEQZAXUHuzbTY9sMRt0gh8j6LsgvJ+ChdX6QDtjYwiePce T6XmUijMx7dMRRAEeZG1N9vaMGyScbeF1aN7iep+p42a/uDkfRv3NJ1ogIHy/rx5Dg6OVCq11Rmu EARBnnvtzbY/9F1x/FTi6YTULKYhWJ+bY9BQmYWD9ck8CkUisXF0dCQlSgRBkJ6uvdlWzBGHePsU uro0KmcwmJ3cV3vt2vWa2tox4aN1Ot3WbdtfeWWajUTSmQEgCIKYQcL9bXsHB/cODm5/PZY7e+58 dna28U8ajTZ3znv29nYCoaDRkkqVKj7+5JTJkzozPARBkKZ6zN3EG/Fwdx86dAjxGMMwAICzs3PT xUqKS0xn+UYQBOkqFmVbqybHjKQLHz36meZRZzAYItFTA3gvX75SU1s7LibaWJKVdfd8YiIA4Of/ biGOf4uKi//N+HfYsKEJZ8/V1dXNee9dDMNSU9Oy7t7V6/Vubq6jRo5ks9lkbRSCIIhRK9nWSih4 piTYrQQGBmi0mvz8gqlTJhsL5TU1SckXh4QO5vF4VCr14qVLFRWVL0+cQKfTk5Mvnj6TMHHC+C6M GUGQ55W5bNudU21Obm5uXh7x2MPDIyY6ysIVVSpVdFSUo6MDAECv19+5kzlh/Hhra2sAwODQwfv2 /a1UKjkcTgeFjSDIC6un9tu6u7kNGRJKPH6mwQ9UCoVItQCA2tpag8FwIj6e6PklengVCgXKtgiC kK6nZlsmk0kckD4rKu3JJhPnz+Jix/FMLnhD/bYIgnSEnpptLYQBDMdbnBFNKBRQKJTaujp7e/vO jApBkBfQc55t+XyeTCarrq5ms9m8JndsoNPpvXv3unTpMo1KtbGxVSoVDx5UBwf37pJQEQR5vj3n 2dbd3d3L0/PQP4dpNNrsN2c1XWDY0KEMBuPipctKpZLNZvu29T7BCIIg5mHymtqWnmvDmISln376 3Zo1FMqT6c5kcvn3a9d+v2ZN22MEAABwNiHh5ZcntrMSBEGQ9vjnn8NjIiLatm57Z4Fs5EJSUuNr tyBMSmrvjGQIgiA9HWk9CVu3bTMYDBDCrdu2GQtxHE+/etXf35+sVhAEQXoo0rKtl5dXcnIyhDAr Kwt7PEEZRqEE+PvPmjmTrFYQBEF6KNKy7Zjw8DHh4QDDvvziC9N+WwRBEASQPibh6y+/JLdCBEGQ 5wP5I8CuXb+elZXV0NBgWjh3zpx2HvCKROL2xYUgCNJe7UlEJGfb337/fdv27b169RLw+eTWLLQS /PvvvyEhIeRWiyAIYqGMjAyhlbDNq5M83nZcXNyHH3wQGRnZ5oDMyM/Lq62ta8987giCIG0jEomF VkJvb+8210DysW19fX1QUBC5dRp5owu9EATpsUgePBA6ePC169fJrRNBEOQ5QPKxbURExJo1azIy Mry9vVlMprF86tSpxkG4CIIgLyCS+23fmDnTYDA0Ld+zezcahIsgyIuM5GyLIAiCNKtDjjflcnle fr5Op+uIyhEEQXoikvtta2pqvli58kpKCgDg6JEjjg4O+w8cqKio+HDBAnIb6ghpaWldHQKCIN3d 4MGD27Yiydl27bp1Bhzf+ccfHy1eTJT4+/vv2LmzR2RbAMCYMWO6OoRnk52d3eW3WOsOMfQU3WFf dYcYeq6zZ8+2eV2Ss21KaurunTudnZ2NIxBsbWyqq6vJbaUDNbo5b/cHYdfH3B1i6Cm6w77qDjG8 kEjOtgwGQ61Wm5bk5uW1bXLcLgFBj3sXwm4Qc3eIoafoDvuqO8TwIiI528ZER3+7evWiRYsghFKp NCsra8OGDePj4shtpQP1xDdhd4i5O8TQU3SHfdUdYnjxkJxt58+bt2nz5rnvv6/Vame/9RadTp84 YcK777xDbisdp2e9CTEAYFfH3B1i6Cm6w77qDjG8sEjOtjQa7eMlSz6YP7+0tBRC6OzszOVyyW2i Y/Ws/qxHH50ujbk7xNBTdId91R1ieFF1yAznLBbL19e3I2ruaD2tPwuDXd8H1x1i6Cm6w77qqBiU SuWAQYMPHdiPBjy0hORsW1RcvHHjxpzcXKVSaVqelJjYI67cNX7lL1u+/MiRI8uXLXvttddMF/jg ww8TExO/W7MmLjaWKLl06dKOnTvvZmerVSoHB4cJT/ecnDlzZsXKlQ0NDTY2Nrt27HB1dY2IjCwv LwcAMJlMB3v70aNHv/fuu/y23g640enl+vr6bdu3nz13rqqqisvlBgYGfrZ0qYeHB/Hsvfv335g5 88GDB1wu98uVK2Oio4nNBABQKRSJRDJ48OB333nH09OzzTEsW748Pj7+n4MHjY0CACIiI5cvWzZy 5Mi2bePzxLivYuPiioqLGz0bO27c999912kxEMy/Z56p2qaVI6ZIzrbfrFpFp9M/XbqU93QHQk+8 JY2zs/M/hw+bZlupVJqSkmJra2ss2fPnn2vXrXtjxowP5s+n0+n5BQVUKtW0krFjx4pEojffeutc QoLxqcWLFkVFRdXW1ubl5W3fvv3MmTN7//pLJBKZrpiSmiqTNb6Tr1gsHhIa2lLAtbW1r77+OpPB +HDBAi9PT6lMdvXqVYmNzZMtcnJKPHcuqHfvzZs2GesJHz36008/1ajVJSUlf+3bN3XatG3btvXv 1+/ZdpYJOp3+9apVf/z+e5treBH8+uuvOq0WAPDFl196enq+OXMmAIDH43VyGK2+ZxASkZxt8/Pz d+/c6ebmRm61nQYav5chfGnUqL/378/Ny/N5fP/gI0ePDh8+PCcnB0AIIaysrFz/ww+LFi588803 iQUCAwOfqsSkTgihsVwoFDo6ODg6OAT4+0eOHfva9OkbNm1qNKWbj7fPps2bZTKpsUQstv5o4cKm lRtLNv34o0ql+nvvXuJD6wNA6ODBTeN5ai0I2Wy2o4MDAMDDw2PUqFFfff318hUrThw7ZvkXpGkM AMJXpk07fOTIsWPHYh8f/psuc/PmzbXr19+9e9dKKJw4ceL8efOIL6Fpr776xvTpJ+Lj069etZFI lixZwufz165dW1pW5uvj880333h7eVkYT3dm3A9Ojo5ECZvFEgoE7u7uAIDkixcXRUdfTEricDjE s+MnTowdN87P13frtm0zZsz4YcMGhUIxaODAL1askEgkAACDwbD5xx8PHzmiVquHDxu2/PPPxeJW pnKx8D3zoLp6zZo1V1JSMAwbMXz4sv/8hzgg+Hz5cgDAt6tWETVs+eWXjIyM37Zvb/Q+v3X79vdr 12ZnZ9vb2c2dMycuLs7MugCAaa++uuijj86fP3/4yJE3Z82aP28eKTu8WyH5172Dg4O0yRFZjwKN 52xZLNbol146cuSwsfDwkcOTJk58fP8HePbcWQ6HM2PGdJO1mv3XqOan/jGZjOmvv3bq1CkIcdNy a2vRRws/NH5yxGLxRws/tLYWtVQPhPipU6dmzZzJ43EtiKfF2Ga/Oau0tDQrK7O1SlqsnM1mffbp 0rXr19fX1zVqVCaTvjd37uBBg478c2jt99+dPHXqhw0bjAt8t3btxAkTjh89GhEx5vPly9f/8MOK FcsPHzrI4/O/++67tsbT/f89eQmGDR3C5XLPJ54n/iwqKiwsLIyKHAsAuJudfezYsV+3/Hf3zh01 NTXz5s8nllm3fv3Vq1d//2374UOH1Br10k8/tbxp8++ZRYsWabSaPbt27t65Q6FQzJ03D8cNzb5n TP589FRlZcW77703Pi72zKmTS5Ys/uLLL69nXG913fU//AAh/OP33ydPermrX5RWX6+2IDnbLv7o ox82bIg/eTIzMzPXBLmtdByi14n44jfg+IQJE44dP6HXGyAEN2/eqqutGzZsGI7jEAAIQUlJqbu7 O5VKM67V/L9GNTdZwMPDU6lUyuU1jcrFYvHCDxeKxWLjAzOtyGtq6+rqfHx8Wgnm8dvb+BiCp551 cXGlUqn37t1vtZ6WKtdotDHRMUFBQRs3bX6yyQBACPb9vd/JyWnBBx84O7v07z/gkyVL9v39t1Kp IlYMGzEiMjLSwcHhnbffUalUb0yfHtI3xNnZ5bVXX83JyWlbPN3/n+lLQKFQoyIjT506Tfx5JuFs YGCgi4srBECn0/3ns8+8vX28vX1WLF+edffu3ewctVqz/8CBjz/+2NvL28HBYcEHC1LT0qqrH1rY tJn3zLVr1+9kZn7z1ddEi6u++SYnJyf96jUIG39SIHwSv3FbDv1zuFevXtOmThOLrV8a9dLw4cOP Hz/R6rpWVlafL1sWFBRkZ2ff5a+LmderzUjuSdBoNGVlZV+sXNmoPC0lpVGHZvdk0OuJBziOQxwf NGAAlUpNSkoaGRZ28NCh2NhYiOMAANxgMOj1BoMBM1mlJbjB8KhmCAEAEAAcx03X0mk0xjobrWsl FHwwbz7xoOmzGIYZ1zIQR9xP12wmJGIxYjNNVyF+CeKW1dMoBqJCYt3P//OfKdOmjY+L6xUUBB+3 WFhYGBgQYFw4wN9fo9EUFxX5+voCCN3d3Ymn2CwWAMDVxYX4k8NmK5RKC+PpzhrtKwKxu42FMdHR s99+u0Yu5/P5CQkJ0dHRBr0eNxiYDIajgwOxmIe7O4PBKC4qwgDQaDQLPvzwUbcPhACAyspKkZWV JTGYec8UFBQ42NsLBY/edQI+39HRMScnZ0C/fjiOA5O3PcRxAKFBr3/0jtLrDXp9bm7uv//+Ozws jFhGrVKFhoYa9PqW1iWCHzxo0HPwKptBcrbdtHlzbGzsO2+/3egsWY9ItU1RKJRxMTFHjx0LHTz4 TELCn7t2mT7r5OR0JiHBYDC0c+uyc3OFAoFQ2PxcntbWFs2oLBQKuRxOfmFhm29QRMjLy8Nx3M3V tT2VAADs7ew+mDdv1bff/m/PHurj4Sg6nY5pMqMH0cFHp9OJP00n+wAA0GgdMjyxm+sVFOTo6Hg+ MXHggAE5ubmbNm4kyg04DiEksqrBYMBxnMViETvw5x9/tDM5c2v5hfJm3jNNb5cKITS+UqY0Wm3T QgjhyLCwjx/fmgoAwGSxWl2XyWBYGHkPRXJPQvXDh6+/+qpYJGI8jdxWOg58zPjH+NjY5IsX9x84 4O3l5erqanoqIGz48Nra2kOHD8PWNFszob6+/q+//ooYM+bpYouYroFh2PDhw//3v/9pNJrWg3m8 ZqOtxnF86/btHh4e3t7ebYgBPr11U6dMYTCZf+3dS6PTiRIfb+/MrCzjwplZWQwGw9HRsWlFwOyf PVSzGwGabNu46Oiz584lJSf3CQ62s7UlCvV6fUlpKfG4oKBAr9c7Ozk5OToyGIyysjJbE1Qq1cIY zLxnfLy9KyorpVIp8adMJquoqPD08IAQcjkctVptXLKkpMT07UQ89vT0zMvLk0gkxqiEAoH5dZvf O91Pe9ILydm2X79+mZmZ5NbZtdzd3f39/Db/9NOECROaPjVj+vR169f/snXr7Tt3cnJzk5KTr2dk tFpnTW1teXl5Xl7eP4cPT585k85gfPDBB+0P9cMPPlAole+89975xMS8/PwbN28eOHiw2YmLTKlU qvLy8uLi4sQLF+bOn5+amvr1l1+SMmKPQqGsXL58+++/qx4Pvn554sTKysotv/xSUVHx740bGzZt mv7aaz3oy7hzxMTEXM/ISL54MTIy0lhIpVLXrltXUFhYWlr6/bp1A/r3d3d3Z7PZUyZP3rBp0/nE xPLy8tu3b+/dt++Z2mrpPdO3b9/AwMAvv/66qKioqKho5VdfBfj79wsJAQAEBgamp6ffu38fQngl JeXS5ctNq315woTqhw+/WbUqv6CguKTk9JkzdzIzLVz3OUbyj7Vx0dHfr1uXmpbm4eHRE2eBNP3u go//jIuNzS8oiAgPh4+PRIxLLlq40N3N7cChQ3v+/FOv19vZ2c2bO9e0krPnzn3z7bcAgHFxcdt+ /dXFxQUA8ONPP/34009MJtPFxSU6MnLGjBlcDqcNX5sQYqbftw4ODrt37ty2fft3a9fK5XIOhxPg 7z9xwgTjAvfLy9957z0AwMdLly5ftmxsRAQAIPHChcQLF2g0mq2NTWho6Iply5ycnCwPplEMpvsN AODh4fHqK6/8unUrcdwikUi2/vLL+h9+2LVnD5fLHRcTM3fOnKfWNdm3sNGf7TxD0Q003VfAeKrb pNDRwcHH2zstPf3rr74yvuXEYnFMdPT8BQvkcnn//v2/WL7c+A7kcblr16+XyWRikShy7FjzO8rC 9wyFQtm8YcO6H36YOXs2juNDQkPXr10LAIAQxkRH37lzZ9bs2VQqNTAg4L13301PTzfWSTywt7ff /uuvGzdvfmPWLCqF4uXl9dnSpWbWNQmvx7/KZqBZIJ9IS0sLDW1Xp2cno1Ao2dnZXXuRdHeIoaew fF9t3Lw5Nyf3ly3/Jf68ePHSipUrL5w/15kxIM1KTU3rLnM37H76PFLP07O+WUkYAvhcxNBTWLav IIQXLiS9PXu26ZKQGC3VWTEgHaFDTvvK5fKHUqm7m1uzJzG7M5Le0Z3EOFrxBY+hp2h1X2k0GrVa ve/vv7UazdixEcYliQek7GT0enUhNAvk03rWmxCa/P8ix9BTtLav0tLSl372maur69rvv2cymE9d e2V2RRJjQDoOmgXyKcTo6x4Ex2GXx9wdYugpzO+r4cOGXbl48fGSTxYbNnTo+YQEsnYyer26CpoF 8ilNB3V3Z1QqVa/XdW3M3SGGnqI77KvuEMMLC80C+ZSLj48sepCKisquDqFbxNBTdId91R1i6KH4 AkGb10WzQD7l5ZcndnUICIJ0X2fPnW/zumgWSARBkM7Qk2aBzM/Pr6+rl0oftqcSa2uJUCjwfC5u TY0gSA9C/njba9evZ2VlNTQ0mBbOnTOnndeS5efnYwCOGhXWvugAACAjI6MgP9/r8YwMCIIgnYDk bPvb779v2769V69egrZOa9iS+rq6kSPDXAc5DJkb7DnMic6kEUMG9bhBh+t1uEGj02p0Wh6LI+Ty AAAAwwAxlvvJ7RkwAMAqx19DQkKSkpLJDQ9BEMQ8krPtP4cPf/PVV6b3LiKLVCqFADzIlJ7/Os1j RyzTlgYArNcoqxQ1WoNeZ9CrdGoDxDG+tcjApFPpAIMAAGOqfXxf+UfDuqVSabOtIAiCdBCSs219 fX1QUBC5dT4Boc8Ax6nLRnDYLEwBVXrtgzppYV25VFVnwA0Qh3V61QinXkqcZc8RAwCg6U3HiHvb A9DeyS4QBEHahORsGzp48LXr152dncmtlgAhpOAYQ4MxVcAAcKlSLm2QPayv8Rc48WhsOoVWoqgq lN4X4Ex7nM+k0J9kW5Mj3Of7lm4IgnRbJGfbiIiINWvWZGRkeHt7d8T9bUsyH+z5OnH2xyPrWeqH Knl+fUVvnos7zcaGIdDhegYdJDVkyepqayDPmSXGAMWk0xZdGo4gSFciOdvu2rXL3t4+Pz8/Pz/f tHzKlCmkZFsrK07fYBetTlOtr8lW3veiSdwwkRewZuhoBoArcZU33a5E8cAZs9IZeHzqk6mQntzf 4/HkTgiCIJ2pJ93fFkJgbysYMsqjzCAr1FaxcKoPxdYLWvM1dAAAwKhuuKgGa7hvkFaq5FYGlhWT SQMUYHpUi6FuWwRBukbPmtYUlqlk8Ym3aH2pD6n1Ixje3ri1jZYDMIzIqEzAdMWFaopLiqpIiLOg ziCh8EQUDhujYwB73KuA0i2CIF2AnGx7Ij7e28vLz89v/4EDsLmbuZHSbwshrCyrOyvP7uXtMMDK 1cVg5QQEVIy4aIIYXQtcgFU9VLkAYaqqwJbC96PaWVN4NhjPgSpgAhpAZ8kQBOkipGXbkWFhfn5+ R48ebXZeMlL6bSEA/m62sa/34jIYQgPLB0oYOO2p3IkBJmR5QQkTUmsxdREuTTEUcjFmIGYvw+pd KWJrwEW5FkGQLkFOtt3y88/Eg46dlwxCa8DtR3HmQjoHMqg4ZtIha+wmgC5AKAGcWqiyx3g+UFIC 5ddBaSHghAJcjiki0bEtgiBdoSf120II0jNL7n5d+fuC19jCR5FjegNFb6DoDDSVnqrRagVsjRWH iVGtAMsNimowpRsQ+QGbTFB1HMv0BOJ5KNkiCNIVSM62DQ0N0kc+jgAAIABJREFUe/78My8/X6vR mJZv3rSp/TOcQwD9HW2nDx9gzeTQDVQAAL1exXpQS9XqKTo9Vamh4LjSQQyYbAODCgAAGLABPCvA sQN8K8B2wayyKVVo/jsEQboEydn229Wri4uLw8LC/t6//9VXXikvLz+fmPjZp5+2P9UCAACEdnx+ uJ8PlUoBBkBVa7llNbyiewxZLVVnABDSGhTVw/pDtkptKwSPBx/QANUVEzkBoTNW44lboyFgCIJ0 CZKzbfrVq3/83/+5uriciI+f8957AIC4uLj//fXXuJiY9lcOISh8IPv9QvrMIQMENDqrqp5TVcN+ IG/wcjfw2Didzi6rEOSXQBYLCgQGhsmmYYAOqF5Q4gSEKNkiCNIlyDjkNK2OQiEu2GUymSqVCgAw oH//u3fvklI5BFCh0RRVSTEdxnmo4FbV8gtLVd5eWidHtYerzs5G6+xMV6g51bXshwq6gUqHNDqk 0SCNhtNoOI0BaQLIhgCizgQEQTofydnWz9f31u3bAAAvT8+/9u6FEObm5en1enJqh6CXo+M3sbG2 eoxVXcfNL9Y6OultbXF7W4zLAwIB5PG1zs7sexWsWjVTpadB6tP/aDRIAxBd34AgSBcguSdh3rx5 HDYbAPDmrFlz58377fffdTrd3DlzSKoeavUGhbTGXoOzy+5DBkPj4qx1sMVZLAAARgU6O2ttnYJR +YBZLYUcjprNBVQKePqKBvj0jRgRBEE6B8nZNjU1leiiDQwMPHTgQGZmpr29vZ+fH2kN3Ks8cTh+ gY8vraamIaSPxslebyUgUikGAKDTtXYSpb8f93amgcsFEOiseAY+FzAYkGK86yIE6K40CIJ0OpJ7 Enbu2vWgupp4LJFIRo4cSWKqhRDYQjgTAq5MXunmqpRYayQiqVZbp9cDOl0JYblCobW11kqsa4QC 9u07vFt3sIJSXX4pTVqDG/BKhUIFIYRoVAKCIF2A5Gw7bty4EydOkFunEQRQ42AniIlKdXdZkXH1 Nh1IDfr//P33rxcuaKnUM3fvjlu3TsPjyG1Ey4ryT4ittHy+PiW1+ng8NbdQl5X/6Y9bUnLz0Fky BEG6BMk9CWNGj/5h48b5CxaEDh7MZDCM5eTcTRyCa7KHH6ZerFIqs2oflsSfYDEYt0pKCh88KJNK y2WyBrV6ya5dBoPhX0VNQVFemkCEaTWSulp+8iW9gO+p0GRduIzOkiEI0iVIzrYbN22COC6XyU6e PGla3v670ohEYhzHs8vu4c3dY8wSPwEAAMAwDMdxkUjcnmAQBEGeVY+5m7iVlTAzKzMwMBCjtCtr 4xDPysy0srIiKzAEQRBLkJxtl3766Xdr1phepyuTy79fu/b7NWvaWbOXt3d+Xt71axlyuaw99YhE YisrKy9vr3bGgyAI8kxIzrYXkpIa364bwqSkJFIq9/bxIaUeBEGQzkdatt26bZvBYIAQbt22zViI 43j61av+/v5ktYIgCNJDkZZtvby8kpOTIYRZWVnGE2IYhRLg7z9r5kyyWkEQBOmhSMu2Y8LDx4SH Awz78osvyLm/IoIgyHOE5H7br7/8ktwKEQRBng/kz5Rz7fr1rKyshoYG08K5c+agA14EQV5kJGfb 337/fdv27b169RLw+eTWDADIz8+vr6uXSh+2pxJra4lQKPD0QiPAEATpVCRn238OH/7mq68iIyPJ rRYAkJ+fjwE4alRY+6vKyMgoyM/38vZuf1UIgiAWIvnXfX19fVBQELl1Pqq5ri4kJCQsLOz48eNq tRrDMGLkg9qglqvl5YryLFlWSkVKSV0JAABrGYQwJCSkrq6uI4JEEARpCcnHtqGDB1+7ft3Z2Znc agEAUqkUAvDvv/8uXrw4KSmJzWZDCCsUFZnSTIVOodApZGqZDtf1sekjYUt4DF5L9cDHtZEeIYIg iBkkZ9uIiIg1a9ZkZGR4e3sTE5QRSLoHGAwPD9++fbu1tTWEsEZTc63q2oWyCwW1BWqDGsfxSmXl on6L7Dh2vSS9zFTS3jAQBEGeHcnZdteuXfb29vn5+fn5+abl7b8HGAAAQohhGIVCwTBMa9Dekd7J lGbeld2NcIuwZduy6ey0irSzpWfFLLG7wL2lw9vGFxYjCIJ0ih5zDzBCamrq9OnTd+7aWU2pzpJm JZYlxnjEDLQf6C30VulVGMB+uflLjjzHVeDaR9KHSqF2aDAIgiCW65AxsHK5PC8/X6fTkV6zg4ND VFTUQ/3DLFnW6eLTA+wGBFkH9bXpa8e1c+I5OfIcBzsMTq1ILa0rlambv1UYOrZFEKRLkJxta2pq Ply4MCIy8rXXX69++BAAsP/AgR9/+omUyiEEXl5ek96cVKIpuVx+mU1j97frHywJ5tA4AAA6le4n 8guyDtLjeqKHQWvQNlsJyrcIgnQ+krPt2nXrDDi+848/RCIRUeLv73/6zBmSqoe3q26v27ruXP65 wtrCGI+YYJtgW44thmFEDrViWgVLgmcGzqzT1OlwXZY066HqIYTw6eNZNFUOgiBdgOR+25TU1N07 dzo7OxvPidna2FQ/noW3nSCE+Zn5JWUlYV+GxQTHeFt5u/PdiVQra9Bnlmm0egiAmwi4RVhFwxrw EICHlQBgCgcrmq8jk0bBMAz1JCAI0jVIzrYMBkOtVpuW5OblWVtbk1I5BGDQoEFzV88V8oU2HJtg m2AahQYhSMtTvrnlfkn1o25iKuVRqsdxiEMAAGDQsJkjrb6bbk2jolyLIEjXIDnbxkRHf7t69aJF iyCEUqk0Kytrw4YN4+PiyKkdQnuufZhHmIAlEDAEdCodAAAhOHa9Pqf8URetvRXt4zhrVwkdh2Df ldp/0usBAGod3HGh5rNJvEpNbpCwQy51QxAEMY/kftv58+YFBQXNff99uVw++623VnzxxciRI999 5x1SKocQnIo/NSxomEqqIlItAADDQFWt3rgMj4WN7cObOkQ4JVQQ4PTk8ooGNS5TKlMrUtFZMgRB ugRpx7Y5OTkCgUAoFH68ZMkH8+eXlpZCCJ2dnblcLllNQAD79eu3ePFisbgt85MzqPRqVTVEp8gQ BOkKpGXbN2bNwjBMKBAMGDBg9bff+vr6klXzExA6OjqOHz+eTqc3eobNwMYP4NOomL2QZsWhAgAw APq6s6aPEAIAsu9rrheqmVRmlHsUOrJFEKRLkJZtE8+dI/EwtlkQgrt3765evfqjjz4SCoWmT4m4 1J/fduCxKBgAdBoGAMAw7OVBgrgBfADAzydl1wvVdAojWBIMmxmDiyAI0uFIy7YdnWoBABDA2tra zMzMplepYRhg0jAWnWJaQqNiNCoGACD+BwBw6JwGraKj40QQBGmKnGy7/8ABiONmFiDpHmCgf//+ W7Zsadpv26DGt52VM+kUKw4lOoRnzafhEKbnqa4VqgEAl7IVppUgCIJ0PnKy7dGjRw0GAwCAzmDk 5eUBAOzt7el0ekVFhV6vHzVqFCn3AAMAqtXqyspKoVDYaJazWiX+8e4qAIC3Pb2PO8uaTyNGhq3+ p/G0OhDA9seBIAjyrMjJtsZbf/21d6+Ls/N/PvuM6FjQarUbN21ydHQkawrI9PT02bNnHzt2zN7e 3lhoYfZ8tBiEgIS8jyAI8mxIHm+7c9eut99+29iHy2AwZr7xxh87dpBSOYSgd+/eq1atYjKZFRUV Wq3WYDBotVo248lW6A2gqkZfJtXdk+rqVE86N6gUQMFwnU6HxtsiCNIlSL6WTKVSqZTK/2fvPuOa utoAgJ97QxISRsKeMgQEAVFQQasiCrj3aN2r7lFnBXxbR33VvrZaZ90LtVpH1bpqBRVHnWArAgoB ZM8wQiBk3fN+iKaILMkFjD7/Hx+Sc+99zgH04ebcM6qWVFRUUHV26TYcRtjMzMzf3z8iImLFihWH Dx+2tbW9HhER4BZ86r6Oao5DWqF86MZ0kiQQQlL563qZDDSoo0Hs04dMkvL28YEhtwCA5kdztu3R vfuq1au/+uqrtm5uJEkmJSVt27Gje7du9ETH6OHDhxMnTszNzU1NTQ0NDeVyuQkJCSvXsH5Z2D86 RSKV15BGCYKwNtLpYCP7dskPRUXCq1f/gGQLAGh+NGfb0JCQHzdtWrpsmep+liTJoMDAkOXLNY9s ZGRMUVRcXHwtd8pKH1tWnQF0jx07hhAiCIKiKCOjxsxGAwCARqM52+rr669etWr511/n5ORgjK2t rblcLi2R+XxeXHycu7s7QWr0jIvCVHxcHJ/Pp6VVAADQQDRnWxUul+vk5ERvTCdnZ0FSUvSTmOLi mrfAaSAjI2M+n+/kTHPzAACgbk2SbZuIs4tLSzcBAAAaqUl2gQQAAFBN02ZbqVTapPEBAEBb0Jxt t23ffu/ePfXr7v7+/QcOjIuLo7cWAADQOjRn2z+uXTMwMEAIPX/+/PSZMzu3b/989OjNW7bQWwsA AGgdmrOtSCSytbVFCB09fnzUyJG+vr6fjx794sULemsBAACtQ/OYBEtLy+SUlMLCwjt37vx25gxC SCwW07UkjUAgKBOVCYXVl/V6LyYmpjyeYWu6B6gBAEDdaM62kyZMWLhokVKpnDxpkmqZrn+ePaNl 7K1AICAQDgjw1zxUTExMskDg5OyseSgAAGggmrPtkCFDOnToIC4vd2/bVlXi2qbNd6tXax65TCTq 2dPf399/+fLlQUFBHA4HIYQxrlRWSuQSiVJSIi0plZZa61nbG9rXsZYuRVHe3t5RUbc1bxIAADQc /bMb7OzsiouLkwQCB3t7JpNpb29PS1ihUIgRevr06ZIlS6KiojgcDsY4pzwnThhXLi8vl5cXVRbJ KXl7s/amHFN9ln5tcfCbaLS0CgAAGojmbFtSUrJy1aq/7t9HCP1+4YK1ldXpM2dycnK+WrCAhugY BwYG7tu3z8TEBGNcIi15kvfkVsat5NLkSmUlRVG5FbmLfRZbcC08TT3rCEJDSwAA4D3RPCZh4w8/ KCnqyKFDRkZGqhI3N7drf/5JS3CMMUEQJEkSBCFTyp4Ln8cJ4xKKEnra9pzoNnF2+9n9HfpHpEcI SgRimbiOIBgSLgCg2dGcbe8/eBAWEuLh4aHuOTU3MysoKKAr/oMHD8aPH59fkJ9YnBgvjL+ZcbOv Q18/K79g++CO5h27WHUpqCh4WfwysSRRSSnpqhQAADRHc7ZlsViVlZVVSxKTkkxMTOiKb2Vl1a9f v0JFYXxR/LVX1zpZdPIw8ehg1sFCz8JG38Za39rPyu9BzoN0UXpRZc1LhcGNLQCgRdCcbQf0779u /fpnsbEYY6FQGBEZuWHDhiGDB9MSHGPk5OQ0YsqINGnavex7HB1OR4uOXqZeXB0uQojJYLoauXqY eCgohaqHQaaU1RgE8i0AoPnR/JRs3ty5W7ZunT1njkwmmzptGpPJHDZ06Izp02kKj2PzYn/Y8wPL h5VSkTLWdayXmZc515wgCFUG5bP5XqZeOu46T3KfyCl5vDDe1sDWRNcEIVRlTBjkWgBAC6A52+ro 6CxbunT+vHnp6ekYY1tbW/X+u5rDGAviBGkZaf6r/Qd4DXDmOzsYOLxOtUVFKC6OkMk8EPJARqNR MErECBUiVIgQwlZWqE0bpKODCAJ6EgAALaJJVhOXSCQESTra2zOZTBrDYoR8fX1nr5/NM+CZcc28 zLx0SB2EMXr4EE2ZgtLSaruQYLHwpEmKjd9TTB3ItQCAFqFl420t9Sz9Hf0NdQ0NWYZMBlNViC5e RC9f1nVhZSVx+LBsZegLKteD50FDSwAA4D3R85Tsm2+/lcvlqMnH26I/rvzRzaObRCh5nWoRQgSB 8vLqv1gsriwrepDzAJ6SAQBaBD3ZNj0jY3lICEVRTTreFiPs4+Ozfft2Y+PG7E/OJFkFkgKMMIYH ZQCAZkdPT8LhgwePHjuWnp7etONtMba2th4yZEj17mAWC/XsiWxta71QLkd//cVmsPs59IM7WwBA i6An25IkOXnSJPRmvO3ixYtV423j4+M3b95M43jbhISE9evXL1q0iMfj/XuAw0Hz5qE6aiktRdOn s0iml6kXrmEMLgAANDltGm+LES4tLY2Li1P1Eb+FyUS6urVeWVmJSJJAiMvkimXltDQGAADeizaN t0UYdezY8eeff67ebyuToStXUGZmrRdWVqLUVHUQAABofk0y3lZXV7dNmzZNEBhXVlbm5ubyeLy3 dt+RSNCBAw0NgXCtK40DAECToT/bPomOjo+PF4vfWvNw9qxZtOxO9ujRo6lTp168eFG1Dc9rte/U 8BbVaRg39HwAAKAPzdl2/4EDe/ft8/T0NDQwoDcyQghj1K5duxUrVrDZ7JycHBMTEwaDoVQqWRxO /RczGAqSxHI5jLcFALQImrPtufPn165Z07dvX3rDqmCEzczM/P39IyIiVqxYcfjwYVtb24jr14cH BHBPnaprjgOTiQcNuh8bq2QyvX18YLwtAKD50Zxty8rKPDyabGosRg8fPpw4cWJubm5qampoaCiX y01ISGCvXDnyl19QdDQhldZwFUFQ1talHTps/PZbYVHR1at/QLIFADQ/mrNtFz+/J9HRtnVMNGgs IyNjiqLi4uIpinr3aClCyKdjHZcTCB09dhwhRBAERVFGRo2ZjQYAAI1Gc7YNDg7esGFDTEyMs7Oz LputLh89enQdu443BJ/Pi4uPc3d3J0iN4lCYio+L4/P5mgQBAID3RXO2DQ8Pt7S0FAgEAoGgavmo UaM0zLZOzs6CpKToJzHFxTVvgdNARkbGfD7fydlJkyAAAPC+aM62R8PD6Q1YlbOLS9MFBwCAJqVl 420BAEBLadN4WwAA0F7aNN4WAAC0F82f7pt2vC0AAGgtmrOtarwtvTEBAOAjoDXjbQEAQKtpzXhb AADQato03hYAALQXjIEFAIDmQP/shoKCggu//54kEOjo6LR2dBwxfLiRkRHttQAAgHah+d42MSnp 8zFj/rx+ncvhsNns6xERw0eOjH3+nN5aAABA69B8b/vTTz8NHTJk0cKF6pLde/Zs3rz50MGD9FYE AADaheZ727j4+OHDhlUtGTF8eHxCAr21AACA1qE523K53ILCwqol+fn5hoaG9NYCAABah+Zs269v 33Xr19++fbuwsFAoFN65e3f1d98NGTyY3loAAEDr0NxvO2/uXIRQSFiYXC5HCLHZ7JEjR86dM4fe WgAAQOvQnG2ZTOaihQvnzpmTmZWlkMtbtWrFacj24wAA8LGjJ9uePnMG17Q5499//616AeskAAA+ cfRk299//12pVCKEmCxWUlISQsjS0pLJZObk5CgUioCAAFgnAQDwiaMn26qXRzhx8mQrW9uw0FA9 PT2EkEwm+2nLFmtra9gmBwDwiaM5CR4JD//yyy9VqRYhxGKxJk2ceOjwYXprAQAArUNztpVIJJKK iqolFRUVVE1dugAA8EmhOdv26N591erVd+7eLSwsLCoqevjw4crVq7t360ZvLQAAoHVoHgEWGhLy 46ZNS5ctU93PkiQZFBgYsnw5vbUAAIDWoTnb6uvrr161avnXX+fk5GCMra2tuVwuvVUAAIA2on99 W4QQl8t1cnJqisgAAKClYGAWAAA0B8i2AADQHCDbAgBAc2iSbFtcXJwkEKiWAQMAAIBoz7YlJSVf LVwY3Lfv2HHjVMuKnz5zZtv27fTWAgAAWofmbLvxhx+UFHXk0CH1Prtubm7X/vyT3loAAEDr0DwC 7P6DB0ePHLG1tVWv+GVuZlZQUEBLcIFAUCYqEwoL6z+1diYmpjyeYWsYoAYAaF40Z1sWi1VZWVm1 JDEpycTERPPIAoGAQDggwF/zUDExMckCgZOzs+ahAACggWjOtgP691+3fv3ixYsxxkKhMD4+fvPm zbTsS1YmEvXs6d8laOT8GROCA7pxOLrvnpNfXL5iT+S1hyk9vVwC2rscuvYgObuAQRIutsZ+nrZj gzzbtTbn83ne3t5RUbc1bxIAADQc/fuSbdm6dfacOTKZbOq0aUwmc9jQoTOmT9c8slAoxAjFxr38 z9rNnX3avZttU7KL1x66fTPm1eAu7ZxtzPdevpstLO3gYjmhb7suHrb2ljymDgMhhN9E07xJAADQ cDRnWx0dnWVLl86fNy89PR1jbGtrq17rlgYY+3fr/OPaUHPT6l0TuUXiRVuvxbzImT88oKJStul0 BE+PtfrLnuP7tOOwmdWC0NYeAABosCZZJ0EikRAk6Whvz2Qy6z+7wTDGDJLUZbOrbbqTVyRee+j2 8+T8cYGdi0Tlp2/HtDI3CJ3YfeBnLqr72WpBaGwSAAA0kJaNt30Y/c/kOcsLi4rVJRjjn3598FtU Qp9O7nx97tHrD61M9PeGDB7aw/XdVAsAAC2Fnmz7zbffqmaONfV4Wwsz08CeXXXZbHVJXGrBpb+S dFnMji52p25Ft3Uw27QguJ2TeW2bTsK9LQCgRdCTbdMzMpaHhFAUdf/Bg7CQEA8Pj6YYb4sxcnFy +Gr2ZEMDfVWJXKG8cOdlsUgS5OP2T0pmbrHo+7mBXTxs69jfF2PouQUAtAB6su3hgwc7dOiQnp7e dONtEUII4VdpmYePnxWXv976LKug7PJfSTw9jo+LXeTTl9MGdujsZl3fVur4zcAEAABoPvRkW5Ik J0+a5ODgoBpv+yw2VjXeNiIycsOGDbSMt0UIYYyTX2XsDz8lFperSm49fZWSXezV2iazoFiXxRjS w7W2a5VKZfTDxG0bz2GMoTMBAND8tGa8LUIIIxTQ3Xfnj6sN9PUQQlkFon2/x1gaGfZq77r/6r3P 2tl6u1hWu7EVlZQnxKXfuRF7/UpM+qt8Som/XjmWlsYAAMB7oTnbhh89OnHChKYbb8tgMLhcDkmS Mrny2LXY/OKKGQO6Rz59kVFQvCkwkM3699tRKqnH918e2XPtwd2EkuJyXQ67R0CnLt07QK8tAKBF 0Jxtj4SHd+7c2cLCok2bNvRGRghhjC7/edPZO/CvP3+NTRP//NvjAb6epWLJX/EpvXwcfN1t3pyG Y/9O/Wn92VvX/2GzWe06tPnM38fM3Cj6cdyurSdmL+5Fe8MAAKBeNGfbgQMHXr58uZ2nJ71hVTDC 7T3bzpj8RakEbT/zyNna3NPBevv5W2Z87pzhndhMBkIIY/wqOTfsqwMv4tJdXO2HjAysqJBERT7M TM9tZW86eUYghkdkAICWQHO2Derde9NPP81bsKCLnx+bxVKXjx49ur6hAg2Asa215eD+Qct/jkzL ES0c0evwnw/LJJVfj+/Vo72dKv6zmJQViw7Gx6Z19PMYMqL3yfDLMpmkd1/v9VsnuXm0IkkSehIA AC2C5mz705YtmKKKi4quXr1atXzUqFGaZ1uMUfxLwcL//HAnU++L3p89fJGWlifs6+c0MqAtQRBK JfUqOXf5/H2Cl1kd/TyC+3c/duh3v27OU2b3tXe00HkzrwySLQCgRdCcbY+Gh9MbsCqMcHJGfr74 7xnTl0gU1JWHzx2s+MvHd+Mb6Mrlit9O3N3x4/nM9MIOHdsOGBJw+pcrX84LHvFFdyZLp1qQpmsh AADUhuZ1ElQzyqqWFBUXh4SF0RMdI2sbx8XzQ+IzhMciHrFZjEVf+LnYGie9yPzP4oNrVxwTFpQN GNpz4LCAU8cvj58W8G6qVQWBfAsAaH4039veioqqPncA46ioKJrCY10d4vLdx8+yxQxSZ2ywR5CP w6XfHuz48bzgZba9o/XwL4KLCkuP7Ds7/+shwz/vVkOqRQgjrHH/MQAAvDfasu2evXuVSiXGeM/e vepCiqIePX7s5uZGVy3JKS9RRhbbqVdbe/NgV8u1IeHXLj5hMBjBA7p17tLuj0t3WCxq9caJPYO8 dGpbAAxjpPnzOgAAeE+0ZVsnJ6fbt29jjOPj49UPxAiSbOvmNnnSJFqqwBghNp9p7s7HSDc9beWC RwV5pSbmvNHj+smkykN7T7XvbL9q3VRzS35+gVBfX09fjysqE1dKpabGRhjj/EIh39CQy+XCgzIA QPOjLdsGBQYGBQYigli9ciVJ0twdrIIR1tXVY0s54pcxj9n5Hew/69ar44OXt46cDnc2b9u1v/2x 82e2mS8sE5cP/GLGzCljpk0YtefwyYhb947t2VQprew7YtqGVcuGDgyGB2UAgOZHc7/td6tX0xvw LRhhSaFc9ETKqEAMmcKwKD7nyausVEqOrfUMY16kSmXS6QtWKJTKrJy8o7+e/+thzIuklNy8gq9C 1yqVyoLCoh37jg0dEAzJFgDQ/OjfKedJdHR8fLxYLK5aOHvWLA1veI2MjCmKynt5t9qYh/dFEARF UUZGxpoEAQCA90Vztt1/4MDeffs8PT0NDQzojczn8+Li49zd3QlSo2dcFKbi4+L4fD5dDQMAgIag OdueO39+7Zo1ffv2pTcsQsjJ2VmQlBT9JKa4uEiTOEZGxnw+38nZia6GAQBAQ9CcbcvKyjw8POiN qebs4tJEkQEAoKnRPHigi5/fk+hoemMCAMBHgOZ72+Dg4A0bNsTExDg7O1fdGZeeNcAAAEBr0b13 Q3i4paWlQCAQCARVy2lZAwwAALSXNq0BBgAA2qtJJn0BAACohrZ728Dg4P379jk6OCCEQsPCvlqw wNraGiGUnZ09bsKEGxERmk/nFQgEZaIyobBQkyAmJqY8nmFrJxgBBgBoVrRl27KyMkqpVL2+fefO tKlTVa+VSqVYLK6+DOP7EwgEBMIBAf4axkEIxcTEJAsETs7OmocCAIAGon/mbhMpE4l69vT/rM+o hbMnB3T34+jqNi6OgYGBt7d3VNRtepsHAAB105p+W6FQiBGKjXv5n7WbS0rL6j1fJpOXl1dmZRVc uvzXgQMX1eWqrRuEQmFTNhYAAKqj89725927DfT1EUIKhWL3nj2GhoYIoYqKCtoqwLhnN9+t339r bFT/Kgc3bkbfuxebmJhmaKDn6mZXNQht7QEAgAajLdu00oK8AAAgAElEQVT279ePoiilUokQ6tun D0JI9ZrNZvfv14+WwbYYY0QQJFl/sNRXOfl5xbq6LCcnW5lUXib6N+Nr3oMMAACNQFu2XdOkK9u+ 8Tjm2Yyv/rNn63/NTF4vmZiRKystUzJ1CF02aW/NQggplcrMjHwWW8fGxiwvryg1JdvW1qwZ2gYA AHXQmqdkKpbmpkG9uqnnBMvk1MN/ygXpMgIhviFDV5cM6qKfnpIoEGQKi0qLi0V+fh6pqdn5BSXq CBhjmNUGAGh+2pRtMUatHexmTP6CqfO62QRB6HEZCiVm6hB21iyKwlwOaWJiqFAq9fU5urqs7KxC uUxhaWlSNQgAADQ/rRmTgBBCCKdnZf/62+XyCglCqESkTMuSSaVUhYSqqKTyCuU25qyKsmKBINO1 jZ1crmAwGDK5Yu7cEVOnDKwaBMFWOQCAZqdN2RZjnJKase/Ir2JxOULonxeSXScKEl9JDfQYBnoM BknwDMiSMoWkUhYfn6JUUhbmRn8/TSwtFRsYcKsGgQdlAIDmp1XZFqEeXTtdPLnXzNQYIcTQQVwO Q6ZA5RKlXEHp6zEy8+TpmaJXr3KkUoUum6Wjw2jn5fQsNqWsrLxqEMi1AIDmp039tghjBoPB4eiq llyQy7G4nEIEIkmCr6/D1EEsHYJSKrt28czJKWQydXx8XAcP7o4xeuupGNzYAgBagjZlW4zRH5G3 PbsOuHnxmLWluaMNy81JNz1HpqRwXpHCrTXbhK/j6ujKMyARQgqFIjs7OzMz09DQMDMzk81mOzs7 I0i2AIAWolXZFuH2nm7zZ0w04hkihEyMdMxNdAgCG+gxMEbFIqWpEcUzIBUKxZMnT9zd3eVyOUmS MpmsTZs26lFfGDoSAAAtQZuyLcLYysK8f3BP1QgwFpNo10aXq8tlMQkDPZJBEgSJoqOjHRwcvLy8 Xr58qaOjI5VKnz9/bmdnp6enx2Kx7O3t4eYWANAitCnbYoxeJqVs2n5g7vTxhgb6bBb5OLYiIaXS kCvv6kUwlNkIYbFY/PDhQ1NT0+zsbAaDQRBEaWlpbm6uv79/ZmYmgp4EAEAL0TTbJivIsEIiVyau K40RhCVLf4MpdtKhNKkLIywqE79ISpbL5aqSoYE8paKCz867eV/BUTy2tjLz8vKqrKy0tLQ0MTFh MBgkSaoeqXG53DZt2iDoSQAAtBBNs+22UvKL9OW9y64QtWdbTBA3DAZs09m41VSjbIsw6uDlvum/ YUZ8nqqAwyY+a4//fprlac8yNurA4XBat26to6PDZDLrCAIAAM1P02wbXyFeIY7Uo8rrOgmj7uLI 3RIxQo1cAlwdSCqV5hcUGRoYqO5YCYLgGXAqysVeXl5eXl4NCoEwrJIAAGh+ms5ukFIUm6qs9zQ2 VSmlNLuxRQghFP3387nLVhWV/LvKDJ/PHzp0qJubW0NDQMctAKAlaNVcMozcXV2+WTaXzWLl5hfK 5HIlRRWXiCiMWCxWeYUkKycPY0xRVG5egbi8AiEkKhPnFwpVC+/m5OVLJJUYQ74FALQArcq2CJua GH3m1/H+46cjJsyNfyEoKiqe//XqzTsPyhWKy9dudgkapVAqy8Tlg8fOOnHmolyh2Hfk18mzlwuL SnLzC4OGTr5+6x5GGB6UAQCanzaNAEMYPXkaO2vRN3kFha8yslZ/v43D0Y3+Jy4pJe1VelZGVk6Z uHz6ghVKpTIzKzf85Pm7D6JfClJy8woXhq5VUlR+oXDH3qND+gdBsgUAND+tybZGRsYURSU8+pPS rP+XIAiKooyMjOlqGAAANITW9CTw+by4+DgKUwRJaPJFYSou7jmfX/8+kgAAQCOtubd1cnYWJCVF P4kpLi7SJI6RkTGfz3dydqKrYQAA0BBak20RQs4uLi3dBAAAaCSt6UkAAACtpmm2ZZOklKx/hpiU 1GWTkNkBAJ8uTXsS2nL17uoH1rtOwl39QHeuPkIKDasDAAAtpWm2XcjDYXb/2yr7tv41wHg0zNwF AAAtVVe2LSkV7TkYfjPiWq+gvnWcFtiwmiIQiqjzhFnTJjUsEgAAaJ967m1VGfBmxLVmaApkWwDA R6z+noSQxfObIQ9GRz9p6ioAAKAFwTgBAABoDpBtAQCgOUC2BQCA5gDZFgAAmgNkWwAAaA6QbQEA oDlAtgUAgOZAW7bNzs6u9VBODl21AACAlqIt206fMaO2Q7Nnz1YqlXRVBAAA2oi21cQLhcJOvr50 RQMAgI8MbdmWy+Vu/P77Gg+FrlhBVy0AAKClaMu2K8LCfGu5tw0LDSVhKXEAwKeNtmzbJzhY/Vom kyGEWCyW6m1wUBBdtQAAgJaicxdIkUi0b//+yMjI/IIChJCZmVnvXr1mzpjB4/ForAUAALQRbdm2 uLh48pQpBEmOGTPGzs6OQCgtPf3c+fNRt2+HHz5sbGxMV0UAAKCNaMu2+/bvt7S03LljB5PJVBeO Hzfuq0WLdu/duyI0lK6KAABAG9H28OruvXsTxo+vmmoRQgwGY/KkSXfu3KGrFgAA0FK0ZduioiJL S8t3yy0tLYVCIV21AACAlqIt2xoZGeXl579bXpCfz+fz6aoFAAC0FG3Z1s/X98SJExT11jbmFEUd O368S5cudNUCAABairanZNO//HLS5MnjJkz4fNQoe3t7giDS0tNPnzmTl5cXfvgwXbUAAICWoi3b WlpaHj58eMeOHT9t3SqRSBBCHA6nR/fuP27caG1tTVctAACgpeic3WBtZbV+3TqKooqKihBCxsbG qgm7iUlJLs7OBEHQWBcAAGgXOrPtlStX7ty9K5XJBg8a1CsgACEkl8sPHDx4+MiRv+7ehWwLAPiU 0faU7PSZM2vWriUZDJ6h4arVq69cvfr8+fPxEyZcvnLlxx9+gFVpAACfONrubc+dO/fVggXjx41D CA0cOHDpsmUymeyLzz+fNXMmh8OhpQqBQFAmKhMKCzUJYmJiyuMZtnZyoqVJAADQQLRl2+ycHB8f H9VrH29vqVT60+bNXekb+yUQCAiEAwL8NQ8VExOTLBA4OTtrHgoAABqItg/4FRUVHF3d10FJUldX 16qmqWWNViYSeXt7+/v7X7p0qbKykiAIVUdwpbIyLiWjk99ukvyu6teOHY+ImmCMvb29RSIRjW0D AIB60fmUbMfOnfr6+qrXlZWVVd+u/PZbDbtuhUIhRujp06dLliyJioricDgY45zynDhhXFp2SWll 9eypVOIa4+A30TRpDAAAvC/asm3/fv0oilLv9qhaQZzmzR8xDgwM3Ldvn4mJCca4RFryJO/JrYxb cckZhZUOCOk3MAidTQIAgIahLduuWb2arlC1wRgTBEGSJEEQMqXsufB5nDAuoSihs2XvRLa8FMkb GKSp2wkAAO/SsoFZDx48GD9+fH5BfmJxYrww/mbGzb4OfTuYdTBkGbZ00wAAoC509ts2Aysrq379 +hUqCuPF8ddeXetk0cnDxKOV0oPNeFXtTAWlqDGC6ga5yRsKAABv06Z7W4yRk5PTiCkj0qRp97Lv cXQ4HS06epl6cXX03j05pzxHppTVGAT6EgAAzU+bsi1CODYv9oc9P0QKIlNKUwY4DvAy8zLnmtd4 am557s2MmwnChBJpiZKq+rAOvxmYAAAAzadpexKkUimbzaYrGsZYECdIy0jzX+0f5NrPWNFKt8I0 u1ycmyuWy6sPfniY+g/6K97LzMtSz9LByM7b0dWAracab0tXewAAoOFozrbbtm/v6OPTrVs31euj x46Zmpr+uHGjh4eH5sExQr6+vrPXz+YZ8ETpuuE78vJzU/PyyvPyxEVFldVOTv7NOvUCdYbMJ4lC 504JK7amd7T3sNW3JRFD85YAAMD7orkn4Y9r1wwMDBBCz58/P33mzM7t2z8fPXrzli30RMfYUs/S 39G/h22PYV16du5oy2LpMJkkg0GS5DsPvhQMSsqUSZBCTqEuMZdzzkbnRT/IeQAdtwCAFkFzthWJ RLa2tgiho8ePjxo50tfX9/PRo1+8eEFLcIzRH1f+6ObRTSKUGHB1J0706tDBwsSEa2LC5fPZNQ40 YLMZ05e4hE0cZcYx2/1s99mks5BsAQAtguaeBEtLy+SUlMLCwjt37vx25gxCSCwW07XcIkbYx8dn yZIlxsbGBEGYmemNHu2RlVUmkSikUoVEoigvrz7BoXdvx5VLBkrZxSb6Rk48p+j8aAyPyAAALYHm bDtpwoSFixYplcrJkyapNjz/59kzJ7qWN8TY2tp6yJAhTCZTVeDlZTF2bLt9+6IVCkoqVSqVuLLy 32G2np7mW7b0szLnIcSz0bexM7BrY9QG7mwBAC2C5mw7ZMiQDh06iMvL3du2VZW4tmnzHU2TejFG CQkJ69evX7RoEY/HQwjp6JC9ejmkphZfupQokcjlcqVMpqQojBCysNDbuDHIyclIdS2TwXQ1dm1l 2ArXMAYXAACaHP0jwPILCuLj42/dulW1cPasWZr3J2CES0tL4+Li5PJ/ewx0dXXGjvUsKam8fj1Z oaAqKxUikVRfn7VmTa/+/V2qXk4SpD5TXywr17AZAADQCDRn2/0HDuzdt8/T09PQwIDeyAghhFHH jh1//vlnY2PjqsV8vu60ad5ZWSKZjJJIFCRJLFjgO2GCV21BAACg+dGcbc+dP792zZq+ffvSG/YN XFlZmZuby+Pxqt4pEwRhaak/c2bHzZsfVFbK+/d3DgnpzuUyaw6BMKySAABofjSPACsrK6NlIkNt Hj16NHXq1BrXAvf0NJ8zp9Pw4W3/858etaVahGB9WwBAy6A523bx83sSHU1vTDWMUbt27f773/+y 2eycnByZTKZUKgsKCkpKShBClZUSGxu8aFEXKyv97OzssrIyhFBpaWleXp5SqVQoFFlZWRUVFTDe FgDQImjOtsHBwdu2bVu5alX40aOnqqBldQKMsJmZmb+//927d/v06RMbG1tYWDht2rQNGzbI5fJz 5855enqy2YRIJAoMDAwPD5fL5Tt37hw9erRQKMzJyenatevVq1cxwjDkFgDQ/Gjutw0PD7e0tBQI BAKBoGr5qFGjaFhVFqOHDx9OnDgxNzc3NTU1NDSUy+U+evTo5cuXKSkpaWlpIpFo3LhxCoUiLS1t //79t27dSkhIyM7OnjFjBkVReXl5mzZtCgoKhmQLAGh+NGfbo+Hh9AZUMzIypigqLi6eoihN4hAE QVGUkZFx/acCAAB9tGZ9Wz6fFxcfR2GKIAlNvihMxcU95/P5Lf0NAQA+LfTPbigoKLjw++9JAoGO jk5rR8cRw4cbGRlpHtbJ2VmQlBT9JKa4uEiTOEZGxnw+38mZpsnEAADQMDRn28SkpFmzZ5uZmXm4 uxMkeT0i4uixY9u3bWvn6al5cGcXl/pPAgCADxLN2fann34aOmTIooUL1SW79+zZvHnzoYMH6a0I AAC0C839tnHx8cOHDataMmL48PiEBHprAQAArUNztuVyuQWFhVVL8vPzDQ0N6a0FAAC0Ds3Ztl/f vuvWr799+3ZhYaFQKLxz9+7q774bMngwvbUAAIDWobnfdt7cuQihkLAw1aKIbDZ75MiRc+fMobcW AADQOjRnWyaTuWjhwrlz5mRmZSnk8latWnE4HLqCCwSCMlGZUFhY/6m1MzEx5fEMW9O1nQQAADQM Pdn28pUrzk5Orq6up8+cwVXmev3999+qF6NHj9Zw5q5AICAQDgjw16ihCCGEYmJikgUCJ2dnzUMB AEAD0ZZte/r7u7q6/v7770ql8t0TNF8noUwk6tnT39/ff/ny5UFBQapbZoxxpbJSIpdIlJLSlMSC /27GJeXOM+fajBxZW3UURXl7e0dF3dakMQAA8L7oybY/79ihetF06yQIhUKM0NOnT5csWRIVFcXh cDDGOeU5ccK4cnm5VCI2XLkHPYxD5uaZp07qOTvzvbyImvbmwW+iNVE7AQCgRjSPSVgeElJt1Zii 4uKQsDB6omMcGBh47949CwsLjHGJtORJ3pOrqVePRu978U2I7sW7DGEJLioSpwpe7dpVlpRUWxBY 4BYA0Pxozra3oqKqL2WLcVRUFC3BMcYEQZAkSRCETCl7LnweJ4xLKIwLjkHdIgoYFGLLMVlapigS il++SD9yRCoUvruuLsaYlsV2AQDgvdA2JmHP3r1KpRJjvGfvXnUhRVGPHj92c3Ojq5YHDx6MHz/+ SPiRArIgXhh/M/3GsGxb171nGRVyhBCBELtcKtMpreTkiqKj08LDW8+YoaOvT1ftAADQaLRlWycn p9u3b2OM4+Pj1U+oCJJs6+Y2edIkumqxsrLq169foaIwXhx/7dU1v3Ir1103yZIy9QkkhZniCnlx kVxXr+j2ba69vfWQIaTOv9+m6gaZrvYAAEAD0ZZtgwIDgwIDEUGsXrmSrOnxlOYwRk5OTiOmjHhe /Pxe9j2ulOhyIoH5Iq3qOQRCDLkSl4hlzHxSl5Nz4YKeoyO/Qwd1hoVeBABAi6B5dsN3q1fTG/Bt ODYv9oc9P7B8WCmlidOi2Pq3/qnxPB2JVFZSUs7SkZJU8pGD7pZhXCtrdZCmbCEAANSM/tXE7927 9/ulSxkZGSwWq5Wt7aiRI9u3b09LZIyxIE6QlpHmv9p/MLOt8S+HCKn83dMIhBDGOuIKqU6hlIHL /76vPBvuOX0el61PEAQ8IgMAtAias+2VK1dWf/dd9+7dewUEKBSKpKSkGbNmhSxfPnLECM2DY4R8 fX1nr5/NM+CZZ5bbrXMlCRJhrCgqytm3T5r2VpeCLLBznrdVkjSrnEk56iTnJP/hbt3eVt+WRAzN WwIAAO+L5mx78PDhr5ctGz1qlLrkypUr23bsoCXbIowt9Sz9Hf0NdQ0NWxsyezFVxZXp6cILF6pl W/OAIOb4QHZ5dpww7kruY8v0CwMZisyyzM/MP6OhJQAA8J5ofpyVn5/ftUuXqiVdunQpKSmhJTjG 6I8rf3Tz6CYRSpgM5tuHqvcPmHPNe7Xq1ce+z+DWg2e0m2HGMdv9bPfZpLMwuQEA0CJovrft1LHj s9hYW1tbdUl0TEynjh1pCY4R9vHxWbJkibFxg/YnJwjCjGvGZ/Ot9az5bL4Tzyk6PxrDUzIAQEug OdsOGjRo3fr1jx49cnJywhgnJyffvHXry2nTTp0+rb6lbPx6YBhbW1sPGTKEyWRWK6/tCgIRLAbL gedgo29jZ2DXxqgN3NkCAFoEzdn20KFDFubmiYmJiYmJqhJbG5tr165VPafR64FhjBISEtavX79o 0SIej1f9WDVvV8FkMF2NXVsZtsKyRtQMAACaojnbNt0aYAghjHBpaWlcXJxqY4j3RRKkPlNfLCun vWEAAFAv+sfbIoRkMhlCiMVi0RwXo44dO/78888N7LetLQgAADQ/OrOtSCTat39/ZGRkfkEBQsjM zKx3r14zZ8yo/qm/8XBlZWVubi6Px6t/cnAtnRUYYVglAQDQ/GjLtsXFxZOnTCFIcsyYMXZ2dgRC aenp586fj7p9O/zwYY3uRqt49OjR1KlTL168aGlpqS7U4fMNfH3lhYXq3luSy9Vr167mEBjXlogB AKDp0JZt9+3fb2lpuXPHjqoDBsaPG/fVokW79+5dERqqeRUYo3bt2q1YsYLNZufk5JiYmDAYjKKi IiaT6bBuneHYsUVCoa2tLUVRhRUVZPv2CKHS0tLKykpTU1OMcV5enpGREYy3BQC0CNpmN9y9d2/C +PHVxmYxGIzJkybduXOHliowwmZmZv7+/nfv3u3Tp09sbGxhYeG0adM2bNiA9PWvp6V1mTxZt317 3KbNoDlzjv7yi1wu37lz5+jRo4VCYU5OTteuXa9evYoRhiG3AIDmR9u9bVFRUdVP92qWlpa0bQKG 0cOHDydOnJibm5uamhoaGsrlch89evTy5cuUlJS0tDSRSDRu3DiFQpGWlrZ///5bt24lJCRkZ2fP mDGDoqi8vLxNmzYFBQVDsgUAND/asq2RkVFefn6bNm2qlRfk5/P5fDriG1MUFRcXX23fs/dFEARF UUZG9PQjAwBAA9HWk+Dn63vixIlqqZCiqGPHj3d5e+WExuHzeXHxcRSmCJLQ5IvCVFzcc1r+AAAA QMMRxSWldZ/B5xmWlIrqDZSbmztp8mRjE5PPR42yt7cnCCItPf30mTN5eXnhhw/b2NjUfXl09JOO HTvVfY4gKam0VFRcXFRvY+pgZGTM5/OdnJ3ePfTw4UNNIgMAPgV+fn6Nu5C2bIsQys7J2bFjx527 dyUSCUKIw+H06N59/rx51tbW9V7bkGwLAADai87ZDdZWVuvXraMoqqioCCFkbGzcRBuUAQCA1qF/ 5i5JkqamprSHBQAArQb3ngAA0Bwg2wIAQHOAbAsAAM2hSVZcBODDl5SYJBJpOqAQfDqMjIx5fENn Z5dGR4Bs20hJSUnisjLaJiU3GRMTEx6P19qphvHFn7KkxCSCwF5eni3dEKBN0tLSBElJzi6NTLiQ bRsjKSmJJJCnp0fLNiMq6vbIkfVvHR8dHZ2Skty6NSTcf4lEooAA/5ZuBdAyxsbGt27dbvTlkG0b Q1xW5u/fo6Vb0VAdO3aMimr8P5GPEnQggMbR5F8OZNvG+HA6EHDDFustLCxs6pYAAOoG2Va7NTDb AgBanKbZNllBhhUSuTJxXTsiEIQlS3+DKXbS0WixRAAA0F6aZtttpeQX6ct7l10h3sm2BWUEh4X0 2RgTxA2DAdt0Nm41hWxLs2r3thGRkQihoMDAFmoOAKBWms5uiK8QdxdHvkiqTE2r4OJ/v/LzJFN+ pOKTKrm4Qo8q7y6OjJeIaWkxqEq1zZrqKyIyMiLyRkTkjYjIyKrlH6CKiopOvr6JiYkt3RAAmo+m 2VZKUbIK6c6ruov2s6OeKTDG7FYjeF2P3HtlGZ/JiIhlXHisUy5FbKpSqtmeCwih1WvWdPL1PXX6 dLXyJcuWdfL1vXL1qrrkr/v3586fHxgc3K1Hj5GjRx86fLjq+ZGRkT179erk69tvwICMjAyE0OCh Qzv5+nby9f2se/cRo0Zt2769rKxMw9ZqSFJZuTw0zL2dV30nYtVX5I3IiMhI1euIyMjIG5HqQ3Vc vHrNmq7dur169apq4eChQ+/cvavpN0Ar1S8oOTm5aqFCoQjq06eTr29+fr66sO5ffY1CV6xwdfdQ f3WAlT9B06DhKZmBLg4ZXhl6lLv2NHclIenX1oE07SHIZSGE9kWwopOV/ToolJpXgxBCyMbG5uLF i5+PHq0uKSoqevTokZmZmbrk5K+//rRly9gxY2bPnKnDZKamplZb+DEwMJDP58+aM+fyxYsMBkNV uGD+/ODgYFFpaXJKysFDhyIiI8MPH26pLR7S0tLmL1xkblb/UmqqnoTIGzcib9yoWh4RGYkxDuzd u94ITCbz+//9b/euXY1ubfOwsbG5eOnSooUL1SW3b9/mcjglJSXqknp/9bXp3Svg66XLVK9JkqC3 5QCo0DMmwdWGWjuuIuwod90ZxGsrfnjx5wNXiwb4UD3c5H3bK9hMVEFLNQj19Pc/c/ZscnKy05vJ UZcuX/6sa9fEpCTV27y8vK3bts2fN2/ihAmqEve2bRsSmcfjWVtZWVtZubm5BQcFTZ4yZfuOHd9+ 8w1NDX8/9x8+HDl8uI+P9/0H4+s+U3Xj2rt37941JdaG9CKMGjny4qVLV65eHdC//7tHn8XGbtmy 5cXLlzweb/CgQbNmzlT9fZo4adLYMWP+uHbtSXS0qYnJwq++MjAw2PTTT5mZmc7Ozqu+/bZ169bV QiUnJ6///vuEhARLC4ulS5ZUPXTp8uWDBw/m5uW5ubouW7rU3d393ZYEBwX9fvHigvnz1X8gL1y8 GBQUFH70qOpto3/1CCE9Pf3WrR2rFV6+cuXQ4SPJKSlcDmfY0KFfL1uKEPrt3PntO3fejLiuOufR o8dTvvwyPvZZAysCnzLaVqVp7+Gybp4Hk2M8Z+Wp737cHeTfed+GqTNHe9s5Vt8XUhO6uroBAQEX L11Sl1y6dGnIkCFyuVz19sbNmxwOZ+yYMZrUwmKxvvjii+sRES01vmrM559PmTypQftdVu2greOr drq6ukuXLNmyZcu7nSdFxcXzFyzo1KnTqZMn161d++f161u3b1cf/XHz5kGDBp09fbp3796rv/tu y9atYSEhv544oa+v/+OmTdVCURT19fLlpqamv544sW7dun0HDqgP3YqK2rJ1a2hIyMULF/z8/BYs XFhjN46Pj48Og/HX/fuqt4WFhdHR0VWfB9Lyq6/KxMRk2dIlNyOu79i+7ZeTJz+03hWgdWjLtnqe Yb0m/zJp6oxX+ZJWrWynTZkcU9TF4LNf9DzC6KoCIaRUKgcPGnTl6lWlUokQin3+XFRW9lnXrvhN YsrIyHCwt9fR0fSe3dHBoaKiouqn1A8Tbpg6Ishksn59+7Z1d9+xc2e1Q2fPnrWxtp47Z46tra2P j8/ihQvPnj2r2gYJIdS9e/c+wcFWVlbTpk6VSCRjx47t0KGDra3tF6NHqz9qqD1+/DgrOzssJKRV q1Zt3dzmzZ2rPnTi5MmxY8b4+vqamJjMmD4dU9T9Nym1mgEDBqj/0F66fLlH9+4GBgbqo5r86i9d vuzezkv1NWfefFVhFz+/Ln5+fD7fu0MHT0+Pd78pAN4LPT0JFIX+OL3xQeqeX64kmltYzZo69sv5 oW1a2wnu75jQjeaE5efrq8Ng3PvrL/8ePX7//feBAwZU7ZvDGBN0bM+jyuYE8aF34Wl+763KxStC Q78YO3bI4MEeHv8u/vAqLa1tlQ/17u7uUqk0IzOzjYsLQsjRwUFVrqenhxCyt7dXv62oqN51lJmV ZWlpqe4Hd66ySo5AIEhISPjlxAnVW3F5eUEtM98GDRw4dvz40tJSHo938dKlat0RmvzqA3r6L128 +HX79fVVLy5fuXLi5K/ZOTkYY6FQ2JWOraPBp08DVqkAACAASURBVIyebBudSk7YnFYuJXQYxNnD oRt3HHe0t01OyzrDsDShkvt2oKWS10iS7N+//6VLl/x8fa9HRIS//dDZ2tr6ekSEUqlU9+41zsvE RENDQx6Pp1FbmwFNfR0WFhZzZ89e//33R48cUf/1ksvlbDb736oQQggxmUzV26qHEEJ131RijKv+ UVQHUR2aPXNmUFCQukT/Tb6rxsHBwdXV9Y9r19xcXSUSSRc/v6ysLPVRTX71+voGLm8v7BR1+3bY f77ZsW1rt88+YzAYk6dOq/FCqUz6vnWBTxY9PQkGuvi/Y6XdXBV6bMrFKHfahNGVkgqeoX5mXum5 xK4ZYltaalEbPGjQnbt3z/72m5OTk52dXdVDPbp3Ly0tvXDhgibxxWLxyV9/DQoK0oJ7W027bf81 atQoNov166lT6lTo4uycEB+vPiEhPp7FYtk0YAfld9nY2OTm5qo7ZNPS0tSHnFq3TklNNa+Cy+XW FmfwoEEXL126cPHioIEDq403oOVXr/bw4SMfb2//Hj1UuTvzTVrX09OrrKxUn5b69uA5AOpAz72t mw12tVZkFJJOltiMfDYmYEjirbxLsZb2VmYJsXE7Wc6ho+hckEF1j7N9x46wkJB3D40fN+7HzZsL Cgu7ffYZi8XKzcvT19Pz8fGpO2ZpaWl2Tk55eXlcXFx4eDiLyZxfpW/xg4URRgg9ffq0+J0uZiM+ 39vbu+GhSJL85ptvZs6axWKxVCXDhg795cSJXbt3Dxs6NC8vb8u2bWPHjFEffS++nTtbWFh8v3Hj 3NmzKySSnbt2qf+SjR8/PjQsrLWjY48ePSql0piYmP79+xtW6ZCtqk9w8KbNm1NSUk6dPFntUKN/ 9Qih8nJxSkrqm58D4eDgYG1tfeXqVVFZmb6e3oGDh3JyclRH27Z1Ky0tjbxxI7B377S0tGPHjjfi pwE+TZomQTZJSkldrrKCINCcvjIuC1HZv4mzf5sbhAx4JhfuplOU0tpYSZEUm9bdzgcPGpScnFz1 46faooULHRwczp49e/yXXxQKhYWFxZxZs6qeEBkZ+d/16xFCg4cO3bNrV6tWrRBC23fs2L5jB5vN btWqVb9+/SaMH1/HHdYHBGOEkKODQ+TBg6WlpepiHo83fdq09+1naO3o+MXnn+/Zu1f11szMbPfP P2/avPnY8eN6XO6AAQNmv/2TbDgGg7Fty5b1GzaMGTfO1NQ0LCREPaUioGfPNatWHTpyZPvOnXp6 el7t2g0aOLC2OAYGBgE9exYKhba2NXxgqvdXX5sbN2/duHlL9ZrD4fwd/WT0qJExT5/26defzWL1 69d3+pevexLsWrVavXLlug3ff7Nylb2d3YL580LCVrzPTwJ8uojiktK6z+DzDEtKRbUd/UrI6Jkc UuM6CTKs/yivPYll3tapfxn43XbauNVEUVuc6OgnHbVnDk/E9evDhw9r6Vagc+fO9+vXT/W6pKTk wKHXCZfH4305dZr6kRRBEFevXg0KDm6xhn54PpDfINA6586db/R/JU3vbRfycJjd/7bKvq35Nko1 1la1BhgPlqShH34zKoHH502bOvXAoUMIoWlTp/L4PPWhD73vGYBPQ/3ZtqRUtOdg+M2Ia72C+tZ4 QgPXm4pAKKL2o53a1zB9CNSvyh85Po/35ZQpqhdv/fH74J/1AfApaNC97axpkxBCNyOuNV07INs2 TrVPFDwe/93CD3MZMAA+NQ3tSQhZPD9k8fyma0e1RVVAA+EGzG9oyDkAgKbWoGxb94OyT5CJiUlL N+GN+hIpSZKYwsbGH0yDAfhU1T8qC1Ltu3g83tOnT1u6FQghRNSHoqjnz59rwaS45mVkZNzSTQBa SZN/OZqOAKOLdo0AQwglCwQikejD2Xy3NsbGxjwe38nZqf5TPyUCQRLC+L1mfwAQExNDkAxnZ+fG XQ577jaSU2N/4uBD4OzsIkhKunXrdnFxUUu3BWgHIyNjHp/X6FSLmiLbKhSKqpOaavQB9XuCT5Xz 28vQANDU6My2IpHol+PHExNfyuW1zhlDCGVmZpz97VwDtzABAICPA23ZdvfuXVmZmcOHDw8OrmHt gqpu3rwJqRYA8KmhIdvm5ubMnzf/f//7vt4z//jjjxcvXm7+6SfNKwUAAO1CQ7adO2fO119/Xe9p GGNRWdm27ds//EVjwafgXJosXUwliujaDxp85NoYMhwMyKF2jVlxVEWjbHvyxIkbNyJ/+OGHes8M DQ0dNmz4qJGjBElJCCGXNnRuDdkikpKSxGVlH/4IMBMTEx6P19oJRoC95VyaTEHojLWrlGOComCu HagHgRCLQd0qZp5Pkw+zZ9Z/QU0an20xxrGxz5YvX17vmfn5+dHPkp7Gb1FfefPP86pVZbVUUlIS SSBPT4/6T21KUVG3R44cUe9p0dHRKSnJrVtDwv1Xupia057LJPUMWfAIATSISEYNM8K7/ilBqBmz rVgsnjdvbv9+/aZNq3mzpqoGDBmVX6GLCH0kRwghfaa0R2d3rU61CCFxWZm/f4+WbkVDdezYMSrq dku34sOSKFLKMTKBVAsazJBF5kqUmnQ9NeZf27ixY8d88UXnzp3rPg1jfODg4XwJFxGvd+Uz48rm ffnF8WPhjaj0g/LhdCA0cIfzwlp2sf2U0duBUG1PTPBR0vDfTGPubW1tbdrU1/F68dKVC5evvXgl ROjNBqhYuXPLhmDYQYBWGJZTBEBLNCbb/rxrt+pFQK/A+LRSOa7jId3rVOvdmrtm9SqOru6Tx48R Qp3quy8GAICPTOOfkj15Ev1PigiR9Y+HIGVCIXaev2q/6q1SLjmzb42bW9tGVw3Uqt3bRkRGIoSC Ahu4nwYAoPk0JtsuWbL03JWbJVJdRNb3bI6S2bTtydI3Vb1TiPN58pebN0OqpU3VZBt5IzIi8vWi 7IG9/024H+D45oqKCv+AgF+OHau3SwqAj0Zjsu2vZ85XMCzqOYmSMUmKY2ShTrUYU91c0OaNZzkc TiMqVSkrKzt0+PDNW7fy8vL09fTc3NyWLF7s4OCgOpqdnf3ljBkFBQVcLvebFSv69Omzes2aS5cv I4RIkjQ1MenUufPUKVMc35z/IZNUVq5avebS5cvxsc/qPPF1uo28cUN1Y4ve3OEG9u795pxa0+3q NWuu/fnniePHHar8TAYPHbr86697dO/e+NY3gdRXrw4dOvT4yZPS0lIjI6POnTqFhYbS8mwqdMWK c+cvqN+qdjjXPCwA1TQm23p5tlUoKUQQCOOMzKySiuq3TwTBMLD11DNzIcjX/bbyiiL98thdZ//Q pK0ikWjy1KksFmvO7NmOjo7FRUVPoqNNTU3VJ1hbW1+9fLmTr++PGzf6+vqqCgN69lyyZIlUKs1I Tz995syEiRN3bN/u3aGDJi1pamlpafMXLjI3M633TFVPQuSNG9W2GoqIjMQYV0m4tWIymd//73+7 d+1qdGubwbPY2PkLFnTq1GnVypXGxsY52dnJKSk0DgPo3Svg66XLVK9J8sP7LAA+Co3JtlevXKIo 6seftv1yt5TblsWt82SFtKwk+Y6t70SEXD6bshchVJ4TG/XrWj6f/7717vz5Z4lEciw8XE9PT1Wi Tql14HA41lZWCCFHBwd/f//1GzZ8t3btb2fOfMgTiO8/fDhy+HAfH+/7D8bXfabqzrZ37969a0qs DRmvMGrkyIuXLl25enVA//7vHn0WG7tly5YXL1/yeLzBgwbNmjmTwWAghCZOmjR2zJg/rl17Eh1t amKy8KuvDAwMNv30U2ZmprOz86pvv23dunW1UMnJyeu//z4hIcHSwmLpkiVVD126fPngwYO5eXlu rq7Lli51d6++JejatWs7+vhs/vFH1ds2Li49e/ZswDfXUHp6+q1bO1YrvHzlyqHDR5JTUrgczrCh Q79ethQh9Nu589t37rwZcV11zqNHj6d8+WV9nz8AQKhx420zMjIGDfv8+LUXJKP+R2TluQkug/9n 6NjD0LGHgUM3HUWJq7m8EakWY3z9+vUJ48erU23jTJwwISMjI+HFC02CNLUxn38+ZfIkiqLqPxXj Bn3VTldXd+mSJVu2bCkrK6t2qKi4WHVHeerkyXVr1/55/frW7dvVR3/cvHnQoEFnT5/u3bv36u++ 27J1a1hIyK8nTujr6/+4aVO1UBRFfb18uamp6a8nTqxbt27fgQPqQ7eiorZs3RoaEnLxwgU/P78F CxdWa0liUlLqq1czZ86s/6dBKxMTk2VLl9yMuL5j+7ZfTp68c/duMzcAfGQak237DxxWLsVGjEL9 sseyV38WJ98pSf2r6ldp2iN5uZBj3Nq83VCXQeuZXKPK4lfyp5uufOt2+9jyU0d3N6LS0tJSUVmZ Jgunq7Rq1YrBYGRnZ2sY5wPRwNkNdUSQyWT9+vZt6+6+Y+fOaofOnj1rY209d84cW1tbHx+fxQsX nj17ViKRqI527969T3CwlZXVtKlTJRLJ2LFjO3ToYGtr+8Xo0YlJSdVCPX78OCs7OywkpFWrVm3d 3ObNnas+dOLkybFjxvj6+pqYmMyYPh1T1P3796tem5GeThCE0zs3yzS6dPmyezsv1decea/3lu7i 59fFz4/P53t36ODp6fHuNwXAe2lMT8LzZ9EIIYxx0PDpJl2n2JrWswa+XFLSlff3t79sU30IbRxV yiA1/vivyj4fbifCe9J8boPqB7siNPSLsWOHDB7s4fHv4g+v0tLaVvlQ7+7uLpVKMzIz27i4IITU DxtVnzbs7e3VbysqKqrVkpmVZWlpqf5M41xllRyBQJCQkPDLiROqt+Ly8oK3Z75hhJq62yegp//S xYtVr/X09VUvLl+5cuLkr9k5ORhjoVDYtUuXJm0D+Og1JtuOmzInS2ar6zKE6b2sjiFgmFLKM6N+ nN/Nx7srQl0b3UQVHo/H5XKTU1Ia0ldbhySBgKKoVnZ2GrbnQ0HTXDILC4u5s2ev//77o0eOqNd6 l8vlVZ9EqWpiMl//zqs9pNLRqevfEsa46hLy6iCqQ7NnzgwK+ncRev03+U7F2tqaoqhXaWltmmxv G319A5e3g0fdvh32n292bNva7bPPGAzG5Kk1LwkilUmbqEng49OYbPvocbRtO1Np4qk6zmnjYOVg zh41vk+bNvT8DyFJsnv37idOnhw5YgSL1cglJjHG+w8ccHRwcPlY9nCkceLuqFGj/rh27ddTp9Sp 0MXZ+UaVoQ4J8fEsFsvG2roRwW1sbHJzc8vKygwMDBBCaWlp6kNOrVunpKaam5vXdq2bq6u5mdnh I0fW//e/jai6cR4+fOTj7e3f4/XaQ5lZWX4IIYT09PQqKyvVp6W+etVsTQLarjHZ9kHUFUpZ10I4 uhyOoaFhY5tUq/nz5k2aPHnm7NmTJ01qZWtbXl4uSE4eNnRo3R0UEokkOydHJpW+Sks7derU87i4 XTt3fsgDEt4LRhgh9PTp0+KSkmqHjPj899rBmyTJb775ZuasWeo/ZsOGDv3lxIldu3cPGzo0Ly9v y7ZtY8eMadyfOt/OnS0sLL7fuHHu7NkVEsnOXbvUv4Lx48eHhoW1dnTs0aNHpVQaExPTv39/QwOD qg1bvnz58pAQBkkOGTLEiM8vLikpLi7uQ9+aG+Xl4pSU1DfVEQ4ODtbW1leuXhWVlenr6R04eCgn J0d1tG1bt9LS0sgbNwJ7905LSzt27DhdbQAfvcZk26pDXJuTtZVV+OHDe/ft2/jDD8XFxVwOx61t 22FDh6pPyM7OnjFrFkJoeWjoirAw1f/GW1FRt6KidHR0zM3MunTp8p8VK2xsbFqk/U0CY4SQo4ND 5MGDVbc65vF406dNe99b39aOjl98/vmevXtVb83MzHb//POmzZuPHT+ux+UOGDBg9qxZjWsmg8HY tmXL+g0bxowbZ2pqGhYS8urNXWFAz55rVq06dOTI9p079fT0vNq1GzRwYLXLA3r23LVz5+EjR0LD wsrLy/l8/oD+/WnMtjdu3rpx85bqtWp2w+hRI2OePu3Trz+bxerXr+/0L1/3JNi1arV65cp1G77/ ZuUqezu7BfPnhYStoKsZ4ONGFJfUsxs5n2dYUipq6nZERz/p2LFTU9dCl4jr14cPH9bSrUDnzp3v 16+f6nVJScmBQ68TLo/H+3LqNPUjKYIgrl69GgSrr1Ux7375958ZW+vRtgsqm82WSqEP9yOXXa4I /atoZ9dGDkKF1ZS1m3pILY/PmzZ1qiGPZ8jjTZs6lcfnqQ/RMXIBAKCp+v+2l5SK9hwMvxlxrVdQ 36ZrR6f21acPgQap0lfA5/G+nDJF9eKtPoSPpZMaAK3WoE9Ss6ZNQgjdjLjWdO2AbNs41TpmeTz+ u4Ww4DgAH4KG9luFLJ4fsnh+07Wj2qIqoIFwA3oJGnIOAKCpNSjbNs+DMi1iYmLS0k14o75ESpIk prCx8QfT4A8Gvf0r8IjsU6DhP5n6n5JBqn0Xj8d7+vRpS7cCIYSI+lAU9fz5cx6P19It/bC0MWSw SEIka8C6PwAghBAqrVSwdcg2ho1ffgBGgDVSskAgEok+nM13a2NsbMzj8Z2cneo/9VNyIV0mRYxh rfXkmObNd8FHiSAQm0H+lizmIOUQu0bOZW3keMO8EkVeqUKupDBGJEHlFZQY6LEZJCIQKi4qJklC h4ExRiSJMzMyCQapQyCMcUW52Ne3k6ez9UewXrPTxzL399M01I51Pk2+65+SRFFdsyIBUGtjyHA0 IBudalHjsq0S6ZyMfHEmMkH1liXNLC4Vq1736tru0vnTqteBPbsoJUWnzpypeq29XavTxw+62LXM bDQA1IbZMxGqb2M9AOjTmNkNBEKIqPnCqo+/KQrX+CACPrcBAD5BjZxLVmXxvLef7VbJpBjjdxd/ gbGfAIBPU2OyLX57Ve+qKbXqNgEUhUmy+vM7iqLq3koAAAA+So18SlbrioVV722Jj2eLBAAA0FDj +m0xh/XvhVzdfx/SSaQy9WuxqNyQV323R2cnJzaLtoWXAABAWzRyvG1WiSK7QCZTKAiCYOmgtKx8 IwM9pg5BEEghlyKEuWwdgiBkMjkiMFOHwWb9v71zj4uq2h74OvvM+8EwAwgDUqaAgCVRSMXNV1oK eZVu5a98a76RstvD6v4S7KZe8ear6yszje5Nb2lPzRtQPzFLKkX7JQEyPOWpAsLAvM/evz+OjCPO zBlgHMPf+X74Y+bsffba52zOmnXWXnttAUVRho6OAYHqwQOdrGvyJN62rq7OYDS0cXXYPSp/lVwm D3WxAYEPRPDw8PgYnU6nb9c3N1/iruqagIBAlcpv8JDeh673m9UNdXV1FJDo6Oi+yyopLSWECgvr rg19IIKHh8fH6HQ6Csg999zT96YKCwsBqF7H2vebl3qDofOe+Pi6Sy16g4EiDE2BjSGMlRJJuBcv YwIYKLFYEqxWSUWioVFRhc7W3V4vwj0EwGoGCoFQ6KkIHh4eH6Nvbx89elRGRsamTZv0en0vWlAq lcuXL8/MzIyPj8/PP9brnnBo27q6uvJyXWtr9z2vvItK5ce521VbWzshpL2zQ0rZsNVAAZhNiMFi BCaE7KvdqevSuhIAoIHCgMxALl6mwoMC2NY8EMG2RTlGEXfNDhIAIIQyGcUURSRSCw3giQgeHh4f 09zcTACysrJUKlVSUpJQKCSEYOw8RUa3+X+EkNVqLSwszMrKysjMZFvrdU/cadva2lpEQVxcXK9b 95zSc+fq6uo5X70RYbClE4BgQtkYISGUyUwkImAIMluAEAEBASEIACgKU2CViBkBYoAiFGAJwh1G o9MoYKciCAEGI5MFYSIihKYoCgimKIYCi0iEaMQQAgymKQCbzUrTjOcieHh4fAohZrM5MTFx0aJF DMMUFhbqdDp7of1ppa4NbFWr1aNGjRKLxTt37jx06FDfFwu407ZGo+HuuDji4kfAu0RFRJz55Rf3 dTAhwC5XI2BlaEwEAGDFUqsJA9CEUFduFgUAQIAmQHeaGAEyyiQYKMCEEKAwcReX5ijChmmjSUyA pigKWEOXQgQQIQKbmVAUBgJAIUyI0UzJpeChCB4eHh/Dxviz+gEhdMcdd3iSNFUkEgkEAvuJfV8o 4E7btrW1u7K3bwScr97kKmAy010HkT2OzdntQFZGZrIYxUKb/XxuEZgwmDaYxEDRLpqlCKHZEwCA wWIGMwhhT0T0F0pLijs6OzmrKeTyodExPugPjxv4wfIcjHFFRUVZWZn9iKs3UY1GExQURNO9T7HY DQ6/LSFe0Oie4MmrN7myqyGx2QQY0xTluG6NMZuNVqvRbDYyjJUQQtO0RKKUyfxoWmixCgWIEbIX w6VtgRBCwGgSEEJhxmYy6Q2GdoaxAABNCwUCsVgsE4mkAoFjQhPKaAS59Er3bg1t29HZGX/33ZzV Tp8544PO3BRmzpqVnJw87emnb3ZHuPH6YJ06dWr12rUHP/741vOJIYQiIiK0Wq39iKsH1m7b2qv1 8W5waFtMfLTQlvIgLTqrxghQJgsNFHLslo2xXbxUTQiWiIVCAY0QhbFNr2/qNLRpNGFCodhooWgZ EK7XAVaEDdMYRJgwLa11JpNeIhaKRIgQsNmMHZ36dj1oNGEKhdrxRIaIGWKkgVtEP8JVDvJzZWUD w8JkMpmrEyurqjZu2nTmzBkA0Gq1j//pT1OffPJG9bLfMvWpp/6Znc05P+wh3h2ssLCwlORkr6va 1tbWF1588b3du73bLCeOTyTGuKysrKysrJuXlrouG4FGoxk9erTdtu37Y81l2/Y8rYHFYgGAHv8P eWLbYkIwsVkRwwgdDVsAoJEwZECYXMrQ6OpdYzBua+9sb2v08wshNMWeTjBxo9jZCiYjtjFWvb5Z JLBpw4MFgivBYAQIwcRgogilJNemMiMEGY0gF3OL6O/YGGbh4sUA8E1OjtOXLIZh0p99Nioq6h9v v40oqryiQqlU+rybv3fq6+srKiputJReD1ZISMj8Z57xen++O34c3xxb5KpQ1rYNDg6+UtDVH0dF x/oDxWKxo23LvS0VF9yehB5ltrdYLKXnzgHA0KioHilc5EGCcda0NVuvhnbZoSgQCOU0baIRY9d0 iKYD1EqA9paW82KR2E+j7TJeOUR0drZ1GswiIQkJUiPacXEzBQgoWkoBur4DmAi72rhFbFunfPbZ Z9XV1cvS0lz5s1paWhobGzdu2BAZEQEAd955p71o2/bt33z7bWNjY1BQ0JJFiyZMmAAAXx469M6u XV9+/jlb59SpU0vS0n4qKJg2Y8bYMWMWzJ/PHv/qyJG3Nmz4+sgRgUBw6PDh9957r7GpKXro0Bdf eCE2NhYADAbD6rVr8/PzZTLZ1CefrK2tjYqKYv0AOTk5//zww6qqKolEMunRR59NTweA744fz87O fn758pWZmfX19Ue//dZisaxdt+7YsWMSiWT2rFlCh3/gs2fPbti4saS0NCQ4eP4zz6SkpHS76uKS km3bthWXlNhstoR77135+ut+fn4A8McpUxYuWPDHSZPYagsXL74vMXHkyJHzFywAgKQHHwSA7Pff j42JuXjx4vq33iooKEAIJSUlvfTCC2q1GvpGrwfru+PHX1+58mjX3qy73n33o48/NplMY8eMGTZs 2E8///zW+vUGg2HMQw/t3LFj48aNuvJyrVabtnTpQ2PHsqdcP9afff75mrVrMcYJiYlSqfS7/PzM VasAIDMjgz3lnV27zpw5s23rVgCYOWtW+rJlR/Pzvzx0aMb06YsWLuQcAjewj2RlZeWJEyeEwh4k NW5qarJarZWVleCNd1ZuTwImnk6UWSyWc+fKWNu2pLQ0KiqyBwrXowshhABj66itr0EIURSiKNT1 gRLQAlotlUqu1doUpfH3w7i9o9NA8JXXfLdmNGEwsVlNYiEMCFRRCHW7wwwDbZdbbIyNEIIxQwjG +IrNrPGXK/xDWc/tLebssnusbAzzj23bFHL5vDlzXFUOCAgIDAw8cuRIZHp6t6LBgwc/NHZsaFhY Xm7uqr/+NSkpyY3Zmzxx4pdffmnXtnl5eQ+PHy8QCI7m52/avHnNm28OGTLkwMGD6c8999knnyiV yk2bNxf/9tuObdvkCsWePXty8/KioqLYc9UaTfqyZVGRkdU1NcvS0xMSEpIeeAAAqmtq/paVlbZ0 afCAASKR6G/r1pWWlr6zc6dcLt+9e3dxcfH4ceMAoKmpaemyZc+mp/99/fpff/31ldde04aGdvOT KuTyyZMnv/766zar9aUVK97Pzk5f5nKP6qjIyB3bt8+aPfuH48ftz8jLK1aoVKr33n0XAN7euvW5 5cv37tmDUI8zmXhrsOx8/fXX72dnZ2ZkxERHH83P37xlywMPPMAWYYzfXL16xUsvhYeHf/rZZxmZ mQkJCX5KJTgb69QpU/R6/Tfffrv3vfc8uZBNmzfHxcXt3L49ICDAkyFwd08AAKC4qKikpKSn7hFC CGEY6Ltly5mVBnuMyWQqLT1ntlgIAAEwWyylpedMJpPnLXhw2UAIQQgUMoFYBALaRoGZsRkslnaj 8XJ7+8XWy82EYHItQEGAWhmmDQCKO2SAEKAAAgNUwQP8aQHdrSmCib6j43JbU2dni8nUZrN1EmKm kU0kJDIpLRIiR7G3BhcuXFi8dOmBgwfZr6ytNGfOHDdmF0Ioa926vLy8p6ZNO3DwoMFgsBdNnDAh OjraT6lMTU212Wzna2vdiJ4wYUJVdTX7ut3R0VHw448pyckAsG///qefeioxMTEgIGDB/PkE4xMn TpjN5i8PHXr22WfvvPPOOwYNeu3VVx1NmBEJCSMSElQq1fC77oqJiSkvL2ePt7S0/Hn58rFjxsTG xprN5sNffZWelhYTHX1bePiKl1+224Off/HFncOGPfH446wjLykp6ch//tOtt+Hh4Q+PHz8gKCg0 NHT0qFF2ER5SePr0b8XFK1eujIiIiIiIawUY7wAADHJJREFUyFy58lxZ2anCwh414t3BsnPg4MHH UlPHjxsXFhY2fdq0uOHDHUtnTJ+emJio1WoXLVxosViqKivZ4z0aa6f4+/uvePnl2NjY4OBgT4bA HYQAQCIhU222KVZrj/6m2myJ7PPMztL3AU6/LSGeeRL07XqNRuPJQeeCPPjlYNWYRCwMDXHZJiGE AkogEHbznAoJMA4xZO5FCAQInL44EPBTSP0iwykKXS8CPBPRvxAKhScKCk6fOZOSkiIWizltJZbh d9316SefHD169KMDB3bs3Llm9erEESOsVmv2Bx/8z9Gjly9fZjcDtrjdFXxAUNA98fE5ubmLFy06 mp8fGBg4fPhwANDpdMXFxR/u28dW6+jsvHjpUkNDg9VqjenKcSGRSMIcsgLl5OQcOHiwsbGRADQ3 NyeOGMEeF4lEd3fZRw0NDQzD2LNkyGSy0K5pa115+Zlffhn38MPsV6PReP9993XrbVFR0Z69e8sr KqxWa2dnZ0wPs21UVVWFhIRoutSiWq0O1Wp1Ot2IhB5sjerFwXKsUF1T81hqqv3rkCFDGhobr34d PJj9QNO0VCplA9F6OtZOSUxMtH/2ZAjcwD6O4QBTuGoaVGqzTHnNNBIh5paLYDbe8FkyD61OAPD3 755c0d5CjzvlgishCeBuDoqmBX6qAAT0dYY/hWnarDdwatsrIpxCXRGh8NPYcPd2KIoSCMWmDuOt pG3VavVz6el/Xb16586dt912G+sE9MSfSNP0uHHjxo0bt+XttzMyM48cPrx9x478Y8fWZ2UNvuMO AEi8/36nJ5otV5N2JicnZ3/wweJFi3Lz8pInTmQPEkIWL1w4fvx4ezWFQtF04QJcG0do97p+//33 mW+88fesrPvvvx8htGTpUnsdR0/XlWXaDm/uArt1TMiokSP//Pzz9iKxWOzY5+bm5iVpaXNmz179 5ptisfjd3bsLXZilFoerc8RmtXY7QgB65GEErw7WtV0hjtqnm3tQIpFc36CHY90N87Ua+RpBXEPg Hrsx58aJQCiqNumBqv/6o0JksFFXFaOEMbZfEMv37vXEInQPl20LxHO/bV/wNAKMy5aXyVXmNoOx 3clCCalK5af088C25RAhlfk1NDdfanWSvS1QHajWhNxK2hYAZs6Y8c9//Wv7jh1AUZ7YSt1IuPfe ffv3Y4xPnjyZkpzMPn6NjY32n2G5TGYymez1a2pq7J/HPfTQuqyswtOnf/rpp+efe449OGTw4IrK ygEDBjhK0YaE0DRdVlbGHmcYpr6+ni06eerU3XFxSUlJ7Ne6+nqn5qI2JAQhVHbu3ICgIACwWq0N DQ1s0eDBg3Pz8gIDA115UYtLSqxW65zZs9kKdtEAIHO4OoxxXV0d+5nd/YRhruz4GxEZ2djY2NLa ypq3ra2tDQ0N7L3qEd4aLMeDA8PDHde5VjsMkCtcjTVCCDNXNzmWyeUtDmkHaly3zDkEHHjwPLYF ai8+Pe6/gzdeXzQhNHJR6qS+h4BxdJ1hMGZnym7wH8N44rflBlG01Wx2WmQ1megu121fRGCgjCaj 0yKjyQhdjuMeD8XvFaFQ+JfXXrMxjM1mc+8EZCkvL8/+4IOTp05VVFaeKCjYtmNHUlISQihEqy0u LsYYGwyGDZs22R+bqKiotra2/Px8AKg5f/7fH31kb0qhUDz4hz9s3rIlYsiQQYMGsQenT59+6PDh Dz/88Pz582U63b8/+qhdr5dIJCnJyf/YurVMp2tqatq8ZUtHx5V9oLUhIdU1NXq9HmP8fnZ2U1OT 025LJJLkiRPf3rq1tLS0vr5+4+bNdlNryuTJly5denPNmvLy8urq6pzc3KKiIsdzQ4KDrVYrG43z 88mTed98Yy+KjYn5OifHYDBYrdY9e/e2trayx4ODgxFCObm5ly9fNhqNd8fFxcbEvPHGG5VVVZVV VaveeCM6Ojo+Pt6TAXLEW4PlWOdPjz32yaef/vDDDy0tLYe/+qqgoICzG67GWqvVVlRWlpSUXLh4 kb05P/38c11dHSHkREHB9z/84KpBziFwjyePIxYKGaFz6xMBoWWyPrtt3WpbhULB/ih5PtPVO1gR CoXCfV8x6VpM5vqPzdjlsvSKI9rlPfNERNdyMSd/mGDCJaI/8tDYsRMeeSQsLMwTW0kkEp04cWLF K69MnzFjzdq1d8fFrcrIAID0tLSW1tYJycnTZswY+eCDw7smWwYOHPjqK6+8tWHDwxMmZGZmLlyw wLG1iRMnFhUV2d0IADBm9OhVGRlfHDo09amnlixd+uOPP9IIAcDzzz9/++23z503b/rMmTKZbNiw YWz91NTUuLi4xx5/fNLkyc0tLbNmznTV85dfeil66NAlaWmz587VhoSwAQkAoNVqd27fXl9XN3vu 3JmzZ+/fv79bQFVERMSytLTnli+fmJKyb9++v7z6qr1o6ZIlcrl80uTJT0yd2tzSYr8QtVq9LC1t 67Ztk1NTKyoqEEIbN2xQKBRz582bPWeOSCxev25d7xYXeGWwHHk0JWXqk0++npExOTX1+PHjqVM4 nZ8ux3rUyJGjR49euHjxzFmzMMYpyckTHnlk7rx5KZMmfXzggD3+5Ho4h8A9fXcCsI30sR132cTP 19aaTabQ0FDUbS2BV6EAMCF19fUyiTRsYJiraidPnoyPj6+qrxNY3WWo1GhCOi+1Wh3eTO0IJRLJ gAFyqRQhdPr06YTr5h88FKFQBZ5vbOgwdlxfJJfKw0IHqRUKVyL6EadOnRwzejRntaP5+ZybbtwU ps2Y8Vhq6pNPPHGzO+ILfDlYGzZuvHDhwt/Wru1jOz4jLzc3OTlZoZBPBXDz39ASent5xrwXNVuv LyoXRiz+6Q/fv5pBUdSRI0fGd03W9RR3ftvwgQN/+eV/z/56tr29TzvHcKJQKAVCOjKBKyO63Yjs XR1Hq/Qmiugn+CmVR/PzPanmg870FKPRWFtb67gW/tbGl4NVeu5cbEy/S23jHdu2j2H07rStTqdT yKUjH0zqmwiPKCwsLNfp3G9B4eAQ6E0dRyfATRTRX4iMGnqzu9Az9u3fHxgYGD10KEJo244dMpns Xm9sjtIvuKGD9cOJEzU1NSMSEpR+fjk5OYWFhcu7Ziz/f3FtbEYvcKdt9e3to0aN9M2ET3x8/LFj 37mvQwhYMSCCKHA5pebe7qQI5X4Gq+8i0K2TBayfoVQqd+3a1dDYKBAIhkZFbdm0SSqV3uxO3Qr4 q1Tv5ubufOcdi8VyW3j42jVrehpNfNPxyvPY91dWd9q2ubnZl2qDcwsKQohQKDYDJaYJcpGOwEYo CiGnRRRFiUVCzpgEThFIIEK0cxE0Tcuk4lssJqG/MOnRRyc9+ujN7sUtSGxsLLueuP9CgGg0mpMt LRjA1eSauaNd3HDpbMhdMmJwDOlHhPmNDBa3t/d9lox7F0jfKA6P8ttiHKiU640Cg8VsYxjnXhSz Ta1WC4TCbj9DFKKlKiVQFCHEzW4UHokwWrVBWqlY0m2VHaJRgDoAUbR7ETw8PL6GwKpVq9avX3/A TbBwe6tszxc/1z2iDFASdFUnI5uZNtILEuPdLHvyEM4cYL8XM02hUGBCxEKhkKY14DJZJ4vQ2foW AMAYI4QwIU6jzXokQiFzHq/mXgQPD4+PUas1GONZs2bPmOEy+M8T2CXIarVHqQic4jVtW3j6tD1y 245arb6n5xHaTpErFHV1daGhoTRCvVb/9mgzpcLJ5KwPRPDw8PgYf39V0W9FsbGxlAdpXd2ACf6t qMhVigJP8Jq2vWPQoNy8vLa2q7FiKpVq4fz53jKNwwcOrKmpramp7ujg3n/JDQqFXKnwcxrY6wMR PDw8PmZIRISurOzUycLW1pa+tKNWa/z9/YdEDOl1C17TtiqVasEzz+zavZtVuOxXlUrlRUfEbbcN 9FZTN1EEDw+Pj4mIjLzZXQDgzJPgSd4AOyqVav68eSqVyv6hR6f75oJ5eHh4bgpeniVTqVTPzJ3L fuAVKA8PD48d78cksHt/8qqWh4eHxxHO/Lbgm3RW6BbbyYuHh4fnWn4v8ba8LczDw3Nr407bslHB bEzvDe0EQqiPYcM8PDw8v3PcxST4+6uKiopYhXtDwRgXnT3bl7BhHh4ent857rKJA4CurEyv72hu drIHlxdRqzU2xnZfTzbR5OHh4elfcGhbHh4eHh6v0KsNLHl4eHh4egivbXl4eHh8Aa9teXh4eHwB r215eHh4fAGvbXl4eHh8Aa9teXh4eHzB/wEXR2cNFLKVJgAAAABJRU5ErkJggg== "
       preserveAspectRatio="none"
       height="96.34906"
       width="80" />
    <rect
       style="opacity:1;fill:none;fill-opacity:1;stroke:#ff0000;stroke-width:0.4146677;stroke-miterlimit:4;stroke-dasharray:none;stroke-dashoffset:0;stroke-opacity:1"
       id="rect5637"
       width="8.0261698"
       height="43.704082"
       x="62.321732"
       y="99.692924" />
    <rect
       style="opacity:1;fill:none;fill-opacity:1;stroke:#ff0000;stroke-width:0.4146677;stroke-miterlimit:4;stroke-dasharray:none;stroke-dashoffset:0;stroke-opacity:1"
       id="rect5637-2"
       width="69.258316"
       height="11.765089"
       x="69.503281"
       y="157.40837" />
    <text
       xml:space="preserve"
       style="font-style:normal;font-weight:normal;font-size:10.58333302px;line-height:1.25;font-family:sans-serif;letter-spacing:0px;word-spacing:0px;fill:#000000;fill-opacity:1;stroke:none;stroke-width:0.26458332"
       x="86.745537"
       y="149.4003"
       id="text825"><tspan
         sodipodi:role="line"
         id="tspan823"
         x="86.745537"
         y="149.4003"
         style="font-style:normal;font-variant:normal;font-weight:bold;font-stretch:normal;font-size:2.82222223px;font-family:sans-serif;-inkscape-font-specification:'sans-serif Bold';fill:#ff0000;fill-opacity:1;stroke-width:0.26458332">Définition méta-classe et classe</tspan></text>
    <text
       xml:space="preserve"
       style="font-style:normal;font-weight:normal;font-size:10.58333302px;line-height:1.25;font-family:sans-serif;letter-spacing:0px;word-spacing:0px;fill:#000000;fill-opacity:1;stroke:none;stroke-width:0.26458332"
       x="82.587799"
       y="114.4375"
       id="text829"><tspan
         sodipodi:role="line"
         id="tspan827"
         x="82.587799"
         y="114.4375"
         style="font-style:normal;font-variant:normal;font-weight:bold;font-stretch:normal;font-size:2.82222223px;font-family:sans-serif;-inkscape-font-specification:'sans-serif Bold';fill:#ff0000;fill-opacity:1;stroke-width:0.26458332">Onglet données d'entrée</tspan></text>
    <path
       style="fill:none;stroke:#ff0000;stroke-width:0.26499999;stroke-linecap:butt;stroke-linejoin:miter;stroke-miterlimit:4;stroke-dasharray:none;stroke-opacity:1;marker-end:url(#Arrow1Mend)"
       d="M 98.273808,116.13839 C 71.24851,127.47768 71.24851,127.47768 71.24851,127.47768"
       id="path831"
       inkscape:connector-curvature="0" />
    <path
       style="fill:none;stroke:#ff0000;stroke-width:0.26499999;stroke-linecap:butt;stroke-linejoin:miter;stroke-miterlimit:4;stroke-dasharray:none;stroke-opacity:1;marker-end:url(#Arrow1Mend-3)"
       d="m 111.81262,150.49429 -5.29167,4.91369"
       id="path831-7"
       inkscape:connector-curvature="0"
       sodipodi:nodetypes="cc" />
  </g>
</svg>
