<?xml version="1.0" encoding="UTF-8" standalone="no"?>
<!-- Created with Inkscape (http://www.inkscape.org/) -->

<svg
   xmlns:dc="http://purl.org/dc/elements/1.1/"
   xmlns:cc="http://creativecommons.org/ns#"
   xmlns:rdf="http://www.w3.org/1999/02/22-rdf-syntax-ns#"
   xmlns:svg="http://www.w3.org/2000/svg"
   xmlns="http://www.w3.org/2000/svg"
   xmlns:sodipodi="http://sodipodi.sourceforge.net/DTD/sodipodi-0.dtd"
   xmlns:inkscape="http://www.inkscape.org/namespaces/inkscape"
   width="157.46553mm"
   height="134.7731mm"
   viewBox="0 0 157.46553 134.7731"
   version="1.1"
   id="svg8"
   inkscape:version="0.92.5 (2060ec1f9f, 2020-04-08)"
   sodipodi:docname="fig_jointure_attributaire.svg"
   inkscape:export-filename="/home/poulpe/Enseignement/fiches_focus_online/BriquesDeGeomatique/figures/fig_jointure_attributaire.png"
   inkscape:export-xdpi="250"
   inkscape:export-ydpi="250">
  <defs
     id="defs2">
    <marker
       inkscape:stockid="Arrow1Lend"
       orient="auto"
       refY="0"
       refX="0"
       id="Arrow1Lend"
       style="overflow:visible"
       inkscape:isstock="true">
      <path
         id="path1263"
         d="M 0,0 5,-5 -12.5,0 5,5 Z"
         style="fill:#ffffff;fill-opacity:1;fill-rule:evenodd;stroke:#a7a7a7;stroke-width:1.00000003pt;stroke-opacity:1"
         transform="matrix(-0.8,0,0,-0.8,-10,0)"
         inkscape:connector-curvature="0" />
    </marker>
    <marker
       inkscape:stockid="Arrow1Lstart"
       orient="auto"
       refY="0"
       refX="0"
       id="Arrow1Lstart"
       style="overflow:visible"
       inkscape:isstock="true">
      <path
         id="path1260"
         d="M 0,0 5,-5 -12.5,0 5,5 Z"
         style="fill:#ffffff;fill-opacity:1;fill-rule:evenodd;stroke:#a7a7a7;stroke-width:1.00000003pt;stroke-opacity:1"
         transform="matrix(0.8,0,0,0.8,10,0)"
         inkscape:connector-curvature="0" />
    </marker>
    <clipPath
       clipPathUnits="userSpaceOnUse"
       id="clipPath1224">
      <rect
         style="opacity:1;fill:#000000;fill-opacity:0.55015199;stroke:none;stroke-width:1.02249038;stroke-miterlimit:4;stroke-dasharray:none;stroke-dashoffset:0;stroke-opacity:1"
         id="rect1226"
         width="107.52831"
         height="60.760471"
         x="39.462212"
         y="92.477409" />
    </clipPath>
    <marker
       inkscape:stockid="Arrow1Lstart"
       orient="auto"
       refY="0"
       refX="0"
       id="Arrow1Lstart-6"
       style="overflow:visible"
       inkscape:isstock="true">
      <path
         inkscape:connector-curvature="0"
         id="path1260-0"
         d="M 0,0 5,-5 -12.5,0 5,5 Z"
         style="fill:#ffffff;fill-opacity:1;fill-rule:evenodd;stroke:#a7a7a7;stroke-width:1.00000003pt;stroke-opacity:1"
         transform="matrix(0.8,0,0,0.8,10,0)" />
    </marker>
    <marker
       inkscape:stockid="Arrow1Lend"
       orient="auto"
       refY="0"
       refX="0"
       id="Arrow1Lend-2"
       style="overflow:visible"
       inkscape:isstock="true">
      <path
         inkscape:connector-curvature="0"
         id="path1263-7"
         d="M 0,0 5,-5 -12.5,0 5,5 Z"
         style="fill:#ffffff;fill-opacity:1;fill-rule:evenodd;stroke:#a7a7a7;stroke-width:1.00000003pt;stroke-opacity:1"
         transform="matrix(-0.8,0,0,-0.8,-10,0)" />
    </marker>
  </defs>
  <sodipodi:namedview
     id="base"
     pagecolor="#ffffff"
     bordercolor="#666666"
     borderopacity="1.0"
     inkscape:pageopacity="0.0"
     inkscape:pageshadow="2"
     inkscape:zoom="1.5685777"
     inkscape:cx="297.57266"
     inkscape:cy="254.68933"
     inkscape:document-units="mm"
     inkscape:current-layer="layer1"
     showgrid="false"
     inkscape:window-width="1920"
     inkscape:window-height="1011"
     inkscape:window-x="0"
     inkscape:window-y="0"
     inkscape:window-maximized="1"
     fit-margin-top="0"
     fit-margin-left="0"
     fit-margin-right="0"
     fit-margin-bottom="0" />
  <metadata
     id="metadata5">
    <rdf:RDF>
      <cc:Work
         rdf:about="">
        <dc:format>image/svg+xml</dc:format>
        <dc:type
           rdf:resource="http://purl.org/dc/dcmitype/StillImage" />
        <dc:title></dc:title>
      </cc:Work>
    </rdf:RDF>
  </metadata>
  <g
     inkscape:label="Calque 1"
     inkscape:groupmode="layer"
     id="layer1"
     transform="translate(-28.901718,-20.632686)">
    <g
       id="g1202"
       transform="translate(17.366956,-0.58039526)">
      <rect
         y="27.502977"
         x="11.717262"
         height="10.961308"
         width="69.16964"
         id="rect815"
         style="opacity:1;fill:#525252;fill-opacity:1;stroke:#000000;stroke-width:0.36500001;stroke-miterlimit:4;stroke-dasharray:none;stroke-dashoffset:0;stroke-opacity:1" />
      <rect
         y="38.464287"
         x="11.717264"
         height="10.961308"
         width="69.16964"
         id="rect815-3"
         style="opacity:1;fill:#d8d8d8;fill-opacity:1;stroke:#000000;stroke-width:0.36500001;stroke-miterlimit:4;stroke-dasharray:none;stroke-dashoffset:0;stroke-opacity:1" />
      <rect
         y="49.425594"
         x="11.717264"
         height="10.961308"
         width="69.16964"
         id="rect815-1"
         style="opacity:1;fill:#d8d8d8;fill-opacity:1;stroke:#000000;stroke-width:0.36500001;stroke-miterlimit:4;stroke-dasharray:none;stroke-dashoffset:0;stroke-opacity:1" />
      <rect
         y="60.386902"
         x="11.717264"
         height="10.961308"
         width="69.16964"
         id="rect815-10"
         style="opacity:1;fill:#d8d8d8;fill-opacity:1;stroke:#000000;stroke-width:0.36500001;stroke-miterlimit:4;stroke-dasharray:none;stroke-dashoffset:0;stroke-opacity:1" />
      <rect
         y="71.348206"
         x="11.717264"
         height="10.961308"
         width="69.16964"
         id="rect815-34"
         style="opacity:1;fill:#d8d8d8;fill-opacity:1;stroke:#000000;stroke-width:0.36500001;stroke-miterlimit:4;stroke-dasharray:none;stroke-dashoffset:0;stroke-opacity:1" />
      <text
         id="text861"
         y="34.092606"
         x="48.643047"
         style="font-style:normal;font-weight:normal;font-size:10.58333302px;line-height:1.25;font-family:sans-serif;letter-spacing:0px;word-spacing:0px;fill:#000000;fill-opacity:1;stroke:none;stroke-width:0.26458332"
         xml:space="preserve"><tspan
           style="font-style:normal;font-variant:normal;font-weight:bold;font-stretch:normal;font-size:4.23333311px;font-family:sans-serif;-inkscape-font-specification:'sans-serif Bold';fill:#ffffff;fill-opacity:1;stroke-width:0.26458332"
           y="34.092606"
           x="48.643047"
           id="tspan859"
           sodipodi:role="line">Code_INSEE</tspan></text>
      <text
         id="text861-3"
         y="34.055401"
         x="14.142493"
         style="font-style:normal;font-weight:normal;font-size:10.58333302px;line-height:1.25;font-family:sans-serif;letter-spacing:0px;word-spacing:0px;fill:#000000;fill-opacity:1;stroke:none;stroke-width:0.26458332"
         xml:space="preserve"><tspan
           style="font-style:normal;font-variant:normal;font-weight:bold;font-stretch:normal;font-size:4.23333311px;font-family:sans-serif;-inkscape-font-specification:'sans-serif Bold';fill:#ffffff;fill-opacity:1;stroke-width:0.26458332"
           y="34.055401"
           x="14.142493"
           id="tspan859-9"
           sodipodi:role="line">Nom_Comm</tspan></text>
      <path
         inkscape:connector-curvature="0"
         id="path881"
         d="M 45.607322,27.770247 V 82.576779"
         style="fill:none;stroke:#000000;stroke-width:0.26458332px;stroke-linecap:butt;stroke-linejoin:miter;stroke-opacity:1" />
      <text
         id="text861-3-1"
         y="45.52314"
         x="17.58621"
         style="font-style:normal;font-weight:normal;font-size:10.58333302px;line-height:1.25;font-family:sans-serif;letter-spacing:0px;word-spacing:0px;fill:#000000;fill-opacity:1;stroke:none;stroke-width:0.26458332"
         xml:space="preserve"><tspan
           style="font-style:normal;font-variant:normal;font-weight:bold;font-stretch:normal;font-size:4.23333311px;font-family:sans-serif;-inkscape-font-specification:'sans-serif Bold';fill:#000000;fill-opacity:1;stroke-width:0.26458332"
           y="45.52314"
           x="17.58621"
           id="tspan859-9-9"
           sodipodi:role="line">Pontoise</tspan></text>
      <text
         id="text861-3-1-3"
         y="56.838947"
         x="20.992722"
         style="font-style:normal;font-weight:normal;font-size:10.58333302px;line-height:1.25;font-family:sans-serif;letter-spacing:0px;word-spacing:0px;fill:#000000;fill-opacity:1;stroke:none;stroke-width:0.26458332"
         xml:space="preserve"><tspan
           style="font-style:normal;font-variant:normal;font-weight:bold;font-stretch:normal;font-size:4.23333311px;font-family:sans-serif;-inkscape-font-specification:'sans-serif Bold';fill:#000000;fill-opacity:1;stroke-width:0.26458332"
           y="56.838947"
           x="20.992722"
           id="tspan859-9-9-8"
           sodipodi:role="line">Zonza</tspan></text>
      <text
         id="text861-3-1-0"
         y="67.445755"
         x="17.65649"
         style="font-style:normal;font-weight:normal;font-size:10.58333302px;line-height:1.25;font-family:sans-serif;letter-spacing:0px;word-spacing:0px;fill:#000000;fill-opacity:1;stroke:none;stroke-width:0.26458332"
         xml:space="preserve"><tspan
           style="font-style:normal;font-variant:normal;font-weight:bold;font-stretch:normal;font-size:4.23333311px;font-family:sans-serif;-inkscape-font-specification:'sans-serif Bold';fill:#000000;fill-opacity:1;stroke-width:0.26458332"
           y="67.445755"
           x="17.65649"
           id="tspan859-9-9-5"
           sodipodi:role="line">Malakoff</tspan></text>
      <text
         id="text861-3-1-6"
         y="78.064957"
         x="20.421179"
         style="font-style:normal;font-weight:normal;font-size:10.58333302px;line-height:1.25;font-family:sans-serif;letter-spacing:0px;word-spacing:0px;fill:#000000;fill-opacity:1;stroke:none;stroke-width:0.26458332"
         xml:space="preserve"><tspan
           style="font-style:normal;font-variant:normal;font-weight:bold;font-stretch:normal;font-size:4.23333311px;font-family:sans-serif;-inkscape-font-specification:'sans-serif Bold';fill:#000000;fill-opacity:1;stroke-width:0.26458332"
           y="78.064957"
           x="20.421179"
           id="tspan859-9-9-6"
           sodipodi:role="line">Cérilly</tspan></text>
      <text
         id="text861-3-1-0-4"
         y="67.408546"
         x="55.22559"
         style="font-style:normal;font-weight:normal;font-size:10.58333302px;line-height:1.25;font-family:sans-serif;letter-spacing:0px;word-spacing:0px;fill:#000000;fill-opacity:1;stroke:none;stroke-width:0.26458332"
         xml:space="preserve"><tspan
           style="font-style:normal;font-variant:normal;font-weight:bold;font-stretch:normal;font-size:4.23333311px;font-family:sans-serif;-inkscape-font-specification:'sans-serif Bold';fill:#000000;fill-opacity:1;stroke-width:0.26458332"
           y="67.408546"
           x="55.22559"
           id="tspan859-9-9-5-0"
           sodipodi:role="line">92046</tspan></text>
      <text
         id="text861-3-1-0-4-0"
         y="45.485931"
         x="55.213188"
         style="font-style:normal;font-weight:normal;font-size:10.58333302px;line-height:1.25;font-family:sans-serif;letter-spacing:0px;word-spacing:0px;fill:#000000;fill-opacity:1;stroke:none;stroke-width:0.26458332"
         xml:space="preserve"><tspan
           style="font-style:normal;font-variant:normal;font-weight:bold;font-stretch:normal;font-size:4.23333311px;font-family:sans-serif;-inkscape-font-specification:'sans-serif Bold';fill:#000000;fill-opacity:1;stroke-width:0.26458332"
           y="45.485931"
           x="55.213188"
           id="tspan859-9-9-5-0-4"
           sodipodi:role="line">95500</tspan></text>
      <text
         id="text861-3-1-0-4-0-6"
         y="56.866852"
         x="55.072628"
         style="font-style:normal;font-weight:normal;font-size:10.58333302px;line-height:1.25;font-family:sans-serif;letter-spacing:0px;word-spacing:0px;fill:#000000;fill-opacity:1;stroke:none;stroke-width:0.26458332"
         xml:space="preserve"><tspan
           style="font-style:normal;font-variant:normal;font-weight:bold;font-stretch:normal;font-size:4.23333311px;font-family:sans-serif;-inkscape-font-specification:'sans-serif Bold';fill:#000000;fill-opacity:1;stroke-width:0.26458332"
           y="56.866852"
           x="55.072628"
           id="tspan859-9-9-5-0-4-2"
           sodipodi:role="line">2A362</tspan></text>
      <text
         id="text861-3-1-0-4-0-6-6"
         y="78.36985"
         x="55.251431"
         style="font-style:normal;font-weight:normal;font-size:10.58333302px;line-height:1.25;font-family:sans-serif;letter-spacing:0px;word-spacing:0px;fill:#000000;fill-opacity:1;stroke:none;stroke-width:0.26458332"
         xml:space="preserve"><tspan
           style="font-style:normal;font-variant:normal;font-weight:bold;font-stretch:normal;font-size:4.23333311px;font-family:sans-serif;-inkscape-font-specification:'sans-serif Bold';fill:#000000;fill-opacity:1;stroke-width:0.26458332"
           y="78.36985"
           x="55.251431"
           id="tspan859-9-9-5-0-4-2-7"
           sodipodi:role="line">03048</tspan></text>
    </g>
    <g
       id="g1230"
       transform="translate(5.8901019,-0.34902775)">
      <rect
         y="27.271608"
         x="111.125"
         height="10.961308"
         width="69.16964"
         id="rect815-5"
         style="opacity:1;fill:#525252;fill-opacity:1;stroke:#000000;stroke-width:0.36500001;stroke-miterlimit:4;stroke-dasharray:none;stroke-dashoffset:0;stroke-opacity:1" />
      <rect
         y="38.232918"
         x="111.125"
         height="10.961308"
         width="69.16964"
         id="rect815-3-6"
         style="opacity:1;fill:#d8d8d8;fill-opacity:1;stroke:#000000;stroke-width:0.36500001;stroke-miterlimit:4;stroke-dasharray:none;stroke-dashoffset:0;stroke-opacity:1" />
      <rect
         y="49.194225"
         x="111.125"
         height="10.961308"
         width="69.16964"
         id="rect815-1-9"
         style="opacity:1;fill:#d8d8d8;fill-opacity:1;stroke:#000000;stroke-width:0.36500001;stroke-miterlimit:4;stroke-dasharray:none;stroke-dashoffset:0;stroke-opacity:1" />
      <rect
         y="60.155529"
         x="111.125"
         height="10.961308"
         width="69.16964"
         id="rect815-10-8"
         style="opacity:1;fill:#d8d8d8;fill-opacity:1;stroke:#000000;stroke-width:0.36500001;stroke-miterlimit:4;stroke-dasharray:none;stroke-dashoffset:0;stroke-opacity:1" />
      <rect
         y="71.116837"
         x="111.125"
         height="10.961308"
         width="69.16964"
         id="rect815-34-7"
         style="opacity:1;fill:#d8d8d8;fill-opacity:1;stroke:#000000;stroke-width:0.36500001;stroke-miterlimit:4;stroke-dasharray:none;stroke-dashoffset:0;stroke-opacity:1" />
      <text
         id="text861-2"
         y="33.861237"
         x="114.18441"
         style="font-style:normal;font-weight:normal;font-size:10.58333302px;line-height:1.25;font-family:sans-serif;letter-spacing:0px;word-spacing:0px;fill:#000000;fill-opacity:1;stroke:none;stroke-width:0.26458332"
         xml:space="preserve"><tspan
           style="font-style:normal;font-variant:normal;font-weight:bold;font-stretch:normal;font-size:4.23333311px;font-family:sans-serif;-inkscape-font-specification:'sans-serif Bold';fill:#ffffff;fill-opacity:1;stroke-width:0.26458332"
           y="33.861237"
           x="114.18441"
           id="tspan859-8"
           sodipodi:role="line">Code_INSEE</tspan></text>
      <text
         id="text861-3-2"
         y="33.824028"
         x="147.855"
         style="font-style:normal;font-weight:normal;font-size:10.58333302px;line-height:1.25;font-family:sans-serif;letter-spacing:0px;word-spacing:0px;fill:#000000;fill-opacity:1;stroke:none;stroke-width:0.26458332"
         xml:space="preserve"><tspan
           style="font-style:normal;font-variant:normal;font-weight:bold;font-stretch:normal;font-size:4.23333311px;font-family:sans-serif;-inkscape-font-specification:'sans-serif Bold';fill:#ffffff;fill-opacity:1;stroke-width:0.26458332"
           y="33.824028"
           x="147.855"
           id="tspan859-9-99"
           sodipodi:role="line">Population</tspan></text>
      <path
         inkscape:connector-curvature="0"
         id="path881-6"
         d="M 145.01506,27.53888 V 82.345413"
         style="fill:none;stroke:#000000;stroke-width:0.26458332px;stroke-linecap:butt;stroke-linejoin:miter;stroke-opacity:1" />
      <text
         id="text861-3-1-0-4-9"
         y="67.177185"
         x="120.76695"
         style="font-style:normal;font-weight:normal;font-size:10.58333302px;line-height:1.25;font-family:sans-serif;letter-spacing:0px;word-spacing:0px;fill:#000000;fill-opacity:1;stroke:none;stroke-width:0.26458332"
         xml:space="preserve"><tspan
           style="font-style:normal;font-variant:normal;font-weight:bold;font-stretch:normal;font-size:4.23333311px;font-family:sans-serif;-inkscape-font-specification:'sans-serif Bold';fill:#000000;fill-opacity:1;stroke-width:0.26458332"
           y="67.177185"
           x="120.76695"
           id="tspan859-9-9-5-0-9"
           sodipodi:role="line">92046</tspan></text>
      <text
         id="text861-3-1-0-4-0-1"
         y="45.254562"
         x="120.75455"
         style="font-style:normal;font-weight:normal;font-size:10.58333302px;line-height:1.25;font-family:sans-serif;letter-spacing:0px;word-spacing:0px;fill:#000000;fill-opacity:1;stroke:none;stroke-width:0.26458332"
         xml:space="preserve"><tspan
           style="font-style:normal;font-variant:normal;font-weight:bold;font-stretch:normal;font-size:4.23333311px;font-family:sans-serif;-inkscape-font-specification:'sans-serif Bold';fill:#000000;fill-opacity:1;stroke-width:0.26458332"
           y="45.254562"
           x="120.75455"
           id="tspan859-9-9-5-0-4-4"
           sodipodi:role="line">95500</tspan></text>
      <text
         id="text861-3-1-0-4-0-6-9"
         y="56.635483"
         x="120.61399"
         style="font-style:normal;font-weight:normal;font-size:10.58333302px;line-height:1.25;font-family:sans-serif;letter-spacing:0px;word-spacing:0px;fill:#000000;fill-opacity:1;stroke:none;stroke-width:0.26458332"
         xml:space="preserve"><tspan
           style="font-style:normal;font-variant:normal;font-weight:bold;font-stretch:normal;font-size:4.23333311px;font-family:sans-serif;-inkscape-font-specification:'sans-serif Bold';fill:#000000;fill-opacity:1;stroke-width:0.26458332"
           y="56.635483"
           x="120.61399"
           id="tspan859-9-9-5-0-4-2-1"
           sodipodi:role="line">2A362</tspan></text>
      <text
         id="text861-3-1-0-4-0-6-6-0"
         y="78.138489"
         x="120.79279"
         style="font-style:normal;font-weight:normal;font-size:10.58333302px;line-height:1.25;font-family:sans-serif;letter-spacing:0px;word-spacing:0px;fill:#000000;fill-opacity:1;stroke:none;stroke-width:0.26458332"
         xml:space="preserve"><tspan
           style="font-style:normal;font-variant:normal;font-weight:bold;font-stretch:normal;font-size:4.23333311px;font-family:sans-serif;-inkscape-font-specification:'sans-serif Bold';fill:#000000;fill-opacity:1;stroke-width:0.26458332"
           y="78.138489"
           x="120.79279"
           id="tspan859-9-9-5-0-4-2-7-7"
           sodipodi:role="line">03048</tspan></text>
      <text
         id="text861-3-1-0-4-0-6-6-0-5"
         y="78.138481"
         x="154.81787"
         style="font-style:normal;font-weight:normal;font-size:10.58333302px;line-height:1.25;font-family:sans-serif;letter-spacing:0px;word-spacing:0px;fill:#000000;fill-opacity:1;stroke:none;stroke-width:0.26458332"
         xml:space="preserve"><tspan
           style="font-style:normal;font-variant:normal;font-weight:bold;font-stretch:normal;font-size:4.23333311px;font-family:sans-serif;-inkscape-font-specification:'sans-serif Bold';fill:#000000;fill-opacity:1;stroke-width:0.26458332"
           y="78.138481"
           x="154.81787"
           id="tspan859-9-9-5-0-4-2-7-7-8"
           sodipodi:role="line">1322</tspan></text>
      <text
         id="text861-3-1-0-4-0-6-6-0-5-7"
         y="45.254562"
         x="153.34613"
         style="font-style:normal;font-weight:normal;font-size:10.58333302px;line-height:1.25;font-family:sans-serif;letter-spacing:0px;word-spacing:0px;fill:#000000;fill-opacity:1;stroke:none;stroke-width:0.26458332"
         xml:space="preserve"><tspan
           style="font-style:normal;font-variant:normal;font-weight:bold;font-stretch:normal;font-size:4.23333311px;font-family:sans-serif;-inkscape-font-specification:'sans-serif Bold';fill:#000000;fill-opacity:1;stroke-width:0.26458332"
           y="45.254562"
           x="153.34613"
           id="tspan859-9-9-5-0-4-2-7-7-8-0"
           sodipodi:role="line">29826</tspan></text>
      <text
         id="text861-3-1-0-4-0-6-6-0-5-4"
         y="56.21587"
         x="154.87369"
         style="font-style:normal;font-weight:normal;font-size:10.58333302px;line-height:1.25;font-family:sans-serif;letter-spacing:0px;word-spacing:0px;fill:#000000;fill-opacity:1;stroke:none;stroke-width:0.26458332"
         xml:space="preserve"><tspan
           style="font-style:normal;font-variant:normal;font-weight:bold;font-stretch:normal;font-size:4.23333311px;font-family:sans-serif;-inkscape-font-specification:'sans-serif Bold';fill:#000000;fill-opacity:1;stroke-width:0.26458332"
           y="56.21587"
           x="154.87369"
           id="tspan859-9-9-5-0-4-2-7-7-8-8"
           sodipodi:role="line">2553</tspan></text>
      <text
         id="text861-3-1-0-4-0-6-6-0-5-0"
         y="67.177177"
         x="153.35542"
         style="font-style:normal;font-weight:normal;font-size:10.58333302px;line-height:1.25;font-family:sans-serif;letter-spacing:0px;word-spacing:0px;fill:#000000;fill-opacity:1;stroke:none;stroke-width:0.26458332"
         xml:space="preserve"><tspan
           style="font-style:normal;font-variant:normal;font-weight:bold;font-stretch:normal;font-size:4.23333311px;font-family:sans-serif;-inkscape-font-specification:'sans-serif Bold';fill:#000000;fill-opacity:1;stroke-width:0.26458332"
           y="67.177177"
           x="153.35542"
           id="tspan859-9-9-5-0-4-2-7-7-8-4"
           sodipodi:role="line">30304</tspan></text>
    </g>
    <g
       id="g1204"
       transform="translate(10.554158,-1.6036154)"
       clip-path="url(#clipPath1224)">
      <g
         transform="translate(-67.468748,66.523811)"
         id="g1230-2">
        <rect
           style="opacity:1;fill:#525252;fill-opacity:1;stroke:#000000;stroke-width:0.36500001;stroke-miterlimit:4;stroke-dasharray:none;stroke-dashoffset:0;stroke-opacity:1"
           id="rect815-5-9"
           width="69.16964"
           height="10.961308"
           x="111.125"
           y="27.271608" />
        <rect
           style="opacity:1;fill:#d8d8d8;fill-opacity:1;stroke:#000000;stroke-width:0.36500001;stroke-miterlimit:4;stroke-dasharray:none;stroke-dashoffset:0;stroke-opacity:1"
           id="rect815-3-6-6"
           width="69.16964"
           height="10.961308"
           x="111.125"
           y="38.232918" />
        <rect
           style="opacity:1;fill:#d8d8d8;fill-opacity:1;stroke:#000000;stroke-width:0.36500001;stroke-miterlimit:4;stroke-dasharray:none;stroke-dashoffset:0;stroke-opacity:1"
           id="rect815-1-9-1"
           width="69.16964"
           height="10.961308"
           x="111.125"
           y="49.194225" />
        <rect
           style="opacity:1;fill:#d8d8d8;fill-opacity:1;stroke:#000000;stroke-width:0.36500001;stroke-miterlimit:4;stroke-dasharray:none;stroke-dashoffset:0;stroke-opacity:1"
           id="rect815-10-8-0"
           width="69.16964"
           height="10.961308"
           x="111.125"
           y="60.155529" />
        <rect
           style="opacity:1;fill:#d8d8d8;fill-opacity:1;stroke:#000000;stroke-width:0.36500001;stroke-miterlimit:4;stroke-dasharray:none;stroke-dashoffset:0;stroke-opacity:1"
           id="rect815-34-7-4"
           width="69.16964"
           height="10.961308"
           x="111.125"
           y="71.116837" />
        <text
           xml:space="preserve"
           style="font-style:normal;font-weight:normal;font-size:10.58333302px;line-height:1.25;font-family:sans-serif;letter-spacing:0px;word-spacing:0px;fill:#000000;fill-opacity:1;stroke:none;stroke-width:0.26458332"
           x="114.18441"
           y="33.861237"
           id="text861-2-2"><tspan
             sodipodi:role="line"
             id="tspan859-8-2"
             x="114.18441"
             y="33.861237"
             style="font-style:normal;font-variant:normal;font-weight:bold;font-stretch:normal;font-size:4.23333311px;font-family:sans-serif;-inkscape-font-specification:'sans-serif Bold';fill:#ffffff;fill-opacity:1;stroke-width:0.26458332">Code_INSEE</tspan></text>
        <text
           xml:space="preserve"
           style="font-style:normal;font-weight:normal;font-size:10.58333302px;line-height:1.25;font-family:sans-serif;letter-spacing:0px;word-spacing:0px;fill:#000000;fill-opacity:1;stroke:none;stroke-width:0.26458332"
           x="147.855"
           y="33.824028"
           id="text861-3-2-2"><tspan
             sodipodi:role="line"
             id="tspan859-9-99-0"
             x="147.855"
             y="33.824028"
             style="font-style:normal;font-variant:normal;font-weight:bold;font-stretch:normal;font-size:4.23333311px;font-family:sans-serif;-inkscape-font-specification:'sans-serif Bold';fill:#ffffff;fill-opacity:1;stroke-width:0.26458332">Population</tspan></text>
        <path
           style="fill:none;stroke:#000000;stroke-width:0.26458332px;stroke-linecap:butt;stroke-linejoin:miter;stroke-opacity:1"
           d="M 145.01506,27.53888 V 82.345413"
           id="path881-6-5"
           inkscape:connector-curvature="0" />
        <text
           xml:space="preserve"
           style="font-style:normal;font-weight:normal;font-size:10.58333302px;line-height:1.25;font-family:sans-serif;letter-spacing:0px;word-spacing:0px;fill:#000000;fill-opacity:1;stroke:none;stroke-width:0.26458332"
           x="120.76695"
           y="67.177185"
           id="text861-3-1-0-4-9-5"><tspan
             sodipodi:role="line"
             id="tspan859-9-9-5-0-9-2"
             x="120.76695"
             y="67.177185"
             style="font-style:normal;font-variant:normal;font-weight:bold;font-stretch:normal;font-size:4.23333311px;font-family:sans-serif;-inkscape-font-specification:'sans-serif Bold';fill:#000000;fill-opacity:1;stroke-width:0.26458332">92046</tspan></text>
        <text
           xml:space="preserve"
           style="font-style:normal;font-weight:normal;font-size:10.58333302px;line-height:1.25;font-family:sans-serif;letter-spacing:0px;word-spacing:0px;fill:#000000;fill-opacity:1;stroke:none;stroke-width:0.26458332"
           x="120.75455"
           y="45.254562"
           id="text861-3-1-0-4-0-1-9"><tspan
             sodipodi:role="line"
             id="tspan859-9-9-5-0-4-4-0"
             x="120.75455"
             y="45.254562"
             style="font-style:normal;font-variant:normal;font-weight:bold;font-stretch:normal;font-size:4.23333311px;font-family:sans-serif;-inkscape-font-specification:'sans-serif Bold';fill:#000000;fill-opacity:1;stroke-width:0.26458332">95500</tspan></text>
        <text
           xml:space="preserve"
           style="font-style:normal;font-weight:normal;font-size:10.58333302px;line-height:1.25;font-family:sans-serif;letter-spacing:0px;word-spacing:0px;fill:#000000;fill-opacity:1;stroke:none;stroke-width:0.26458332"
           x="120.61399"
           y="56.635483"
           id="text861-3-1-0-4-0-6-9-2"><tspan
             sodipodi:role="line"
             id="tspan859-9-9-5-0-4-2-1-8"
             x="120.61399"
             y="56.635483"
             style="font-style:normal;font-variant:normal;font-weight:bold;font-stretch:normal;font-size:4.23333311px;font-family:sans-serif;-inkscape-font-specification:'sans-serif Bold';fill:#000000;fill-opacity:1;stroke-width:0.26458332">2A362</tspan></text>
        <text
           xml:space="preserve"
           style="font-style:normal;font-weight:normal;font-size:10.58333302px;line-height:1.25;font-family:sans-serif;letter-spacing:0px;word-spacing:0px;fill:#000000;fill-opacity:1;stroke:none;stroke-width:0.26458332"
           x="120.79279"
           y="78.138489"
           id="text861-3-1-0-4-0-6-6-0-3"><tspan
             sodipodi:role="line"
             id="tspan859-9-9-5-0-4-2-7-7-80"
             x="120.79279"
             y="78.138489"
             style="font-style:normal;font-variant:normal;font-weight:bold;font-stretch:normal;font-size:4.23333311px;font-family:sans-serif;-inkscape-font-specification:'sans-serif Bold';fill:#000000;fill-opacity:1;stroke-width:0.26458332">03048</tspan></text>
        <text
           xml:space="preserve"
           style="font-style:normal;font-weight:normal;font-size:10.58333302px;line-height:1.25;font-family:sans-serif;letter-spacing:0px;word-spacing:0px;fill:#000000;fill-opacity:1;stroke:none;stroke-width:0.26458332"
           x="154.81787"
           y="78.138481"
           id="text861-3-1-0-4-0-6-6-0-5-40"><tspan
             sodipodi:role="line"
             id="tspan859-9-9-5-0-4-2-7-7-8-9"
             x="154.81787"
             y="78.138481"
             style="font-style:normal;font-variant:normal;font-weight:bold;font-stretch:normal;font-size:4.23333311px;font-family:sans-serif;-inkscape-font-specification:'sans-serif Bold';fill:#000000;fill-opacity:1;stroke-width:0.26458332">1322</tspan></text>
        <text
           xml:space="preserve"
           style="font-style:normal;font-weight:normal;font-size:10.58333302px;line-height:1.25;font-family:sans-serif;letter-spacing:0px;word-spacing:0px;fill:#000000;fill-opacity:1;stroke:none;stroke-width:0.26458332"
           x="153.34613"
           y="45.254562"
           id="text861-3-1-0-4-0-6-6-0-5-7-1"><tspan
             sodipodi:role="line"
             id="tspan859-9-9-5-0-4-2-7-7-8-0-9"
             x="153.34613"
             y="45.254562"
             style="font-style:normal;font-variant:normal;font-weight:bold;font-stretch:normal;font-size:4.23333311px;font-family:sans-serif;-inkscape-font-specification:'sans-serif Bold';fill:#000000;fill-opacity:1;stroke-width:0.26458332">29826</tspan></text>
        <text
           xml:space="preserve"
           style="font-style:normal;font-weight:normal;font-size:10.58333302px;line-height:1.25;font-family:sans-serif;letter-spacing:0px;word-spacing:0px;fill:#000000;fill-opacity:1;stroke:none;stroke-width:0.26458332"
           x="154.87369"
           y="56.21587"
           id="text861-3-1-0-4-0-6-6-0-5-4-6"><tspan
             sodipodi:role="line"
             id="tspan859-9-9-5-0-4-2-7-7-8-8-2"
             x="154.87369"
             y="56.21587"
             style="font-style:normal;font-variant:normal;font-weight:bold;font-stretch:normal;font-size:4.23333311px;font-family:sans-serif;-inkscape-font-specification:'sans-serif Bold';fill:#000000;fill-opacity:1;stroke-width:0.26458332">2553</tspan></text>
        <text
           xml:space="preserve"
           style="font-style:normal;font-weight:normal;font-size:10.58333302px;line-height:1.25;font-family:sans-serif;letter-spacing:0px;word-spacing:0px;fill:#000000;fill-opacity:1;stroke:none;stroke-width:0.26458332"
           x="153.35542"
           y="67.177177"
           id="text861-3-1-0-4-0-6-6-0-5-0-5"><tspan
             sodipodi:role="line"
             id="tspan859-9-9-5-0-4-2-7-7-8-4-4"
             x="153.35542"
             y="67.177177"
             style="font-style:normal;font-variant:normal;font-weight:bold;font-stretch:normal;font-size:4.23333311px;font-family:sans-serif;-inkscape-font-specification:'sans-serif Bold';fill:#000000;fill-opacity:1;stroke-width:0.26458332">30304</tspan></text>
      </g>
      <g
         transform="translate(101.10864,66.292442)"
         id="g1202-1">
        <rect
           style="opacity:1;fill:#525252;fill-opacity:1;stroke:#000000;stroke-width:0.36500001;stroke-miterlimit:4;stroke-dasharray:none;stroke-dashoffset:0;stroke-opacity:1"
           id="rect815-0"
           width="69.16964"
           height="10.961308"
           x="11.717262"
           y="27.502977" />
        <rect
           style="opacity:1;fill:#d8d8d8;fill-opacity:1;stroke:#000000;stroke-width:0.36500001;stroke-miterlimit:4;stroke-dasharray:none;stroke-dashoffset:0;stroke-opacity:1"
           id="rect815-3-3"
           width="69.16964"
           height="10.961308"
           x="11.717264"
           y="38.464287" />
        <rect
           style="opacity:1;fill:#d8d8d8;fill-opacity:1;stroke:#000000;stroke-width:0.36500001;stroke-miterlimit:4;stroke-dasharray:none;stroke-dashoffset:0;stroke-opacity:1"
           id="rect815-1-4"
           width="69.16964"
           height="10.961308"
           x="11.717264"
           y="49.425594" />
        <rect
           style="opacity:1;fill:#d8d8d8;fill-opacity:1;stroke:#000000;stroke-width:0.36500001;stroke-miterlimit:4;stroke-dasharray:none;stroke-dashoffset:0;stroke-opacity:1"
           id="rect815-10-0"
           width="69.16964"
           height="10.961308"
           x="11.717264"
           y="60.386902" />
        <rect
           style="opacity:1;fill:#d8d8d8;fill-opacity:1;stroke:#000000;stroke-width:0.36500001;stroke-miterlimit:4;stroke-dasharray:none;stroke-dashoffset:0;stroke-opacity:1"
           id="rect815-34-3"
           width="69.16964"
           height="10.961308"
           x="11.717264"
           y="71.348206" />
        <text
           xml:space="preserve"
           style="font-style:normal;font-weight:normal;font-size:10.58333302px;line-height:1.25;font-family:sans-serif;letter-spacing:0px;word-spacing:0px;fill:#000000;fill-opacity:1;stroke:none;stroke-width:0.26458332"
           x="48.643047"
           y="34.092606"
           id="text861-9"><tspan
             sodipodi:role="line"
             id="tspan859-1"
             x="48.643047"
             y="34.092606"
             style="font-style:normal;font-variant:normal;font-weight:bold;font-stretch:normal;font-size:4.23333311px;font-family:sans-serif;-inkscape-font-specification:'sans-serif Bold';fill:#ffffff;fill-opacity:1;stroke-width:0.26458332">Code_INSEE</tspan></text>
        <text
           xml:space="preserve"
           style="font-style:normal;font-weight:normal;font-size:10.58333302px;line-height:1.25;font-family:sans-serif;letter-spacing:0px;word-spacing:0px;fill:#000000;fill-opacity:1;stroke:none;stroke-width:0.26458332"
           x="14.142493"
           y="34.055401"
           id="text861-3-9"><tspan
             sodipodi:role="line"
             id="tspan859-9-6"
             x="14.142493"
             y="34.055401"
             style="font-style:normal;font-variant:normal;font-weight:bold;font-stretch:normal;font-size:4.23333311px;font-family:sans-serif;-inkscape-font-specification:'sans-serif Bold';fill:#ffffff;fill-opacity:1;stroke-width:0.26458332">Nom_Comm</tspan></text>
        <path
           style="fill:none;stroke:#000000;stroke-width:0.26458332px;stroke-linecap:butt;stroke-linejoin:miter;stroke-opacity:1"
           d="M 45.607322,27.770247 V 82.576779"
           id="path881-9"
           inkscape:connector-curvature="0" />
        <text
           xml:space="preserve"
           style="font-style:normal;font-weight:normal;font-size:10.58333302px;line-height:1.25;font-family:sans-serif;letter-spacing:0px;word-spacing:0px;fill:#000000;fill-opacity:1;stroke:none;stroke-width:0.26458332"
           x="17.58621"
           y="45.52314"
           id="text861-3-1-33"><tspan
             sodipodi:role="line"
             id="tspan859-9-9-80"
             x="17.58621"
             y="45.52314"
             style="font-style:normal;font-variant:normal;font-weight:bold;font-stretch:normal;font-size:4.23333311px;font-family:sans-serif;-inkscape-font-specification:'sans-serif Bold';fill:#000000;fill-opacity:1;stroke-width:0.26458332">Pontoise</tspan></text>
        <text
           xml:space="preserve"
           style="font-style:normal;font-weight:normal;font-size:10.58333302px;line-height:1.25;font-family:sans-serif;letter-spacing:0px;word-spacing:0px;fill:#000000;fill-opacity:1;stroke:none;stroke-width:0.26458332"
           x="20.992722"
           y="56.838947"
           id="text861-3-1-3-5"><tspan
             sodipodi:role="line"
             id="tspan859-9-9-8-6"
             x="20.992722"
             y="56.838947"
             style="font-style:normal;font-variant:normal;font-weight:bold;font-stretch:normal;font-size:4.23333311px;font-family:sans-serif;-inkscape-font-specification:'sans-serif Bold';fill:#000000;fill-opacity:1;stroke-width:0.26458332">Zonza</tspan></text>
        <text
           xml:space="preserve"
           style="font-style:normal;font-weight:normal;font-size:10.58333302px;line-height:1.25;font-family:sans-serif;letter-spacing:0px;word-spacing:0px;fill:#000000;fill-opacity:1;stroke:none;stroke-width:0.26458332"
           x="17.65649"
           y="67.445755"
           id="text861-3-1-0-6"><tspan
             sodipodi:role="line"
             id="tspan859-9-9-5-4"
             x="17.65649"
             y="67.445755"
             style="font-style:normal;font-variant:normal;font-weight:bold;font-stretch:normal;font-size:4.23333311px;font-family:sans-serif;-inkscape-font-specification:'sans-serif Bold';fill:#000000;fill-opacity:1;stroke-width:0.26458332">Malakoff</tspan></text>
        <text
           xml:space="preserve"
           style="font-style:normal;font-weight:normal;font-size:10.58333302px;line-height:1.25;font-family:sans-serif;letter-spacing:0px;word-spacing:0px;fill:#000000;fill-opacity:1;stroke:none;stroke-width:0.26458332"
           x="20.421179"
           y="78.064957"
           id="text861-3-1-6-0"><tspan
             sodipodi:role="line"
             id="tspan859-9-9-6-0"
             x="20.421179"
             y="78.064957"
             style="font-style:normal;font-variant:normal;font-weight:bold;font-stretch:normal;font-size:4.23333311px;font-family:sans-serif;-inkscape-font-specification:'sans-serif Bold';fill:#000000;fill-opacity:1;stroke-width:0.26458332">Cérilly</tspan></text>
        <text
           xml:space="preserve"
           style="font-style:normal;font-weight:normal;font-size:10.58333302px;line-height:1.25;font-family:sans-serif;letter-spacing:0px;word-spacing:0px;fill:#000000;fill-opacity:1;stroke:none;stroke-width:0.26458332"
           x="55.22559"
           y="67.408546"
           id="text861-3-1-0-4-4"><tspan
             sodipodi:role="line"
             id="tspan859-9-9-5-0-6"
             x="55.22559"
             y="67.408546"
             style="font-style:normal;font-variant:normal;font-weight:bold;font-stretch:normal;font-size:4.23333311px;font-family:sans-serif;-inkscape-font-specification:'sans-serif Bold';fill:#000000;fill-opacity:1;stroke-width:0.26458332">92046</tspan></text>
        <text
           xml:space="preserve"
           style="font-style:normal;font-weight:normal;font-size:10.58333302px;line-height:1.25;font-family:sans-serif;letter-spacing:0px;word-spacing:0px;fill:#000000;fill-opacity:1;stroke:none;stroke-width:0.26458332"
           x="55.213188"
           y="45.485931"
           id="text861-3-1-0-4-0-2"><tspan
             sodipodi:role="line"
             id="tspan859-9-9-5-0-4-6"
             x="55.213188"
             y="45.485931"
             style="font-style:normal;font-variant:normal;font-weight:bold;font-stretch:normal;font-size:4.23333311px;font-family:sans-serif;-inkscape-font-specification:'sans-serif Bold';fill:#000000;fill-opacity:1;stroke-width:0.26458332">95500</tspan></text>
        <text
           xml:space="preserve"
           style="font-style:normal;font-weight:normal;font-size:10.58333302px;line-height:1.25;font-family:sans-serif;letter-spacing:0px;word-spacing:0px;fill:#000000;fill-opacity:1;stroke:none;stroke-width:0.26458332"
           x="55.072628"
           y="56.866852"
           id="text861-3-1-0-4-0-6-7"><tspan
             sodipodi:role="line"
             id="tspan859-9-9-5-0-4-2-5"
             x="55.072628"
             y="56.866852"
             style="font-style:normal;font-variant:normal;font-weight:bold;font-stretch:normal;font-size:4.23333311px;font-family:sans-serif;-inkscape-font-specification:'sans-serif Bold';fill:#000000;fill-opacity:1;stroke-width:0.26458332">2A362</tspan></text>
        <text
           xml:space="preserve"
           style="font-style:normal;font-weight:normal;font-size:10.58333302px;line-height:1.25;font-family:sans-serif;letter-spacing:0px;word-spacing:0px;fill:#000000;fill-opacity:1;stroke:none;stroke-width:0.26458332"
           x="55.251431"
           y="78.36985"
           id="text861-3-1-0-4-0-6-6-6"><tspan
             sodipodi:role="line"
             id="tspan859-9-9-5-0-4-2-7-9"
             x="55.251431"
             y="78.36985"
             style="font-style:normal;font-variant:normal;font-weight:bold;font-stretch:normal;font-size:4.23333311px;font-family:sans-serif;-inkscape-font-specification:'sans-serif Bold';fill:#000000;fill-opacity:1;stroke-width:0.26458332">03048</tspan></text>
      </g>
    </g>
    <text
       xml:space="preserve"
       style="font-style:normal;font-weight:normal;font-size:10.58333302px;line-height:1.25;font-family:sans-serif;letter-spacing:0px;word-spacing:0px;fill:#000000;fill-opacity:1;stroke:none;stroke-width:0.26458332"
       x="50.623669"
       y="24.385084"
       id="text1230"><tspan
         sodipodi:role="line"
         id="tspan1228"
         x="50.623669"
         y="24.385084"
         style="font-style:normal;font-variant:normal;font-weight:bold;font-stretch:normal;font-size:4.93888903px;font-family:sans-serif;-inkscape-font-specification:'sans-serif Bold';stroke-width:0.26458332">Couche A</tspan></text>
    <text
       xml:space="preserve"
       style="font-style:normal;font-weight:normal;font-size:10.58333302px;line-height:1.25;font-family:sans-serif;letter-spacing:0px;word-spacing:0px;fill:#000000;fill-opacity:1;stroke:none;stroke-width:0.26458332"
       x="138.74507"
       y="24.385084"
       id="text1230-8"><tspan
         sodipodi:role="line"
         id="tspan1228-2"
         x="138.74507"
         y="24.385084"
         style="font-style:normal;font-variant:normal;font-weight:bold;font-stretch:normal;font-size:4.93888903px;font-family:sans-serif;-inkscape-font-specification:'sans-serif Bold';stroke-width:0.26458332">Couche B</tspan></text>
    <text
       xml:space="preserve"
       style="font-style:normal;font-weight:normal;font-size:10.58333302px;line-height:1.25;font-family:sans-serif;letter-spacing:0px;word-spacing:0px;fill:#000000;fill-opacity:1;stroke:none;stroke-width:0.26458332"
       x="86.756622"
       y="154.33987"
       id="text1230-9"><tspan
         sodipodi:role="line"
         id="tspan1228-9"
         x="86.756622"
         y="154.33987"
         style="font-style:normal;font-variant:normal;font-weight:bold;font-stretch:normal;font-size:4.93888903px;font-family:sans-serif;-inkscape-font-specification:'sans-serif Bold';stroke-width:0.26458332">Couche jointe</tspan></text>
    <path
       style="fill:none;stroke:#a7a7a7;stroke-width:0.465;stroke-linecap:butt;stroke-linejoin:miter;stroke-miterlimit:4;stroke-dasharray:none;stroke-opacity:1;marker-start:url(#Arrow1Lstart);marker-end:url(#Arrow1Lend)"
       d="m 96.383929,32.416665 c 21.922611,0 22.111601,0 22.111601,0"
       id="path1258"
       inkscape:connector-curvature="0" />
    <path
       style="fill:none;stroke:#a7a7a7;stroke-width:0.465;stroke-linecap:butt;stroke-linejoin:miter;stroke-miterlimit:4;stroke-dasharray:none;stroke-opacity:1;marker-end:url(#Arrow1Lend-2)"
       d="m 107.62872,34.11756 -1e-5,54.995535"
       id="path1258-6"
       inkscape:connector-curvature="0"
       sodipodi:nodetypes="cc" />
  </g>
</svg>
