<?xml version="1.0" encoding="UTF-8" standalone="no"?>
<!-- Created with Inkscape (http://www.inkscape.org/) -->

<svg
   xmlns:dc="http://purl.org/dc/elements/1.1/"
   xmlns:cc="http://creativecommons.org/ns#"
   xmlns:rdf="http://www.w3.org/1999/02/22-rdf-syntax-ns#"
   xmlns:svg="http://www.w3.org/2000/svg"
   xmlns="http://www.w3.org/2000/svg"
   xmlns:xlink="http://www.w3.org/1999/xlink"
   xmlns:sodipodi="http://sodipodi.sourceforge.net/DTD/sodipodi-0.dtd"
   xmlns:inkscape="http://www.inkscape.org/namespaces/inkscape"
   width="1619.4763"
   height="547.81708"
   id="svg1901"
   sodipodi:version="0.32"
   inkscape:version="0.92.5 (2060ec1f9f, 2020-04-08)"
   sodipodi:docname="fig_fenetres_atmospheriques.svg"
   version="1.0"
   inkscape:output_extension="org.inkscape.output.svg.inkscape"
   inkscape:export-filename="/home/poulpe/Enseignement/fiches_focus_online/BriquesDeGeomatique/figures/fig_fenetres_atmospheriques.png"
   inkscape:export-xdpi="179"
   inkscape:export-ydpi="179">
  <defs
     id="defs1903">
    <linearGradient
       id="linearGradient3549">
      <stop
         style="stop-color:#c7e5ef;stop-opacity:1;"
         offset="0"
         id="stop3551" />
      <stop
         style="stop-color:#18bff3;stop-opacity:1;"
         offset="1"
         id="stop3553" />
    </linearGradient>
    <linearGradient
       id="linearGradient3303">
      <stop
         style="stop-color:#c39a30;stop-opacity:1;"
         offset="0"
         id="stop3305" />
      <stop
         style="stop-color:#908032;stop-opacity:1;"
         offset="1"
         id="stop3307" />
    </linearGradient>
    <linearGradient
       id="linearGradient3261">
      <stop
         style="stop-color:#ce519f;stop-opacity:0;"
         offset="0"
         id="stop3263" />
      <stop
         id="stop3269"
         offset="0.07951915"
         style="stop-color:#ce519f;stop-opacity:1;" />
      <stop
         style="stop-color:#2a3382;stop-opacity:1;"
         offset="0.26077995"
         id="stop3271" />
      <stop
         id="stop3273"
         offset="0.43553111"
         style="stop-color:#66cbd7;stop-opacity:1;" />
      <stop
         style="stop-color:#1ab24e;stop-opacity:1;"
         offset="0.59753352"
         id="stop3275" />
      <stop
         id="stop3277"
         offset="0.75523448"
         style="stop-color:#f8ea29;stop-opacity:1;" />
      <stop
         style="stop-color:#e3281f;stop-opacity:1;"
         offset="0.91285765"
         id="stop3279" />
      <stop
         style="stop-color:#e3281f;stop-opacity:0;"
         offset="1"
         id="stop3265" />
    </linearGradient>
    <inkscape:perspective
       sodipodi:type="inkscape:persp3d"
       inkscape:vp_x="0 : 526.18109 : 1"
       inkscape:vp_y="0 : 1000 : 0"
       inkscape:vp_z="744.09448 : 526.18109 : 1"
       inkscape:persp3d-origin="372.04724 : 350.78739 : 1"
       id="perspective7" />
    <inkscape:perspective
       id="perspective2444"
       inkscape:persp3d-origin="372.04724 : 350.78739 : 1"
       inkscape:vp_z="744.09448 : 526.18109 : 1"
       inkscape:vp_y="0 : 1000 : 0"
       inkscape:vp_x="0 : 526.18109 : 1"
       sodipodi:type="inkscape:persp3d" />
    <linearGradient
       inkscape:collect="always"
       xlink:href="#linearGradient3261"
       id="linearGradient3281"
       gradientUnits="userSpaceOnUse"
       x1="778.64282"
       y1="1488.3981"
       x2="821.71429"
       y2="1488.3981"
       gradientTransform="matrix(1,0,0,0.84347995,-18,-81.721342)" />
    <linearGradient
       inkscape:collect="always"
       xlink:href="#linearGradient3303"
       id="linearGradient3309"
       x1="536.98669"
       y1="1478.8436"
       x2="536.98669"
       y2="1752.5844"
       gradientUnits="userSpaceOnUse"
       gradientTransform="translate(-18,-354)" />
    <linearGradient
       inkscape:collect="always"
       xlink:href="#linearGradient3549"
       id="linearGradient3555"
       x1="533.22113"
       y1="479.93372"
       x2="533.22113"
       y2="1005.4363"
       gradientUnits="userSpaceOnUse"
       gradientTransform="matrix(0.9542657,0,0,0.85279919,232.66021,550.28387)" />
  </defs>
  <sodipodi:namedview
     id="base"
     pagecolor="#ffffff"
     bordercolor="#666666"
     borderopacity="1.0"
     inkscape:pageopacity="0.0"
     inkscape:pageshadow="2"
     inkscape:zoom="0.770002"
     inkscape:cx="809.73816"
     inkscape:cy="273.90854"
     inkscape:document-units="px"
     inkscape:current-layer="layer1"
     gridtolerance="10000"
     inkscape:window-width="1920"
     inkscape:window-height="1011"
     inkscape:window-x="0"
     inkscape:window-y="0"
     showgrid="false"
     fit-margin-top="0"
     fit-margin-left="0"
     fit-margin-right="0"
     fit-margin-bottom="0"
     inkscape:window-maximized="1" />
  <metadata
     id="metadata1906">
    <rdf:RDF>
      <cc:Work
         rdf:about="">
        <dc:format>image/svg+xml</dc:format>
        <dc:type
           rdf:resource="http://purl.org/dc/dcmitype/StillImage" />
        <dc:title />
      </cc:Work>
    </rdf:RDF>
  </metadata>
  <g
     inkscape:label="Taso 1"
     inkscape:groupmode="layer"
     id="layer1"
     style="opacity:1"
     transform="translate(-133.17592,-959.5003)">
    <path
       id="path3317"
       d="M 286.72205,1406.255 H 268.68319"
       style="opacity:1;fill:none;fill-opacity:1;fill-rule:evenodd;stroke:#000000;stroke-width:2;stroke-linecap:butt;stroke-linejoin:round;stroke-miterlimit:4;stroke-dasharray:none;stroke-dashoffset:0;stroke-opacity:1"
       inkscape:connector-curvature="0" />
    <path
       style="opacity:1;fill:none;fill-opacity:1;fill-rule:evenodd;stroke:#000000;stroke-width:2;stroke-linecap:butt;stroke-linejoin:round;stroke-miterlimit:4;stroke-dasharray:none;stroke-dashoffset:0;stroke-opacity:1"
       d="M 286.72205,1127.6836 H 268.68318"
       id="path3313"
       inkscape:connector-curvature="0" />
    <path
       style="opacity:1;fill:none;fill-opacity:1;fill-rule:evenodd;stroke:#000000;stroke-width:2;stroke-linecap:butt;stroke-linejoin:round;stroke-miterlimit:4;stroke-dasharray:none;stroke-dashoffset:0;stroke-opacity:1"
       d="M 286.72205,1266.9693 H 268.68319"
       id="path3319"
       inkscape:connector-curvature="0" />
    <rect
       style="opacity:1;fill:url(#linearGradient3555);fill-opacity:1;fill-rule:evenodd;stroke:none;stroke-width:1.84694254;stroke-linecap:round;stroke-linejoin:round;stroke-miterlimit:4;stroke-dasharray:none;stroke-dashoffset:0;stroke-opacity:1"
       id="rect3537"
       width="1467.5193"
       height="446.422"
       x="284.20953"
       y="960.42377" />
    <path
       style="opacity:1;fill:url(#linearGradient3281);fill-opacity:1;fill-rule:evenodd;stroke:none;stroke-width:1.83682334;stroke-linecap:butt;stroke-linejoin:round;stroke-miterlimit:4;stroke-dasharray:none;stroke-dashoffset:0;stroke-opacity:1"
       d="m 762.17856,961.84833 h 40.53572 v 380.31917 c -2.02381,1.6751 -4.58333,-0.582 -6.60714,9.1878 -2.3703,18.0515 -9.5678,45.0289 -24.64286,29.6725 -7.1841,-5.4488 -3.90891,-42.4054 -5.17857,-65.6709 -0.49367,-37.5633 0.33526,-76.019 -4.64286,-110.5562 z"
       id="path3259"
       sodipodi:nodetypes="cccccccc"
       inkscape:connector-curvature="0" />
    <rect
       y="960.42377"
       x="284.20953"
       height="446.422"
       width="1467.5193"
       id="rect3557"
       style="opacity:1;fill:none;fill-opacity:1;fill-rule:evenodd;stroke:#000000;stroke-width:1.84694242;stroke-linecap:round;stroke-linejoin:round;stroke-miterlimit:4;stroke-dasharray:none;stroke-dashoffset:0;stroke-opacity:1" />
    <path
       style="opacity:1;fill:#ffffff;fill-opacity:1;fill-rule:evenodd;stroke:#000000;stroke-width:2;stroke-linecap:round;stroke-linejoin:round;stroke-miterlimit:4;stroke-dasharray:none;stroke-dashoffset:0;stroke-opacity:1"
       d="m 1339.7153,1383.7534 c 13.823,6.9214 30.7159,14.7708 33.5875,22.9809 h 17.4252 c 4.1263,-10.584 20.2542,-16.1695 31.3147,-23.7385 z"
       id="path3238"
       sodipodi:nodetypes="ccccc"
       inkscape:connector-curvature="0" />
    <ellipse
       style="opacity:1;fill:#ededed;fill-opacity:1;fill-rule:evenodd;stroke:#000000;stroke-width:1.04690802;stroke-linecap:round;stroke-linejoin:round;stroke-miterlimit:4;stroke-dasharray:none;stroke-dashoffset:0;stroke-opacity:1"
       id="path3228"
       transform="matrix(1.7517985,0,0,2.0833333,-730.93025,-630.94752)"
       cx="1205.8696"
       cy="959.6015"
       rx="35.102802"
       ry="10.606602" />
    <path
       style="opacity:1;fill:none;fill-opacity:1;fill-rule:evenodd;stroke:#000000;stroke-width:2;stroke-linecap:round;stroke-linejoin:round;stroke-miterlimit:4;stroke-dasharray:none;stroke-dashoffset:0;stroke-opacity:1"
       d="m 1333.9069,1382.2381 50.8233,-63.0714 44.3836,62.5664"
       id="path3230"
       sodipodi:nodetypes="ccc"
       inkscape:connector-curvature="0" />
    <path
       style="opacity:1;fill:none;fill-opacity:1;fill-rule:evenodd;stroke:#000000;stroke-width:2;stroke-linecap:round;stroke-linejoin:round;stroke-miterlimit:4;stroke-dasharray:none;stroke-dashoffset:0;stroke-opacity:1"
       d="m 1384.6671,1320.1138 0.6945,25.5063"
       id="path3232"
       sodipodi:nodetypes="cc"
       inkscape:connector-curvature="0" />
    <circle
       style="opacity:1;fill:#000000;fill-opacity:1;fill-rule:evenodd;stroke:none;stroke-width:2;stroke-linecap:round;stroke-linejoin:round;stroke-miterlimit:4;stroke-dasharray:none;stroke-dashoffset:0;stroke-opacity:1"
       id="path3234"
       transform="matrix(1.0851064,0,0,1.0851064,55.575005,324.28479)"
       cx="1225.3151"
       cy="918.24835"
       r="2.9673231" />
    <ellipse
       style="opacity:1;fill:#000000;fill-opacity:1;fill-rule:evenodd;stroke:none;stroke-width:2;stroke-linecap:round;stroke-linejoin:round;stroke-miterlimit:4;stroke-dasharray:none;stroke-dashoffset:0;stroke-opacity:1"
       id="path3236"
       transform="matrix(1.84375,0,0,2.0425532,-868.71492,-601.41669)"
       cx="1220.7694"
       cy="964.17877"
       rx="2.0203052"
       ry="1.4836615" />
    <path
       sodipodi:nodetypes="cccscccccccccccccccccccccscccccscccccccccccc"
       id="path3216"
       d="m 1751.3525,1128.6899 -1.6674,-0.5576 -191.2209,-0.5155 c -6.478,-0.1398 -19.7703,18.2703 -20.8928,42.2679 -2.4283,75.6178 -7.3948,153.6781 -15.5357,234.7926 l -260.5358,1.0309 c -11.1633,-13.3708 -17.1703,-31.7031 -24.2857,-48.9687 -7.8595,-15.7217 -2.9331,-80.9276 -3.5714,-86.5975 -4.0691,-35.4994 -9.7156,-39.1416 -21.4286,0.5154 -6.8594,17.6891 -11.3107,3.5308 -12.284,-19.5998 -1.0823,-25.7204 1.629,-62.5953 -0.5731,-80.3997 -4.4079,-33.221 -27.9093,-8.426 -35,50.5151 -1.9976,15.2444 -7.0572,21.5107 -7.8571,0 -1.6312,-51.6385 -11.4648,-93.8139 -32.1429,-93.8139 l -130.7143,-0.5155 c -15.39912,0 -18.58913,3.6503 -25.67836,26.9765 -4.39864,14.4732 -12.76273,47.9925 -14.14302,60.6519 -1.13541,11.6939 -4.24558,21.4036 -5.89286,3.0928 -1.30151,-16.0527 -0.338,-33.3614 -3.75,-48.1956 -2.40396,-17.0484 -4.56001,-14.9889 -5.53571,2.3196 l -6.07143,127.319 c -0.0697,66.6789 -19.04344,63.8764 -32.67857,59.7935 -2.97891,-57.9036 -1.4881,-116.838 -2.32143,-174.7415 0.30772,-8.7239 -3.09352,-31.6361 -8.03572,-0.5154 -3.04844,32.9895 -5.45719,65.979 -11.60714,98.9685 -2.00177,10.414 -5.73975,27.9227 -6.78571,3.6083 -0.47989,-33.6768 -3.04642,-67.3537 -5.35714,-101.0304 -1.3829,-18.4872 -4.70286,-9.7203 -6.42857,-4.1238 -1.99595,9.9181 -4.03676,19.7282 -4.64286,32.9896 l -4.64286,136.3396 c -2.25963,-57.5039 -3.77998,-114.7616 -4.64286,-172.9375 -0.61432,-17.6774 -4.62841,-20.3282 -6.42857,-1.0308 -3.26163,54.2952 -4.97821,108.5905 -10.35714,162.8858 l -7.67857,-55.4122 c -3.56774,24.4115 -12.34522,115.8575 -16.60714,65.7215 -1.36887,-19.1474 -5.05169,-25.6601 -11.78572,15.4637 -3.26623,30.2403 -26.09022,25.9675 -25.71428,-3.8658 0.57579,-51.9338 -1.67459,-112.618 -1.73541,-144.5955 -0.13415,-70.523 -23.17377,-90.881 -38.62173,-89.4241 l -359.64286,0.7732 h -82.62433 v 278.6073 H 1751.3525 Z"
       style="opacity:1;fill:url(#linearGradient3309);fill-opacity:1;fill-rule:evenodd;stroke:#000000;stroke-width:2;stroke-linecap:round;stroke-linejoin:round;stroke-miterlimit:4;stroke-dasharray:none;stroke-dashoffset:0;stroke-opacity:1"
       inkscape:connector-curvature="0" />
    <path
       id="path3218"
       d="m 410.79661,1425.6076 v -19.5911"
       style="opacity:1;fill:none;fill-opacity:1;fill-rule:evenodd;stroke:#000000;stroke-width:2;stroke-linecap:butt;stroke-linejoin:round;stroke-miterlimit:4;stroke-dasharray:none;stroke-dashoffset:0;stroke-opacity:1"
       inkscape:connector-curvature="0" />
    <path
       style="opacity:1;fill:none;fill-opacity:1;fill-rule:evenodd;stroke:#000000;stroke-width:2;stroke-linecap:butt;stroke-linejoin:round;stroke-miterlimit:4;stroke-dasharray:none;stroke-dashoffset:0;stroke-opacity:1"
       d="m 510.17037,1425.6076 v -19.5911"
       id="path3220"
       inkscape:connector-curvature="0" />
    <path
       id="path3223"
       d="m 609.92293,1425.6076 v -19.5911"
       style="opacity:1;fill:none;fill-opacity:1;fill-rule:evenodd;stroke:#000000;stroke-width:2;stroke-linecap:butt;stroke-linejoin:round;stroke-miterlimit:4;stroke-dasharray:none;stroke-dashoffset:0;stroke-opacity:1"
       inkscape:connector-curvature="0" />
    <path
       style="opacity:1;fill:none;fill-opacity:1;fill-rule:evenodd;stroke:#000000;stroke-width:2;stroke-linecap:butt;stroke-linejoin:round;stroke-miterlimit:4;stroke-dasharray:none;stroke-dashoffset:0;stroke-opacity:1"
       d="m 709.92803,1425.6076 v -19.5911"
       id="path3225"
       inkscape:connector-curvature="0" />
    <path
       id="path3227"
       d="m 809.30178,1425.6076 v -19.5911"
       style="opacity:1;fill:none;fill-opacity:1;fill-rule:evenodd;stroke:#000000;stroke-width:2;stroke-linecap:butt;stroke-linejoin:round;stroke-miterlimit:4;stroke-dasharray:none;stroke-dashoffset:0;stroke-opacity:1"
       inkscape:connector-curvature="0" />
    <path
       style="opacity:1;fill:none;fill-opacity:1;fill-rule:evenodd;stroke:#000000;stroke-width:2;stroke-linecap:butt;stroke-linejoin:round;stroke-miterlimit:4;stroke-dasharray:none;stroke-dashoffset:0;stroke-opacity:1"
       d="m 909.18061,1425.6076 v -19.5911"
       id="path3229"
       inkscape:connector-curvature="0" />
    <path
       id="path3231"
       d="m 1008.4281,1425.6076 v -19.5911"
       style="opacity:1;fill:none;fill-opacity:1;fill-rule:evenodd;stroke:#000000;stroke-width:2;stroke-linecap:butt;stroke-linejoin:round;stroke-miterlimit:4;stroke-dasharray:none;stroke-dashoffset:0;stroke-opacity:1"
       inkscape:connector-curvature="0" />
    <path
       style="opacity:1;fill:none;fill-opacity:1;fill-rule:evenodd;stroke:#000000;stroke-width:2;stroke-linecap:butt;stroke-linejoin:round;stroke-miterlimit:4;stroke-dasharray:none;stroke-dashoffset:0;stroke-opacity:1"
       d="m 1108.3069,1425.6076 v -19.5911"
       id="path3233"
       inkscape:connector-curvature="0" />
    <path
       id="path3235"
       d="m 1208.0595,1425.6076 v -19.5911"
       style="opacity:1;fill:none;fill-opacity:1;fill-rule:evenodd;stroke:#000000;stroke-width:2;stroke-linecap:butt;stroke-linejoin:round;stroke-miterlimit:4;stroke-dasharray:none;stroke-dashoffset:0;stroke-opacity:1"
       inkscape:connector-curvature="0" />
    <path
       style="opacity:1;fill:none;fill-opacity:1;fill-rule:evenodd;stroke:#000000;stroke-width:2;stroke-linecap:butt;stroke-linejoin:round;stroke-miterlimit:4;stroke-dasharray:none;stroke-dashoffset:0;stroke-opacity:1"
       d="m 1307.6858,1425.6076 v -19.5911"
       id="path3237"
       inkscape:connector-curvature="0" />
    <path
       id="path3239"
       d="m 1407.3121,1425.6076 v -19.5911"
       style="opacity:1;fill:none;fill-opacity:1;fill-rule:evenodd;stroke:#000000;stroke-width:2;stroke-linecap:butt;stroke-linejoin:round;stroke-miterlimit:4;stroke-dasharray:none;stroke-dashoffset:0;stroke-opacity:1"
       inkscape:connector-curvature="0" />
    <path
       style="opacity:1;fill:none;fill-opacity:1;fill-rule:evenodd;stroke:#000000;stroke-width:2;stroke-linecap:butt;stroke-linejoin:round;stroke-miterlimit:4;stroke-dasharray:none;stroke-dashoffset:0;stroke-opacity:1"
       d="m 1506.8121,1425.6076 v -19.5911"
       id="path3241"
       inkscape:connector-curvature="0" />
    <path
       id="path3243"
       d="m 1606.4384,1425.6076 v -19.5911"
       style="opacity:1;fill:none;fill-opacity:1;fill-rule:evenodd;stroke:#000000;stroke-width:2;stroke-linecap:butt;stroke-linejoin:round;stroke-miterlimit:4;stroke-dasharray:none;stroke-dashoffset:0;stroke-opacity:1"
       inkscape:connector-curvature="0" />
    <path
       style="opacity:1;fill:none;fill-opacity:1;fill-rule:evenodd;stroke:#000000;stroke-width:2;stroke-linecap:butt;stroke-linejoin:round;stroke-miterlimit:4;stroke-dasharray:none;stroke-dashoffset:0;stroke-opacity:1"
       d="m 1706.3172,1425.6076 v -19.5911"
       id="path3245"
       inkscape:connector-curvature="0" />
    <switch
       style="font-style:normal;font-variant:normal;font-weight:normal;font-stretch:normal;font-size:22px;line-height:129.99999523%;font-family:Sans;-inkscape-font-specification:Sans;text-align:start;writing-mode:lr-tb;text-anchor:start;fill:#000000;fill-opacity:1;stroke:none;stroke-width:1px;stroke-linecap:butt;stroke-linejoin:miter;stroke-opacity:1"
       id="switch130"
       transform="translate(0,70.895692)">
      <text
         xml:space="preserve"
         style="font-style:normal;font-variant:normal;font-weight:normal;font-stretch:normal;line-height:0%;font-family:sans-serif;-inkscape-font-specification:Sans;text-align:start;writing-mode:lr-tb;text-anchor:start;fill:#000000;fill-opacity:1;stroke:none;stroke-width:1px;stroke-linecap:butt;stroke-linejoin:miter;stroke-opacity:1"
         x="311.32672"
         y="998.69537"
         id="text3403-fr"
         systemLanguage="fr"><tspan
           sodipodi:role="line"
           id="tspan3405-fr"
           x="311.32672"
           y="998.69537"
           style="font-size:22px;line-height:1.29999995;font-family:sans-serif">Rayons gamma, rayons X et rayons UV</tspan><tspan
           sodipodi:role="line"
           x="311.32672"
           y="1027.2954"
           id="tspan3409-fr"
           style="font-size:22px;line-height:1.29999995;font-family:sans-serif">bloqués par l'atmosphère supérieure</tspan></text>
      <text
         xml:space="preserve"
         style="font-style:normal;font-variant:normal;font-weight:normal;font-stretch:normal;line-height:0%;font-family:sans-serif;-inkscape-font-specification:Sans;text-align:start;writing-mode:lr-tb;text-anchor:start;fill:#000000;fill-opacity:1;stroke:none;stroke-width:1px;stroke-linecap:butt;stroke-linejoin:miter;stroke-opacity:1"
         x="311.32672"
         y="998.69537"
         id="text3403-es"
         systemLanguage="es"><tspan
           sodipodi:role="line"
           id="tspan3405-es"
           x="311.32672"
           y="998.69537"
           style="font-size:22px;line-height:1.29999995;font-family:sans-serif">Rayos gamma, rayos X y ultravioleta</tspan><tspan
           sodipodi:role="line"
           x="311.32672"
           y="1027.2954"
           id="tspan3407-es"
           style="font-size:22px;line-height:1.29999995;font-family:sans-serif">luz absorbida por la atmósfera superior</tspan><tspan
           sodipodi:role="line"
           x="311.32672"
           y="1055.8954"
           id="tspan3409-es"
           style="font-size:22px;line-height:1.29999995;font-family:sans-serif">(mejor observadas desde el espacio)</tspan></text>
      <text
         xml:space="preserve"
         style="font-style:normal;font-variant:normal;font-weight:normal;font-stretch:normal;line-height:0%;font-family:sans-serif;-inkscape-font-specification:Sans;text-align:start;writing-mode:lr-tb;text-anchor:start;fill:#000000;fill-opacity:1;stroke:none;stroke-width:1px;stroke-linecap:butt;stroke-linejoin:miter;stroke-opacity:1"
         x="311.32672"
         y="998.69537"
         id="text3403"><tspan
           sodipodi:role="line"
           id="tspan3405"
           x="311.32672"
           y="998.69537"
           style="font-size:22px;line-height:1.29999995;font-family:sans-serif">Gamma rays, X-rays and ultraviolet</tspan><tspan
           sodipodi:role="line"
           x="311.32672"
           y="1027.2954"
           id="tspan3407"
           style="font-size:22px;line-height:1.29999995;font-family:sans-serif">light blocked by the upper atmosphere</tspan><tspan
           sodipodi:role="line"
           x="311.32672"
           y="1055.8954"
           id="tspan3409"
           style="font-size:22px;line-height:1.29999995;font-family:sans-serif">(best observed from space).</tspan></text>
    </switch>
    <switch
       style="font-style:normal;font-variant:normal;font-weight:normal;font-stretch:normal;font-size:22px;line-height:129.99999523%;font-family:Sans;-inkscape-font-specification:Sans;text-align:start;writing-mode:lr-tb;text-anchor:start;fill:#000000;fill-opacity:1;stroke:none;stroke-width:1px;stroke-linecap:butt;stroke-linejoin:miter;stroke-opacity:1"
       id="switch153"
       transform="translate(0,23.319999)">
      <text
         id="text3411-fr"
         y="960.47107"
         x="813.39807"
         style="font-style:normal;font-variant:normal;font-weight:normal;font-stretch:normal;line-height:0%;font-family:sans-serif;-inkscape-font-specification:Sans;text-align:start;writing-mode:lr-tb;text-anchor:start;fill:#000000;fill-opacity:1;stroke:none;stroke-width:1px;stroke-linecap:butt;stroke-linejoin:miter;stroke-opacity:1"
         xml:space="preserve"
         systemLanguage="fr"><tspan
           id="tspan3417-fr"
           y="960.47107"
           x="813.39807"
           sodipodi:role="line"
           style="font-size:22px;line-height:1.29999995;font-family:sans-serif">Lumière visible</tspan><tspan
           y="989.07104"
           x="813.39807"
           sodipodi:role="line"
           id="tspan3424-fr"
           style="font-size:22px;line-height:1.29999995;font-family:sans-serif">depuis la Terre</tspan><tspan
           y="1017.6711"
           x="813.39807"
           sodipodi:role="line"
           id="tspan3426-fr"
           style="font-size:22px;line-height:1.29999995;font-family:sans-serif">partiellement </tspan><tspan
           y="1046.2711"
           x="813.39807"
           sodipodi:role="line"
           id="tspan3428-fr"
           style="font-size:22px;line-height:1.29999995;font-family:sans-serif">altérée par</tspan><tspan
           y="1074.8711"
           x="813.39807"
           sodipodi:role="line"
           id="tspan3430-fr"
           style="font-size:22px;line-height:1.29999995;font-family:sans-serif">l'atmosphère</tspan><tspan
           y="1089.171"
           x="813.39807"
           sodipodi:role="line"
           id="tspan3432-fr"
           style="font-size:22px;line-height:1.29999995;font-family:sans-serif" /></text>
      <text
         id="text3411-es"
         y="960.47107"
         x="813.39807"
         style="font-style:normal;font-variant:normal;font-weight:normal;font-stretch:normal;line-height:0%;font-family:sans-serif;-inkscape-font-specification:Sans;text-align:start;writing-mode:lr-tb;text-anchor:start;fill:#000000;fill-opacity:1;stroke:none;stroke-width:1px;stroke-linecap:butt;stroke-linejoin:miter;stroke-opacity:1"
         xml:space="preserve"
         systemLanguage="es"><tspan
           id="tspan3417-es"
           y="960.47107"
           x="813.39807"
           sodipodi:role="line"
           style="font-size:22px;line-height:1.29999995;font-family:sans-serif">Luz Visible</tspan><tspan
           y="989.07104"
           x="813.39807"
           sodipodi:role="line"
           id="tspan3424-es"
           style="font-size:22px;line-height:1.29999995;font-family:sans-serif">observable</tspan><tspan
           y="1017.6711"
           x="813.39807"
           sodipodi:role="line"
           id="tspan3426-es"
           style="font-size:22px;line-height:1.29999995;font-family:sans-serif">desde la Tierra,</tspan><tspan
           y="1046.2711"
           x="813.39807"
           sodipodi:role="line"
           id="tspan3428-es"
           style="font-size:22px;line-height:1.29999995;font-family:sans-serif">con un poco</tspan><tspan
           y="1074.8711"
           x="813.39807"
           sodipodi:role="line"
           id="tspan3430-es"
           style="font-size:22px;line-height:1.29999995;font-family:sans-serif">de dispersión</tspan><tspan
           y="1103.4711"
           x="813.39807"
           sodipodi:role="line"
           id="tspan3432-es"
           style="font-size:22px;line-height:1.29999995;font-family:sans-serif">atmosférica</tspan></text>
      <text
         id="text3411"
         y="960.47107"
         x="813.39807"
         style="font-style:normal;font-variant:normal;font-weight:normal;font-stretch:normal;line-height:0%;font-family:sans-serif;-inkscape-font-specification:Sans;text-align:start;writing-mode:lr-tb;text-anchor:start;fill:#000000;fill-opacity:1;stroke:none;stroke-width:1px;stroke-linecap:butt;stroke-linejoin:miter;stroke-opacity:1"
         xml:space="preserve"><tspan
           id="tspan3417"
           y="960.47107"
           x="813.39807"
           sodipodi:role="line"
           style="font-size:22px;line-height:1.29999995;font-family:sans-serif">Visible light</tspan><tspan
           y="989.07104"
           x="813.39807"
           sodipodi:role="line"
           id="tspan3424"
           style="font-size:22px;line-height:1.29999995;font-family:sans-serif">observable</tspan><tspan
           y="1017.6711"
           x="813.39807"
           sodipodi:role="line"
           id="tspan3426"
           style="font-size:22px;line-height:1.29999995;font-family:sans-serif">from Earth,</tspan><tspan
           y="1046.2711"
           x="813.39807"
           sodipodi:role="line"
           id="tspan3428"
           style="font-size:22px;line-height:1.29999995;font-family:sans-serif">with some</tspan><tspan
           y="1074.8711"
           x="813.39807"
           sodipodi:role="line"
           id="tspan3430"
           style="font-size:22px;line-height:1.29999995;font-family:sans-serif">atmospheric</tspan><tspan
           y="1103.4711"
           x="813.39807"
           sodipodi:role="line"
           id="tspan3432"
           style="font-size:22px;line-height:1.29999995;font-family:sans-serif">distortion.</tspan></text>
    </switch>
    <switch
       style="font-style:normal;font-variant:normal;font-weight:normal;font-stretch:normal;font-size:22px;line-height:129.99999523%;font-family:Sans;-inkscape-font-specification:Sans;text-align:start;writing-mode:lr-tb;text-anchor:start;fill:#000000;fill-opacity:1;stroke:none;stroke-width:1px;stroke-linecap:butt;stroke-linejoin:miter;stroke-opacity:1"
       id="switch179"
       transform="translate(0,70.109451)">
      <text
         xml:space="preserve"
         style="font-style:normal;font-variant:normal;font-weight:normal;font-stretch:normal;line-height:0%;font-family:sans-serif;-inkscape-font-specification:Sans;text-align:start;writing-mode:lr-tb;text-anchor:start;fill:#000000;fill-opacity:1;stroke:none;stroke-width:1px;stroke-linecap:butt;stroke-linejoin:miter;stroke-opacity:1"
         x="989.22943"
         y="942.28162"
         id="text3434-fr"
         systemLanguage="fr"><tspan
           id="tspan3446-fr"
           sodipodi:role="line"
           x="989.22943"
           y="942.28162"
           style="font-size:22px;line-height:1.29999995;font-family:sans-serif">Plus grande part du</tspan><tspan
           sodipodi:role="line"
           x="989.22943"
           y="970.88159"
           id="tspan3468-fr"
           style="font-size:22px;line-height:1.29999995;font-family:sans-serif">spectre infrarouge</tspan><tspan
           sodipodi:role="line"
           x="989.22943"
           y="999.48163"
           id="tspan3470-fr"
           style="font-size:22px;line-height:1.29999995;font-family:sans-serif">absorbée par les</tspan><tspan
           sodipodi:role="line"
           x="989.22943"
           y="1028.0817"
           id="tspan3472-fr"
           style="font-size:22px;line-height:1.29999995;font-family:sans-serif">gaz atmosphériques</tspan><tspan
           sodipodi:role="line"
           x="989.22943"
           y="1042.3816"
           id="tspan3478-fr"
           style="font-size:22px;line-height:1.29999995;font-family:sans-serif" /></text>
      <text
         xml:space="preserve"
         style="font-style:normal;font-variant:normal;font-weight:normal;font-stretch:normal;line-height:0%;font-family:sans-serif;-inkscape-font-specification:Sans;text-align:start;writing-mode:lr-tb;text-anchor:start;fill:#000000;fill-opacity:1;stroke:none;stroke-width:1px;stroke-linecap:butt;stroke-linejoin:miter;stroke-opacity:1"
         x="989.22943"
         y="942.28162"
         id="text3434-es"
         systemLanguage="es"><tspan
           id="tspan3446-es"
           sodipodi:role="line"
           x="989.22943"
           y="942.28162"
           style="font-size:22px;line-height:1.29999995;font-family:sans-serif">Mayoría del</tspan><tspan
           sodipodi:role="line"
           x="989.22943"
           y="970.88159"
           id="tspan3468-es"
           style="font-size:22px;line-height:1.29999995;font-family:sans-serif">espectro infrarrojo</tspan><tspan
           sodipodi:role="line"
           x="989.22943"
           y="999.48163"
           id="tspan3470-es"
           style="font-size:22px;line-height:1.29999995;font-family:sans-serif">absorbido por</tspan><tspan
           sodipodi:role="line"
           x="989.22943"
           y="1028.0817"
           id="tspan3472-es"
           style="font-size:22px;line-height:1.29999995;font-family:sans-serif">gases atmosféricos</tspan><tspan
           sodipodi:role="line"
           x="989.22943"
           y="1056.6816"
           id="tspan3474-es"
           style="font-size:22px;line-height:1.29999995;font-family:sans-serif">(mejor observadas</tspan><tspan
           sodipodi:role="line"
           x="989.22943"
           y="1085.2816"
           id="tspan3476-es"
           style="font-size:22px;line-height:1.29999995;font-family:sans-serif">desde el espacio)</tspan><tspan
           sodipodi:role="line"
           x="989.22943"
           y="1113.8816"
           id="tspan3478-es"
           style="font-size:22px;line-height:1.29999995;font-family:sans-serif">from space).</tspan></text>
      <text
         xml:space="preserve"
         style="font-style:normal;font-variant:normal;font-weight:normal;font-stretch:normal;line-height:0%;font-family:sans-serif;-inkscape-font-specification:Sans;text-align:start;writing-mode:lr-tb;text-anchor:start;fill:#000000;fill-opacity:1;stroke:none;stroke-width:1px;stroke-linecap:butt;stroke-linejoin:miter;stroke-opacity:1"
         x="989.22943"
         y="942.28162"
         id="text3434"><tspan
           id="tspan3446"
           sodipodi:role="line"
           x="989.22943"
           y="942.28162"
           style="font-size:22px;line-height:1.29999995;font-family:sans-serif">Most of the</tspan><tspan
           sodipodi:role="line"
           x="989.22943"
           y="970.88159"
           id="tspan3468"
           style="font-size:22px;line-height:1.29999995;font-family:sans-serif">infrared spectrum</tspan><tspan
           sodipodi:role="line"
           x="989.22943"
           y="999.48163"
           id="tspan3470"
           style="font-size:22px;line-height:1.29999995;font-family:sans-serif">absorbed by</tspan><tspan
           sodipodi:role="line"
           x="989.22943"
           y="1028.0817"
           id="tspan3472"
           style="font-size:22px;line-height:1.29999995;font-family:sans-serif">atmospheric</tspan><tspan
           sodipodi:role="line"
           x="989.22943"
           y="1056.6816"
           id="tspan3474"
           style="font-size:22px;line-height:1.29999995;font-family:sans-serif">gases (best</tspan><tspan
           sodipodi:role="line"
           x="989.22943"
           y="1085.2816"
           id="tspan3476"
           style="font-size:22px;line-height:1.29999995;font-family:sans-serif">observed</tspan><tspan
           sodipodi:role="line"
           x="989.22943"
           y="1113.8816"
           id="tspan3478"
           style="font-size:22px;line-height:1.29999995;font-family:sans-serif">from space).</tspan></text>
    </switch>
    <switch
       style="font-style:normal;font-variant:normal;font-weight:normal;font-stretch:normal;font-size:22px;line-height:129.99999523%;font-family:Sans;-inkscape-font-specification:Sans;text-align:start;writing-mode:lr-tb;text-anchor:start;fill:#000000;fill-opacity:1;stroke:none;stroke-width:1px;stroke-linecap:butt;stroke-linejoin:miter;stroke-opacity:1"
       id="switch190"
       transform="translate(0,89.717896)">
      <text
         id="text3480-fr"
         y="979.87317"
         x="1241.3389"
         style="font-style:normal;font-variant:normal;font-weight:normal;font-stretch:normal;line-height:0%;font-family:sans-serif;-inkscape-font-specification:Sans;text-align:start;writing-mode:lr-tb;text-anchor:start;fill:#000000;fill-opacity:1;stroke:none;stroke-width:1px;stroke-linecap:butt;stroke-linejoin:miter;stroke-opacity:1"
         xml:space="preserve"
         systemLanguage="fr"><tspan
           id="tspan3494-fr"
           y="979.87317"
           x="1241.3389"
           sodipodi:role="line"
           style="font-size:22px;line-height:1.29999995;font-family:sans-serif">Ondes radio observables</tspan><tspan
           y="1008.4731"
           x="1241.3389"
           sodipodi:role="line"
           id="tspan3523-fr"
           style="font-size:22px;line-height:1.29999995;font-family:sans-serif">depuis la Terre</tspan></text>
      <text
         id="text3480-es"
         y="979.87317"
         x="1241.3389"
         style="font-style:normal;font-variant:normal;font-weight:normal;font-stretch:normal;line-height:0%;font-family:sans-serif;-inkscape-font-specification:Sans;text-align:start;writing-mode:lr-tb;text-anchor:start;fill:#000000;fill-opacity:1;stroke:none;stroke-width:1px;stroke-linecap:butt;stroke-linejoin:miter;stroke-opacity:1"
         xml:space="preserve"
         systemLanguage="es"><tspan
           id="tspan3494-es"
           y="979.87317"
           x="1241.3389"
           sodipodi:role="line"
           style="font-size:22px;line-height:1.29999995;font-family:sans-serif">Ondas de radio</tspan><tspan
           y="1008.4731"
           x="1241.3389"
           sodipodi:role="line"
           id="tspan3523-es"
           style="font-size:22px;line-height:1.29999995;font-family:sans-serif">observables desde la Tierra</tspan></text>
      <text
         id="text3480"
         y="979.87317"
         x="1241.3389"
         style="font-style:normal;font-variant:normal;font-weight:normal;font-stretch:normal;line-height:0%;font-family:sans-serif;-inkscape-font-specification:Sans;text-align:start;writing-mode:lr-tb;text-anchor:start;fill:#000000;fill-opacity:1;stroke:none;stroke-width:1px;stroke-linecap:butt;stroke-linejoin:miter;stroke-opacity:1"
         xml:space="preserve"><tspan
           id="tspan3494"
           y="979.87317"
           x="1241.3389"
           sodipodi:role="line"
           style="font-size:22px;line-height:1.29999995;font-family:sans-serif">Radio waves observable</tspan><tspan
           y="1008.4731"
           x="1241.3389"
           sodipodi:role="line"
           id="tspan3523"
           style="font-size:22px;line-height:1.29999995;font-family:sans-serif">from Earth.</tspan></text>
    </switch>
    <switch
       style="font-style:normal;font-variant:normal;font-weight:normal;font-stretch:normal;font-size:22px;line-height:129.99999523%;font-family:Sans;-inkscape-font-specification:Sans;text-align:start;writing-mode:lr-tb;text-anchor:start;fill:#000000;fill-opacity:1;stroke:none;stroke-width:1px;stroke-linecap:butt;stroke-linejoin:miter;stroke-opacity:1"
       id="switch204"
       transform="translate(0,81.732643)">
      <text
         xml:space="preserve"
         style="font-style:normal;font-variant:normal;font-weight:normal;font-stretch:normal;line-height:0%;font-family:sans-serif;-inkscape-font-specification:Sans;text-align:start;writing-mode:lr-tb;text-anchor:start;fill:#000000;fill-opacity:1;stroke:none;stroke-width:1px;stroke-linecap:butt;stroke-linejoin:miter;stroke-opacity:1"
         x="1555.4099"
         y="959.25842"
         id="text3525-fr"
         systemLanguage="fr"><tspan
           id="tspan3529-fr"
           sodipodi:role="line"
           x="1555.4099"
           y="959.25842"
           style="font-size:22px;line-height:1.29999995;font-family:sans-serif">Ondes longues</tspan><tspan
           sodipodi:role="line"
           x="1555.4099"
           y="987.8584"
           id="tspan3533-fr"
           style="font-size:22px;line-height:1.29999995;font-family:sans-serif">ondes radio</tspan><tspan
           sodipodi:role="line"
           x="1555.4099"
           y="1016.4584"
           id="tspan3535-fr"
           style="font-size:22px;line-height:1.29999995;font-family:sans-serif">bloquées</tspan></text>
      <text
         xml:space="preserve"
         style="font-style:normal;font-variant:normal;font-weight:normal;font-stretch:normal;line-height:0%;font-family:sans-serif;-inkscape-font-specification:Sans;text-align:start;writing-mode:lr-tb;text-anchor:start;fill:#000000;fill-opacity:1;stroke:none;stroke-width:1px;stroke-linecap:butt;stroke-linejoin:miter;stroke-opacity:1"
         x="1555.4099"
         y="959.25842"
         id="text3525-es"
         systemLanguage="es"><tspan
           id="tspan3529-es"
           sodipodi:role="line"
           x="1555.4099"
           y="959.25842"
           style="font-size:22px;line-height:1.29999995;font-family:sans-serif">Ondas de</tspan><tspan
           sodipodi:role="line"
           x="1555.4099"
           y="987.8584"
           id="tspan3533-es"
           style="font-size:22px;line-height:1.29999995;font-family:sans-serif">radio largas</tspan><tspan
           sodipodi:role="line"
           x="1555.4099"
           y="1016.4584"
           id="tspan3535-es"
           style="font-size:22px;line-height:1.29999995;font-family:sans-serif">bloqueadas</tspan></text>
      <text
         xml:space="preserve"
         style="font-style:normal;font-variant:normal;font-weight:normal;font-stretch:normal;line-height:0%;font-family:sans-serif;-inkscape-font-specification:Sans;text-align:start;writing-mode:lr-tb;text-anchor:start;fill:#000000;fill-opacity:1;stroke:none;stroke-width:1px;stroke-linecap:butt;stroke-linejoin:miter;stroke-opacity:1"
         x="1555.4099"
         y="959.25842"
         id="text3525"><tspan
           id="tspan3529"
           sodipodi:role="line"
           x="1555.4099"
           y="959.25842"
           style="font-size:22px;line-height:1.29999995;font-family:sans-serif">Long-wavelength</tspan><tspan
           sodipodi:role="line"
           x="1555.4099"
           y="987.8584"
           id="tspan3533"
           style="font-size:22px;line-height:1.29999995;font-family:sans-serif">radio waves</tspan><tspan
           sodipodi:role="line"
           x="1555.4099"
           y="1016.4584"
           id="tspan3535"
           style="font-size:22px;line-height:1.29999995;font-family:sans-serif">blocked.</tspan></text>
    </switch>
    <switch
       style="font-style:normal;font-variant:normal;font-weight:normal;font-stretch:normal;font-size:22px;line-height:100%;font-family:Sans;-inkscape-font-specification:Sans;text-align:end;writing-mode:lr-tb;text-anchor:end;fill:#000000;fill-opacity:1;stroke:none;stroke-width:1px;stroke-linecap:butt;stroke-linejoin:miter;stroke-opacity:1"
       id="switch208">
      <text
         xml:space="preserve"
         style="font-style:normal;font-variant:normal;font-weight:normal;font-stretch:normal;line-height:0%;font-family:sans-serif;-inkscape-font-specification:Sans;text-align:end;writing-mode:lr-tb;text-anchor:end;fill:#000000;fill-opacity:1;stroke:none;stroke-width:1px;stroke-linecap:butt;stroke-linejoin:miter;stroke-opacity:1"
         x="263.53699"
         y="1413.6995"
         id="text3559"><tspan
           sodipodi:role="line"
           id="tspan3561"
           x="263.53699"
           y="1413.6995"
           style="font-size:22px;line-height:1;font-family:sans-serif">0 %</tspan></text>
    </switch>
    <switch
       style="font-style:normal;font-variant:normal;font-weight:normal;font-stretch:normal;font-size:22px;line-height:100%;font-family:Sans;-inkscape-font-specification:Sans;text-align:end;writing-mode:lr-tb;text-anchor:end;fill:#000000;fill-opacity:1;stroke:none;stroke-width:1px;stroke-linecap:butt;stroke-linejoin:miter;stroke-opacity:1"
       id="switch212">
      <text
         id="text3563"
         y="1275.4597"
         x="263.53699"
         style="font-style:normal;font-variant:normal;font-weight:normal;font-stretch:normal;line-height:0%;font-family:sans-serif;-inkscape-font-specification:Sans;text-align:end;writing-mode:lr-tb;text-anchor:end;fill:#000000;fill-opacity:1;stroke:none;stroke-width:1px;stroke-linecap:butt;stroke-linejoin:miter;stroke-opacity:1"
         xml:space="preserve"><tspan
           y="1275.4597"
           x="263.53699"
           id="tspan3565"
           sodipodi:role="line"
           style="font-size:22px;line-height:1;font-family:sans-serif">50 %</tspan></text>
    </switch>
    <switch
       style="font-style:normal;font-variant:normal;font-weight:normal;font-stretch:normal;font-size:22px;line-height:100%;font-family:Sans;-inkscape-font-specification:Sans;text-align:end;writing-mode:lr-tb;text-anchor:end;fill:#000000;fill-opacity:1;stroke:none;stroke-width:1px;stroke-linecap:butt;stroke-linejoin:miter;stroke-opacity:1"
       id="switch216">
      <text
         xml:space="preserve"
         style="font-style:normal;font-variant:normal;font-weight:normal;font-stretch:normal;line-height:0%;font-family:sans-serif;-inkscape-font-specification:Sans;text-align:end;writing-mode:lr-tb;text-anchor:end;fill:#000000;fill-opacity:1;stroke:none;stroke-width:1px;stroke-linecap:butt;stroke-linejoin:miter;stroke-opacity:1"
         x="263.53699"
         y="1136.0073"
         id="text3567"><tspan
           sodipodi:role="line"
           id="tspan3569"
           x="263.53699"
           y="1136.0073"
           style="font-size:22px;line-height:1;font-family:sans-serif">100 %</tspan></text>
    </switch>
    <switch
       style="font-style:normal;font-variant:normal;font-weight:normal;font-stretch:normal;font-size:18px;line-height:100%;font-family:Sans;-inkscape-font-specification:Sans;text-align:center;writing-mode:lr-tb;text-anchor:middle;fill:#000000;fill-opacity:1;stroke:none;stroke-width:1px;stroke-linecap:butt;stroke-linejoin:miter;stroke-opacity:1"
       id="switch220">
      <text
         xml:space="preserve"
         style="font-style:normal;font-variant:normal;font-weight:normal;font-stretch:normal;line-height:0%;font-family:sans-serif;-inkscape-font-specification:Sans;text-align:center;writing-mode:lr-tb;text-anchor:middle;fill:#000000;fill-opacity:1;stroke:none;stroke-width:1px;stroke-linecap:butt;stroke-linejoin:miter;stroke-opacity:1"
         x="410.26511"
         y="1445.8341"
         id="text3571"><tspan
           sodipodi:role="line"
           id="tspan3573"
           x="410.26511"
           y="1445.8341"
           style="font-size:18px;line-height:1;font-family:sans-serif">0.1 nm</tspan></text>
    </switch>
    <switch
       style="font-style:normal;font-variant:normal;font-weight:normal;font-stretch:normal;font-size:18px;line-height:100%;font-family:Sans;-inkscape-font-specification:Sans;text-align:center;writing-mode:lr-tb;text-anchor:middle;fill:#000000;fill-opacity:1;stroke:none;stroke-width:1px;stroke-linecap:butt;stroke-linejoin:miter;stroke-opacity:1"
       id="switch224">
      <text
         id="text3575"
         y="1445.8341"
         x="508.4881"
         style="font-style:normal;font-variant:normal;font-weight:normal;font-stretch:normal;line-height:0%;font-family:sans-serif;-inkscape-font-specification:Sans;text-align:center;writing-mode:lr-tb;text-anchor:middle;fill:#000000;fill-opacity:1;stroke:none;stroke-width:1px;stroke-linecap:butt;stroke-linejoin:miter;stroke-opacity:1"
         xml:space="preserve"><tspan
           y="1445.8341"
           x="508.4881"
           id="tspan3577"
           sodipodi:role="line"
           style="font-size:18px;line-height:1;font-family:sans-serif">1 nm</tspan></text>
    </switch>
    <switch
       style="font-style:normal;font-variant:normal;font-weight:normal;font-stretch:normal;font-size:18px;line-height:100%;font-family:Sans;-inkscape-font-specification:Sans;text-align:center;writing-mode:lr-tb;text-anchor:middle;fill:#000000;fill-opacity:1;stroke:none;stroke-width:1px;stroke-linecap:butt;stroke-linejoin:miter;stroke-opacity:1"
       id="switch228">
      <text
         xml:space="preserve"
         style="font-style:normal;font-variant:normal;font-weight:normal;font-stretch:normal;line-height:0%;font-family:sans-serif;-inkscape-font-specification:Sans;text-align:center;writing-mode:lr-tb;text-anchor:middle;fill:#000000;fill-opacity:1;stroke:none;stroke-width:1px;stroke-linecap:butt;stroke-linejoin:miter;stroke-opacity:1"
         x="610.349"
         y="1445.8341"
         id="text3579"><tspan
           sodipodi:role="line"
           id="tspan3581"
           x="610.349"
           y="1445.8341"
           style="font-size:18px;line-height:1;font-family:sans-serif">10 nm</tspan></text>
    </switch>
    <switch
       style="font-style:normal;font-variant:normal;font-weight:normal;font-stretch:normal;font-size:18px;line-height:100%;font-family:Sans;-inkscape-font-specification:Sans;text-align:center;writing-mode:lr-tb;text-anchor:middle;fill:#000000;fill-opacity:1;stroke:none;stroke-width:1px;stroke-linecap:butt;stroke-linejoin:miter;stroke-opacity:1"
       id="switch232">
      <text
         id="text3583"
         y="1445.8341"
         x="708.57196"
         style="font-style:normal;font-variant:normal;font-weight:normal;font-stretch:normal;line-height:0%;font-family:sans-serif;-inkscape-font-specification:Sans;text-align:center;writing-mode:lr-tb;text-anchor:middle;fill:#000000;fill-opacity:1;stroke:none;stroke-width:1px;stroke-linecap:butt;stroke-linejoin:miter;stroke-opacity:1"
         xml:space="preserve"><tspan
           y="1445.8341"
           x="708.57196"
           id="tspan3585"
           sodipodi:role="line"
           style="font-size:18px;line-height:1;font-family:sans-serif">100 nm</tspan></text>
    </switch>
    <switch
       style="font-style:normal;font-variant:normal;font-weight:normal;font-stretch:normal;font-size:18px;line-height:100%;font-family:Sans;-inkscape-font-specification:Sans;text-align:center;writing-mode:lr-tb;text-anchor:middle;fill:#000000;fill-opacity:1;stroke:none;stroke-width:1px;stroke-linecap:butt;stroke-linejoin:miter;stroke-opacity:1"
       id="switch236">
      <text
         xml:space="preserve"
         style="font-style:normal;font-variant:normal;font-weight:normal;font-stretch:normal;line-height:0%;font-family:sans-serif;-inkscape-font-specification:Sans;text-align:center;writing-mode:lr-tb;text-anchor:middle;fill:#000000;fill-opacity:1;stroke:none;stroke-width:1px;stroke-linecap:butt;stroke-linejoin:miter;stroke-opacity:1"
         x="809.22021"
         y="1445.8341"
         id="text3587"><tspan
           sodipodi:role="line"
           id="tspan3589"
           x="809.22021"
           y="1445.8341"
           style="font-size:18px;line-height:1;font-family:sans-serif">1 µm</tspan></text>
    </switch>
    <switch
       style="font-style:normal;font-variant:normal;font-weight:normal;font-stretch:normal;font-size:18px;line-height:100%;font-family:Sans;-inkscape-font-specification:Sans;text-align:center;writing-mode:lr-tb;text-anchor:middle;fill:#000000;fill-opacity:1;stroke:none;stroke-width:1px;stroke-linecap:butt;stroke-linejoin:miter;stroke-opacity:1"
       id="switch240">
      <text
         id="text3591"
         y="1445.8341"
         x="909.86847"
         style="font-style:normal;font-variant:normal;font-weight:normal;font-stretch:normal;line-height:0%;font-family:sans-serif;-inkscape-font-specification:Sans;text-align:center;writing-mode:lr-tb;text-anchor:middle;fill:#000000;fill-opacity:1;stroke:none;stroke-width:1px;stroke-linecap:butt;stroke-linejoin:miter;stroke-opacity:1"
         xml:space="preserve"><tspan
           y="1445.8341"
           x="909.86847"
           id="tspan3593"
           sodipodi:role="line"
           style="font-size:18px;line-height:1;font-family:sans-serif">10 µm</tspan></text>
    </switch>
    <switch
       style="font-style:normal;font-variant:normal;font-weight:normal;font-stretch:normal;font-size:18px;line-height:100%;font-family:Sans;-inkscape-font-specification:Sans;text-align:center;writing-mode:lr-tb;text-anchor:middle;fill:#000000;fill-opacity:1;stroke:none;stroke-width:1px;stroke-linecap:butt;stroke-linejoin:miter;stroke-opacity:1"
       id="switch244">
      <text
         xml:space="preserve"
         style="font-style:normal;font-variant:normal;font-weight:normal;font-stretch:normal;line-height:0%;font-family:sans-serif;-inkscape-font-specification:Sans;text-align:center;writing-mode:lr-tb;text-anchor:middle;fill:#000000;fill-opacity:1;stroke:none;stroke-width:1px;stroke-linecap:butt;stroke-linejoin:miter;stroke-opacity:1"
         x="1008.6978"
         y="1445.8341"
         id="text3595"><tspan
           sodipodi:role="line"
           id="tspan3597"
           x="1008.6978"
           y="1445.8341"
           style="font-size:18px;line-height:1;font-family:sans-serif">100 µm</tspan></text>
    </switch>
    <switch
       style="font-style:normal;font-variant:normal;font-weight:normal;font-stretch:normal;font-size:18px;line-height:100%;font-family:Sans;-inkscape-font-specification:Sans;text-align:center;writing-mode:lr-tb;text-anchor:middle;fill:#000000;fill-opacity:1;stroke:none;stroke-width:1px;stroke-linecap:butt;stroke-linejoin:miter;stroke-opacity:1"
       id="switch248">
      <text
         id="text3599"
         y="1445.8341"
         x="1108.1334"
         style="font-style:normal;font-variant:normal;font-weight:normal;font-stretch:normal;line-height:0%;font-family:sans-serif;-inkscape-font-specification:Sans;text-align:center;writing-mode:lr-tb;text-anchor:middle;fill:#000000;fill-opacity:1;stroke:none;stroke-width:1px;stroke-linecap:butt;stroke-linejoin:miter;stroke-opacity:1"
         xml:space="preserve"><tspan
           y="1445.8341"
           x="1108.1334"
           id="tspan3601"
           sodipodi:role="line"
           style="font-size:18px;line-height:1;font-family:sans-serif">1 mm</tspan></text>
    </switch>
    <switch
       style="font-style:normal;font-variant:normal;font-weight:normal;font-stretch:normal;font-size:18px;line-height:100%;font-family:Sans;-inkscape-font-specification:Sans;text-align:center;writing-mode:lr-tb;text-anchor:middle;fill:#000000;fill-opacity:1;stroke:none;stroke-width:1px;stroke-linecap:butt;stroke-linejoin:miter;stroke-opacity:1"
       id="switch252">
      <text
         xml:space="preserve"
         style="font-style:normal;font-variant:normal;font-weight:normal;font-stretch:normal;line-height:0%;font-family:sans-serif;-inkscape-font-specification:Sans;text-align:center;writing-mode:lr-tb;text-anchor:middle;fill:#000000;fill-opacity:1;stroke:none;stroke-width:1px;stroke-linecap:butt;stroke-linejoin:miter;stroke-opacity:1"
         x="1208.4561"
         y="1445.8341"
         id="text3603"><tspan
           sodipodi:role="line"
           id="tspan3605"
           x="1208.4561"
           y="1445.8341"
           style="font-size:18px;line-height:1;font-family:sans-serif">1 cm</tspan></text>
    </switch>
    <switch
       style="font-style:normal;font-variant:normal;font-weight:normal;font-stretch:normal;font-size:18px;line-height:100%;font-family:Sans;-inkscape-font-specification:Sans;text-align:center;writing-mode:lr-tb;text-anchor:middle;fill:#000000;fill-opacity:1;stroke:none;stroke-width:1px;stroke-linecap:butt;stroke-linejoin:miter;stroke-opacity:1"
       id="switch256">
      <text
         id="text3607"
         y="1445.8341"
         x="1307.2854"
         style="font-style:normal;font-variant:normal;font-weight:normal;font-stretch:normal;line-height:0%;font-family:sans-serif;-inkscape-font-specification:Sans;text-align:center;writing-mode:lr-tb;text-anchor:middle;fill:#000000;fill-opacity:1;stroke:none;stroke-width:1px;stroke-linecap:butt;stroke-linejoin:miter;stroke-opacity:1"
         xml:space="preserve"><tspan
           y="1445.8341"
           x="1307.2854"
           id="tspan3609"
           sodipodi:role="line"
           style="font-size:18px;line-height:1;font-family:sans-serif">10 cm</tspan></text>
    </switch>
    <switch
       style="font-style:normal;font-variant:normal;font-weight:normal;font-stretch:normal;font-size:18px;line-height:100%;font-family:Sans;-inkscape-font-specification:Sans;text-align:center;writing-mode:lr-tb;text-anchor:middle;fill:#000000;fill-opacity:1;stroke:none;stroke-width:1px;stroke-linecap:butt;stroke-linejoin:miter;stroke-opacity:1"
       id="switch260">
      <text
         xml:space="preserve"
         style="font-style:normal;font-variant:normal;font-weight:normal;font-stretch:normal;line-height:0%;font-family:sans-serif;-inkscape-font-specification:Sans;text-align:center;writing-mode:lr-tb;text-anchor:middle;fill:#000000;fill-opacity:1;stroke:none;stroke-width:1px;stroke-linecap:butt;stroke-linejoin:miter;stroke-opacity:1"
         x="1406.1147"
         y="1445.8341"
         id="text3611"><tspan
           sodipodi:role="line"
           id="tspan3613"
           x="1406.1147"
           y="1445.8341"
           style="font-size:18px;line-height:1;font-family:sans-serif">1 m</tspan></text>
    </switch>
    <switch
       style="font-style:normal;font-variant:normal;font-weight:normal;font-stretch:normal;font-size:18px;line-height:100%;font-family:Sans;-inkscape-font-specification:Sans;text-align:center;writing-mode:lr-tb;text-anchor:middle;fill:#000000;fill-opacity:1;stroke:none;stroke-width:1px;stroke-linecap:butt;stroke-linejoin:miter;stroke-opacity:1"
       id="switch264">
      <text
         id="text3615"
         y="1445.8341"
         x="1507.3694"
         style="font-style:normal;font-variant:normal;font-weight:normal;font-stretch:normal;line-height:0%;font-family:sans-serif;-inkscape-font-specification:Sans;text-align:center;writing-mode:lr-tb;text-anchor:middle;fill:#000000;fill-opacity:1;stroke:none;stroke-width:1px;stroke-linecap:butt;stroke-linejoin:miter;stroke-opacity:1"
         xml:space="preserve"><tspan
           y="1445.8341"
           x="1507.3694"
           id="tspan3617"
           sodipodi:role="line"
           style="font-size:18px;line-height:1;font-family:sans-serif">10 m</tspan></text>
    </switch>
    <switch
       style="font-style:normal;font-variant:normal;font-weight:normal;font-stretch:normal;font-size:18px;line-height:100%;font-family:Sans;-inkscape-font-specification:Sans;text-align:center;writing-mode:lr-tb;text-anchor:middle;fill:#000000;fill-opacity:1;stroke:none;stroke-width:1px;stroke-linecap:butt;stroke-linejoin:miter;stroke-opacity:1"
       id="switch268">
      <text
         xml:space="preserve"
         style="font-style:normal;font-variant:normal;font-weight:normal;font-stretch:normal;line-height:0%;font-family:sans-serif;-inkscape-font-specification:Sans;text-align:center;writing-mode:lr-tb;text-anchor:middle;fill:#000000;fill-opacity:1;stroke:none;stroke-width:1px;stroke-linecap:butt;stroke-linejoin:miter;stroke-opacity:1"
         x="1606.1987"
         y="1445.8341"
         id="text3619"><tspan
           sodipodi:role="line"
           id="tspan3621"
           x="1606.1987"
           y="1445.8341"
           style="font-size:18px;line-height:1;font-family:sans-serif">100 m</tspan></text>
    </switch>
    <switch
       style="font-style:normal;font-variant:normal;font-weight:normal;font-stretch:normal;font-size:18px;line-height:100%;font-family:Sans;-inkscape-font-specification:Sans;text-align:center;writing-mode:lr-tb;text-anchor:middle;fill:#000000;fill-opacity:1;stroke:none;stroke-width:1px;stroke-linecap:butt;stroke-linejoin:miter;stroke-opacity:1"
       id="switch272">
      <text
         id="text3623"
         y="1445.8341"
         x="1706.2406"
         style="font-style:normal;font-variant:normal;font-weight:normal;font-stretch:normal;line-height:0%;font-family:sans-serif;-inkscape-font-specification:Sans;text-align:center;writing-mode:lr-tb;text-anchor:middle;fill:#000000;fill-opacity:1;stroke:none;stroke-width:1px;stroke-linecap:butt;stroke-linejoin:miter;stroke-opacity:1"
         xml:space="preserve"><tspan
           y="1445.8341"
           x="1706.2406"
           id="tspan3625"
           sodipodi:role="line"
           style="font-size:18px;line-height:1;font-family:sans-serif">1 km</tspan></text>
    </switch>
    <switch
       style="font-style:normal;font-variant:normal;font-weight:normal;font-stretch:normal;font-size:22px;line-height:100%;font-family:Sans;-inkscape-font-specification:Sans;text-align:start;writing-mode:lr-tb;text-anchor:start;fill:#000000;fill-opacity:1;stroke:none;stroke-width:1px;stroke-linecap:butt;stroke-linejoin:miter;stroke-opacity:1"
       id="switch280">
      <text
         xml:space="preserve"
         style="font-style:normal;font-variant:normal;font-weight:normal;font-stretch:normal;line-height:0%;font-family:sans-serif;-inkscape-font-specification:Sans;text-align:start;writing-mode:lr-tb;text-anchor:start;fill:#000000;fill-opacity:1;stroke:none;stroke-width:1px;stroke-linecap:butt;stroke-linejoin:miter;stroke-opacity:1"
         x="923.91974"
         y="1502.0374"
         id="text3627-fr"
         systemLanguage="fr"><tspan
           sodipodi:role="line"
           id="tspan3629-fr"
           x="923.91974"
           y="1502.0374"
           style="font-weight:bold;font-size:22px;line-height:1;font-family:sans-serif;-inkscape-font-specification:'Sans Bold'">Longueur d'onde</tspan></text>
      <text
         xml:space="preserve"
         style="font-style:normal;font-variant:normal;font-weight:normal;font-stretch:normal;line-height:0%;font-family:sans-serif;-inkscape-font-specification:Sans;text-align:start;writing-mode:lr-tb;text-anchor:start;fill:#000000;fill-opacity:1;stroke:none;stroke-width:1px;stroke-linecap:butt;stroke-linejoin:miter;stroke-opacity:1"
         x="923.91974"
         y="1502.0374"
         id="text3627-es"
         systemLanguage="es"><tspan
           sodipodi:role="line"
           id="tspan3629-es"
           x="923.91974"
           y="1502.0374"
           style="font-weight:bold;font-size:22px;line-height:1;font-family:sans-serif;-inkscape-font-specification:'Sans Bold'">Longitud de Onda</tspan></text>
      <text
         xml:space="preserve"
         style="font-style:normal;font-variant:normal;font-weight:normal;font-stretch:normal;line-height:0%;font-family:sans-serif;-inkscape-font-specification:Sans;text-align:start;writing-mode:lr-tb;text-anchor:start;fill:#000000;fill-opacity:1;stroke:none;stroke-width:1px;stroke-linecap:butt;stroke-linejoin:miter;stroke-opacity:1"
         x="923.91974"
         y="1502.0374"
         id="text3627"><tspan
           sodipodi:role="line"
           id="tspan3629"
           x="923.91974"
           y="1502.0374"
           style="font-weight:bold;font-size:22px;line-height:1;font-family:sans-serif;-inkscape-font-specification:'Sans Bold'">Wavelength</tspan></text>
    </switch>
    <switch
       style="font-style:normal;font-variant:normal;font-weight:normal;font-stretch:normal;font-size:22px;line-height:100%;font-family:Sans;-inkscape-font-specification:Sans;text-align:center;writing-mode:lr-tb;text-anchor:middle;fill:#000000;fill-opacity:1;stroke:none;stroke-width:1px;stroke-linecap:butt;stroke-linejoin:miter;stroke-opacity:1"
       id="switch291">
      <text
         id="text3631-fr"
         y="150.02792"
         x="-1265.9453"
         style="font-style:normal;font-variant:normal;font-weight:normal;font-stretch:normal;line-height:0%;font-family:sans-serif;-inkscape-font-specification:Sans;text-align:center;writing-mode:lr-tb;text-anchor:middle;fill:#000000;fill-opacity:1;stroke:none;stroke-width:1px;stroke-linecap:butt;stroke-linejoin:miter;stroke-opacity:1"
         xml:space="preserve"
         transform="rotate(-90)"
         systemLanguage="fr"><tspan
           y="150.02792"
           x="-1265.9453"
           id="tspan3633-fr"
           sodipodi:role="line"
           style="font-weight:bold;font-size:22px;line-height:1;font-family:sans-serif;-inkscape-font-specification:'Sans Bold'">Opacité</tspan><tspan
           y="172.02792"
           x="-1265.9453"
           sodipodi:role="line"
           id="tspan3635-fr"
           style="font-weight:bold;font-size:22px;line-height:1;font-family:sans-serif;-inkscape-font-specification:'Sans Bold'">atmosphérique</tspan></text>
      <text
         id="text3631-es"
         y="150.02792"
         x="-1265.9453"
         style="font-style:normal;font-variant:normal;font-weight:normal;font-stretch:normal;line-height:0%;font-family:sans-serif;-inkscape-font-specification:Sans;text-align:center;writing-mode:lr-tb;text-anchor:middle;fill:#000000;fill-opacity:1;stroke:none;stroke-width:1px;stroke-linecap:butt;stroke-linejoin:miter;stroke-opacity:1"
         xml:space="preserve"
         transform="rotate(-90)"
         systemLanguage="es"><tspan
           y="150.02792"
           x="-1265.9453"
           id="tspan3633-es"
           sodipodi:role="line"
           style="font-weight:bold;font-size:22px;line-height:1;font-family:sans-serif;-inkscape-font-specification:'Sans Bold'">Opacidad</tspan><tspan
           y="172.02792"
           x="-1265.9453"
           sodipodi:role="line"
           id="tspan3635-es"
           style="font-weight:bold;font-size:22px;line-height:1;font-family:sans-serif;-inkscape-font-specification:'Sans Bold'">atmosférica</tspan></text>
      <text
         id="text3631"
         y="150.02792"
         x="-1265.9453"
         style="font-style:normal;font-variant:normal;font-weight:normal;font-stretch:normal;line-height:0%;font-family:sans-serif;-inkscape-font-specification:Sans;text-align:center;writing-mode:lr-tb;text-anchor:middle;fill:#000000;fill-opacity:1;stroke:none;stroke-width:1px;stroke-linecap:butt;stroke-linejoin:miter;stroke-opacity:1"
         xml:space="preserve"
         transform="rotate(-90)"><tspan
           y="150.02792"
           x="-1265.9453"
           id="tspan3633"
           sodipodi:role="line"
           style="font-weight:bold;font-size:22px;line-height:1;font-family:sans-serif;-inkscape-font-specification:'Sans Bold'">Atmospheric</tspan><tspan
           y="172.02792"
           x="-1265.9453"
           sodipodi:role="line"
           id="tspan3635"
           style="font-weight:bold;font-size:22px;line-height:1;font-family:sans-serif;-inkscape-font-specification:'Sans Bold'">opacity</tspan></text>
    </switch>
  </g>
</svg>
